{
  "order": 0,
  "volatile": false,
  "name": "Minecraft",
  "uid": "net.minecraft",
  "version": "1.2.2",
  "type": "release",
  "releaseTime": "2012-03-01T00:00:01+02:00",
  "assetIndex": {
    "id": "legacy",
    "sha1": "c0fd82e8ce9fbc93119e40d96d5a4e62cfa3f729",
    "url": "https://launchermeta.mojang.com/mc/assets/legacy/c0fd82e8ce9fbc93119e40d96d5a4e62cfa3f729/legacy.json",
    "size": 134284
  },
  "mainJar": {
    "name": "com.mojang:minecraft:1.2.2:client",
    "downloads": {
      "artifact": {
        "sha1": "1dadfc4de6898751f547f24f72c7271218e4e28f",
        "url": "https://launcher.mojang.com/mc/game/1.2.2/client/1dadfc4de6898751f547f24f72c7271218e4e28f/client.jar",
        "size": 3988918
      }
    }
  },
  "traits": [
    "legacylaunch",
    "texturepacks"
  ],
  "requires": [
    {
      "uid": "org.lwjgl",
      "suggests": "2.9.0"
    }
  ]
}