{
  "order": 0,
  "volatile": false,
  "name": "Minecraft",
  "uid": "net.minecraft",
  "version": "1.2.3",
  "type": "release",
  "releaseTime": "2012-03-02T00:00:00+02:00",
  "assetIndex": {
    "id": "legacy",
    "sha1": "c0fd82e8ce9fbc93119e40d96d5a4e62cfa3f729",
    "url": "https://launchermeta.mojang.com/mc/assets/legacy/c0fd82e8ce9fbc93119e40d96d5a4e62cfa3f729/legacy.json",
    "size": 134284
  },
  "mainJar": {
    "name": "com.mojang:minecraft:1.2.3:client",
    "downloads": {
      "artifact": {
        "sha1": "5134e433afeba375c00bbdcd8aead1d3222813ee",
        "url": "https://launcher.mojang.com/mc/game/1.2.3/client/5134e433afeba375c00bbdcd8aead1d3222813ee/client.jar",
        "size": 3988921
      }
    }
  },
  "traits": [
    "legacylaunch",
    "texturepacks"
  ],
  "requires": [
    {
      "uid": "org.lwjgl",
      "suggests": "2.9.0"
    }
  ]
}