{
  "order": 0,
  "volatile": false,
  "name": "Minecraft",
  "uid": "net.minecraft",
  "version": "1.3.2",
  "type": "release",
  "releaseTime": "2012-08-16T00:00:00+02:00",
  "assetIndex": {
    "id": "legacy",
    "sha1": "c0fd82e8ce9fbc93119e40d96d5a4e62cfa3f729",
    "url": "https://launchermeta.mojang.com/mc/assets/legacy/c0fd82e8ce9fbc93119e40d96d5a4e62cfa3f729/legacy.json",
    "size": 134284
  },
  "mainJar": {
    "name": "com.mojang:minecraft:1.3.2:client",
    "downloads": {
      "artifact": {
        "sha1": "c2efd57c7001ddf505ca534e54abf3d006e48309",
        "url": "https://launcher.mojang.com/mc/game/1.3.2/client/c2efd57c7001ddf505ca534e54abf3d006e48309/client.jar",
        "size": 4586019
      }
    }
  },
  "traits": [
    "legacylaunch",
    "texturepacks"
  ],
  "requires": [
    {
      "uid": "org.lwjgl",
      "suggests": "2.9.0"
    }
  ]
}