{
  "order": 0,
  "volatile": false,
  "name": "Minecraft",
  "uid": "net.minecraft",
  "version": "1.3.1",
  "type": "release",
  "releaseTime": "2012-08-01T00:00:00+02:00",
  "assetIndex": {
    "id": "legacy",
    "sha1": "c0fd82e8ce9fbc93119e40d96d5a4e62cfa3f729",
    "url": "https://launchermeta.mojang.com/mc/assets/legacy/c0fd82e8ce9fbc93119e40d96d5a4e62cfa3f729/legacy.json",
    "size": 134284
  },
  "mainJar": {
    "name": "com.mojang:minecraft:1.3.1:client",
    "downloads": {
      "artifact": {
        "sha1": "33167e71e85ab8e6ddbe168bc67f6ec19d708d62",
        "url": "https://launcher.mojang.com/mc/game/1.3.1/client/33167e71e85ab8e6ddbe168bc67f6ec19d708d62/client.jar",
        "size": 4583675
      }
    }
  },
  "traits": [
    "legacylaunch",
    "texturepacks"
  ],
  "requires": [
    {
      "uid": "org.lwjgl",
      "suggests": "2.9.0"
    }
  ]
}