{
  "order": 0,
  "volatile": false,
  "name": "Minecraft",
  "uid": "net.minecraft",
  "version": "1.6.2",
  "type": "release",
  "releaseTime": "2013-07-05T13:09:02+00:00",
  "mainClass": "net.minecraft.client.main.Main",
  "minecraftArguments": "--username ${auth_player_name} --session ${auth_session} --version ${version_name} --gameDir ${game_directory} --assetsDir ${game_assets}",
  "assetIndex": {
    "id": "legacy",
    "sha1": "c0fd82e8ce9fbc93119e40d96d5a4e62cfa3f729",
    "url": "https://launchermeta.mojang.com/mc/assets/legacy/c0fd82e8ce9fbc93119e40d96d5a4e62cfa3f729/legacy.json",
    "size": 134284
  },
  "mainJar": {
    "name": "com.mojang:minecraft:1.6.2:client",
    "downloads": {
      "artifact": {
        "sha1": "b6cb68afde1d9cf4a20cbf27fa90d0828bf440a4",
        "url": "https://launcher.mojang.com/mc/game/1.6.2/client/b6cb68afde1d9cf4a20cbf27fa90d0828bf440a4/client.jar",
        "size": 4731988
      }
    }
  },
  "libraries": [
    {
      "name": "net.sf.jopt-simple:jopt-simple:4.5",
      "downloads": {
        "artifact": {
          "sha1": "6065cc95c661255349c1d0756657be17c29a4fd3",
          "url": "https://libraries.minecraft.net/net/sf/jopt-simple/jopt-simple/4.5/jopt-simple-4.5.jar",
          "size": 61311
        }
      }
    },
    {
      "name": "com.paulscode:codecjorbis:20101023",
      "downloads": {
        "artifact": {
          "sha1": "c73b5636faf089d9f00e8732a829577de25237ee",
          "url": "https://libraries.minecraft.net/com/paulscode/codecjorbis/20101023/codecjorbis-20101023.jar",
          "size": 103871
        }
      }
    },
    {
      "name": "com.paulscode:codecwav:20101023",
      "downloads": {
        "artifact": {
          "sha1": "12f031cfe88fef5c1dd36c563c0a3a69bd7261da",
          "url": "https://libraries.minecraft.net/com/paulscode/codecwav/20101023/codecwav-20101023.jar",
          "size": 5618
        }
      }
    },
    {
      "name": "com.paulscode:libraryjavasound:20101123",
      "downloads": {
        "artifact": {
          "sha1": "5c5e304366f75f9eaa2e8cca546a1fb6109348b3",
          "url": "https://libraries.minecraft.net/com/paulscode/libraryjavasound/20101123/libraryjavasound-20101123.jar",
          "size": 21679
        }
      }
    },
    {
      "name": "com.paulscode:librarylwjglopenal:20100824",
      "downloads": {
        "artifact": {
          "sha1": "73e80d0794c39665aec3f62eee88ca91676674ef",
          "url": "https://libraries.minecraft.net/com/paulscode/librarylwjglopenal/20100824/librarylwjglopenal-20100824.jar",
          "size": 18981
        }
      }
    },
    {
      "name": "com.paulscode:soundsystem:20120107",
      "downloads": {
        "artifact": {
          "sha1": "419c05fe9be71f792b2d76cfc9b67f1ed0fec7f6",
          "url": "https://libraries.minecraft.net/com/paulscode/soundsystem/20120107/soundsystem-20120107.jar",
          "size": 65020
        }
      }
    },
    {
      "name": "argo:argo:2.25_fixed",
      "downloads": {
        "artifact": {
          "sha1": "751761ce15a3e3aaf3fc75b9f013ff8f7b88a585",
          "url": "https://libraries.minecraft.net/argo/argo/2.25_fixed/argo-2.25_fixed.jar",
          "size": 74953
        }
      }
    },
    {
      "name": "org.bouncycastle:bcprov-jdk15on:1.47",
      "downloads": {
        "artifact": {
          "sha1": "b6f5d9926b0afbde9f4dbe3db88c5247be7794bb",
          "url": "https://libraries.minecraft.net/org/bouncycastle/bcprov-jdk15on/1.47/bcprov-jdk15on-1.47.jar",
          "size": 1997327
        }
      }
    },
    {
      "name": "com.google.guava:guava:14.0",
      "downloads": {
        "artifact": {
          "sha1": "67b7be4ee7ba48e4828a42d6d5069761186d4a53",
          "url": "https://libraries.minecraft.net/com/google/guava/guava/14.0/guava-14.0.jar",
          "size": 2189111
        }
      }
    },
    {
      "name": "org.apache.commons:commons-lang3:3.1",
      "downloads": {
        "artifact": {
          "sha1": "905075e6c80f206bbe6cf1e809d2caa69f420c76",
          "url": "https://libraries.minecraft.net/org/apache/commons/commons-lang3/3.1/commons-lang3-3.1.jar",
          "size": 315805
        }
      }
    },
    {
      "name": "commons-io:commons-io:2.4",
      "downloads": {
        "artifact": {
          "sha1": "b1b6ea3b7e4aa4f492509a4952029cd8e48019ad",
          "url": "https://libraries.minecraft.net/commons-io/commons-io/2.4/commons-io-2.4.jar",
          "size": 185140
        }
      }
    },
    {
      "name": "com.google.code.gson:gson:2.2.2",
      "downloads": {
        "artifact": {
          "sha1": "1f96456ca233dec780aa224bff076d8e8bca3908",
          "url": "https://libraries.minecraft.net/com/google/code/gson/gson/2.2.2/gson-2.2.2.jar",
          "size": 189285
        }
      }
    }
  ],
  "requires": [
    {
      "uid": "org.lwjgl",
      "suggests": "2.9.0"
    }
  ]
}