{
  "order": 0,
  "volatile": false,
  "name": "Minecraft",
  "uid": "net.minecraft",
  "version": "1.7.9",
  "type": "release",
  "releaseTime": "2014-04-14T13:29:23+00:00",
  "mainClass": "net.minecraft.client.main.Main",
  "minecraftArguments": "--username ${auth_player_name} --version ${version_name} --gameDir ${game_directory} --assetsDir ${assets_root} --assetIndex ${assets_index_name} --uuid ${auth_uuid} --accessToken ${auth_access_token} --userProperties ${user_properties} --userType ${user_type}",
  "assetIndex": {
    "id": "1.7.4",
    "sha1": "bb71fd461aca9a9bc18e2d1ab659122b05618a8e",
    "url": "https://launchermeta.mojang.com/mc/assets/1.7.4/bb71fd461aca9a9bc18e2d1ab659122b05618a8e/1.7.4.json",
    "size": 73081
  },
  "mainJar": {
    "name": "com.mojang:minecraft:1.7.9:client",
    "downloads": {
      "artifact": {
        "sha1": "fbbaae784b1de315a8d08a82c6c345a583fb676b",
        "url": "https://launcher.mojang.com/mc/game/1.7.9/client/fbbaae784b1de315a8d08a82c6c345a583fb676b/client.jar",
        "size": 5268481
      }
    }
  },
  "libraries": [
    {
      "name": "java3d:vecmath:1.3.1",
      "downloads": {
        "artifact": {
          "sha1": "a0ae4f51da409fa0c20fa0ca59e6bbc9413ae71d",
          "url": "https://libraries.minecraft.net/java3d/vecmath/1.3.1/vecmath-1.3.1.jar",
          "size": 289881
        }
      }
    },
    {
      "name": "net.sf.trove4j:trove4j:3.0.3",
      "downloads": {
        "artifact": {
          "sha1": "42ccaf4761f0dfdfa805c9e340d99a755907e2dd",
          "url": "https://libraries.minecraft.net/net/sf/trove4j/trove4j/3.0.3/trove4j-3.0.3.jar",
          "size": 2523218
        }
      }
    },
    {
      "name": "com.ibm.icu:icu4j-core-mojang:51.2",
      "downloads": {
        "artifact": {
          "sha1": "63d216a9311cca6be337c1e458e587f99d382b84",
          "url": "https://libraries.minecraft.net/com/ibm/icu/icu4j-core-mojang/51.2/icu4j-core-mojang-51.2.jar",
          "size": 1634692
        }
      }
    },
    {
      "name": "net.sf.jopt-simple:jopt-simple:4.5",
      "downloads": {
        "artifact": {
          "sha1": "6065cc95c661255349c1d0756657be17c29a4fd3",
          "url": "https://libraries.minecraft.net/net/sf/jopt-simple/jopt-simple/4.5/jopt-simple-4.5.jar",
          "size": 61311
        }
      }
    },
    {
      "name": "com.paulscode:codecjorbis:20101023",
      "downloads": {
        "artifact": {
          "sha1": "c73b5636faf089d9f00e8732a829577de25237ee",
          "url": "https://libraries.minecraft.net/com/paulscode/codecjorbis/20101023/codecjorbis-20101023.jar",
          "size": 103871
        }
      }
    },
    {
      "name": "com.paulscode:codecwav:20101023",
      "downloads": {
        "artifact": {
          "sha1": "12f031cfe88fef5c1dd36c563c0a3a69bd7261da",
          "url": "https://libraries.minecraft.net/com/paulscode/codecwav/20101023/codecwav-20101023.jar",
          "size": 5618
        }
      }
    },
    {
      "name": "com.paulscode:libraryjavasound:20101123",
      "downloads": {
        "artifact": {
          "sha1": "5c5e304366f75f9eaa2e8cca546a1fb6109348b3",
          "url": "https://libraries.minecraft.net/com/paulscode/libraryjavasound/20101123/libraryjavasound-20101123.jar",
          "size": 21679
        }
      }
    },
    {
      "name": "com.paulscode:librarylwjglopenal:20100824",
      "downloads": {
        "artifact": {
          "sha1": "73e80d0794c39665aec3f62eee88ca91676674ef",
          "url": "https://libraries.minecraft.net/com/paulscode/librarylwjglopenal/20100824/librarylwjglopenal-20100824.jar",
          "size": 18981
        }
      }
    },
    {
      "name": "com.paulscode:soundsystem:20120107",
      "downloads": {
        "artifact": {
          "sha1": "419c05fe9be71f792b2d76cfc9b67f1ed0fec7f6",
          "url": "https://libraries.minecraft.net/com/paulscode/soundsystem/20120107/soundsystem-20120107.jar",
          "size": 65020
        }
      }
    },
    {
      "name": "io.netty:netty-all:4.0.10.Final",
      "downloads": {
        "artifact": {
          "sha1": "9e50bd52ffe257a0e2cd8d971688d6ce7d174325",
          "url": "https://libraries.minecraft.net/io/netty/netty-all/4.0.10.Final/netty-all-4.0.10.Final.jar",
          "size": 1452995
        }
      }
    },
    {
      "name": "com.google.guava:guava:15.0",
      "downloads": {
        "artifact": {
          "sha1": "ed727a8d9f247e2050281cb083f1c77b09dcb5cd",
          "url": "https://libraries.minecraft.net/com/google/guava/guava/15.0/guava-15.0.jar",
          "size": 2172168
        }
      }
    },
    {
      "name": "org.apache.commons:commons-lang3:3.1",
      "downloads": {
        "artifact": {
          "sha1": "905075e6c80f206bbe6cf1e809d2caa69f420c76",
          "url": "https://libraries.minecraft.net/org/apache/commons/commons-lang3/3.1/commons-lang3-3.1.jar",
          "size": 315805
        }
      }
    },
    {
      "name": "commons-io:commons-io:2.4",
      "downloads": {
        "artifact": {
          "sha1": "b1b6ea3b7e4aa4f492509a4952029cd8e48019ad",
          "url": "https://libraries.minecraft.net/commons-io/commons-io/2.4/commons-io-2.4.jar",
          "size": 185140
        }
      }
    },
    {
      "name": "commons-codec:commons-codec:1.9",
      "downloads": {
        "artifact": {
          "sha1": "9ce04e34240f674bc72680f8b843b1457383161a",
          "url": "https://libraries.minecraft.net/commons-codec/commons-codec/1.9/commons-codec-1.9.jar",
          "size": 263965
        }
      }
    },
    {
      "name": "com.google.code.gson:gson:2.2.4",
      "downloads": {
        "artifact": {
          "sha1": "a60a5e993c98c864010053cb901b7eab25306568",
          "url": "https://libraries.minecraft.net/com/google/code/gson/gson/2.2.4/gson-2.2.4.jar",
          "size": 190432
        }
      }
    },
    {
      "name": "com.mojang:authlib:1.5.13",
      "downloads": {
        "artifact": {
          "sha1": "260f1d004e6ac3b359c96bd12a6c9a937e5378ec",
          "url": "https://libraries.minecraft.net/com/mojang/authlib/1.5.13/authlib-1.5.13.jar",
          "size": 61452
        }
      }
    },
    {
      "name": "org.apache.logging.log4j:log4j-api:2.0-beta9",
      "downloads": {
        "artifact": {
          "sha1": "1dd66e68cccd907880229f9e2de1314bd13ff785",
          "url": "https://libraries.minecraft.net/org/apache/logging/log4j/log4j-api/2.0-beta9/log4j-api-2.0-beta9.jar",
          "size": 108161
        }
      }
    },
    {
      "name": "org.apache.logging.log4j:log4j-core:2.0-beta9",
      "downloads": {
        "artifact": {
          "sha1": "678861ba1b2e1fccb594bb0ca03114bb05da9695",
          "url": "https://libraries.minecraft.net/org/apache/logging/log4j/log4j-core/2.0-beta9/log4j-core-2.0-beta9.jar",
          "size": 681134
        }
      }
    },
    {
      "name": "tv.twitch:twitch:5.16",
      "downloads": {
        "artifact": {
          "sha1": "1f55f009c61637c10c0acfb8b5ffc600f30044b4",
          "url": "https://libraries.minecraft.net/tv/twitch/twitch/5.16/twitch-5.16.jar",
          "size": 52315
        }
      }
    },
    {
      "name": "tv.twitch:twitch-platform:5.16",
      "extract": {
        "exclude": [
          "META-INF/"
        ]
      },
      "downloads": {
        "classifiers": {
          "natives-osx": {
            "sha1": "62503ee712766cf77f97252e5902786fd834b8c5",
            "url": "https://libraries.minecraft.net/tv/twitch/twitch-platform/5.16/twitch-platform-5.16-natives-osx.jar",
            "size": 418331
          },
          "natives-windows-32": {
            "sha1": "7c6affe439099806a4f552da14c42f9d643d8b23",
            "url": "https://libraries.minecraft.net/tv/twitch/twitch-platform/5.16/twitch-platform-5.16-natives-windows-32.jar",
            "size": 386792
          },
          "natives-windows-64": {
            "sha1": "39d0c3d363735b4785598e0e7fbf8297c706a9f9",
            "url": "https://libraries.minecraft.net/tv/twitch/twitch-platform/5.16/twitch-platform-5.16-natives-windows-64.jar",
            "size": 463390
          }
        }
      },
      "natives": {
        "linux": "natives-linux",
        "osx": "natives-osx",
        "windows": "natives-windows-${arch}"
      },
      "rules": [
        {
          "action": "allow"
        },
        {
          "action": "disallow",
          "os": {
            "name": "linux"
          }
        }
      ]
    },
    {
      "name": "tv.twitch:twitch-external-platform:4.5",
      "extract": {
        "exclude": [
          "META-INF/"
        ]
      },
      "downloads": {
        "classifiers": {
          "natives-windows-32": {
            "sha1": "18215140f010c05b9f86ef6f0f8871954d2ccebf",
            "url": "https://libraries.minecraft.net/tv/twitch/twitch-external-platform/4.5/twitch-external-platform-4.5-natives-windows-32.jar",
            "size": 5654047
          },
          "natives-windows-64": {
            "sha1": "c3cde57891b935d41b6680a9c5e1502eeab76d86",
            "url": "https://libraries.minecraft.net/tv/twitch/twitch-external-platform/4.5/twitch-external-platform-4.5-natives-windows-64.jar",
            "size": 7457619
          }
        }
      },
      "natives": {
        "windows": "natives-windows-${arch}"
      },
      "rules": [
        {
          "action": "allow",
          "os": {
            "name": "windows"
          }
        }
      ]
    }
  ],
  "requires": [
    {
      "uid": "org.lwjgl",
      "suggests": "2.9.1"
    }
  ]
}