{
  "order": 0,
  "volatile": false,
  "name": "Minecraft",
  "uid": "net.minecraft",
  "version": "1.9",
  "type": "release",
  "releaseTime": "2016-02-29T13:49:54+00:00",
  "mainClass": "net.minecraft.client.main.Main",
  "minecraftArguments": "--username ${auth_player_name} --version ${version_name} --gameDir ${game_directory} --assetsDir ${assets_root} --assetIndex ${assets_index_name} --uuid ${auth_uuid} --accessToken ${auth_access_token} --userType ${user_type} --versionType ${version_type}",
  "assetIndex": {
    "id": "1.9",
    "sha1": "8549e8aca91ee8b8d1620e9e8252d477f16a56d5",
    "url": "https://launchermeta.mojang.com/mc/assets/1.9/8549e8aca91ee8b8d1620e9e8252d477f16a56d5/1.9.json",
    "size": 137552
  },
  "mainJar": {
    "name": "com.mojang:minecraft:1.9:client",
    "downloads": {
      "artifact": {
        "sha1": "2f67dfe8953299440d1902f9124f0f2c3a2c940f",
        "url": "https://launcher.mojang.com/mc/game/1.9/client/2f67dfe8953299440d1902f9124f0f2c3a2c940f/client.jar",
        "size": 8697592
      }
    }
  },
  "libraries": [
    {
      "name": "oshi-project:oshi-core:1.1",
      "downloads": {
        "artifact": {
          "sha1": "9ddf7b048a8d701be231c0f4f95fd986198fd2d8",
          "url": "https://libraries.minecraft.net/oshi-project/oshi-core/1.1/oshi-core-1.1.jar",
          "size": 30973
        }
      }
    },
    {
      "name": "net.java.dev.jna:jna:3.4.0",
      "downloads": {
        "artifact": {
          "sha1": "803ff252fedbd395baffd43b37341dc4a150a554",
          "url": "https://libraries.minecraft.net/net/java/dev/jna/jna/3.4.0/jna-3.4.0.jar",
          "size": 1008730
        }
      }
    },
    {
      "name": "net.java.dev.jna:platform:3.4.0",
      "downloads": {
        "artifact": {
          "sha1": "e3f70017be8100d3d6923f50b3d2ee17714e9c13",
          "url": "https://libraries.minecraft.net/net/java/dev/jna/platform/3.4.0/platform-3.4.0.jar",
          "size": 913436
        }
      }
    },
    {
      "name": "com.ibm.icu:icu4j-core-mojang:51.2",
      "downloads": {
        "artifact": {
          "sha1": "63d216a9311cca6be337c1e458e587f99d382b84",
          "url": "https://libraries.minecraft.net/com/ibm/icu/icu4j-core-mojang/51.2/icu4j-core-mojang-51.2.jar",
          "size": 1634692
        }
      }
    },
    {
      "name": "net.sf.jopt-simple:jopt-simple:4.6",
      "downloads": {
        "artifact": {
          "sha1": "306816fb57cf94f108a43c95731b08934dcae15c",
          "url": "https://libraries.minecraft.net/net/sf/jopt-simple/jopt-simple/4.6/jopt-simple-4.6.jar",
          "size": 62477
        }
      }
    },
    {
      "name": "com.paulscode:codecjorbis:20101023",
      "downloads": {
        "artifact": {
          "sha1": "c73b5636faf089d9f00e8732a829577de25237ee",
          "url": "https://libraries.minecraft.net/com/paulscode/codecjorbis/20101023/codecjorbis-20101023.jar",
          "size": 103871
        }
      }
    },
    {
      "name": "com.paulscode:codecwav:20101023",
      "downloads": {
        "artifact": {
          "sha1": "12f031cfe88fef5c1dd36c563c0a3a69bd7261da",
          "url": "https://libraries.minecraft.net/com/paulscode/codecwav/20101023/codecwav-20101023.jar",
          "size": 5618
        }
      }
    },
    {
      "name": "com.paulscode:libraryjavasound:20101123",
      "downloads": {
        "artifact": {
          "sha1": "5c5e304366f75f9eaa2e8cca546a1fb6109348b3",
          "url": "https://libraries.minecraft.net/com/paulscode/libraryjavasound/20101123/libraryjavasound-20101123.jar",
          "size": 21679
        }
      }
    },
    {
      "name": "com.paulscode:librarylwjglopenal:20100824",
      "downloads": {
        "artifact": {
          "sha1": "73e80d0794c39665aec3f62eee88ca91676674ef",
          "url": "https://libraries.minecraft.net/com/paulscode/librarylwjglopenal/20100824/librarylwjglopenal-20100824.jar",
          "size": 18981
        }
      }
    },
    {
      "name": "com.paulscode:soundsystem:20120107",
      "downloads": {
        "artifact": {
          "sha1": "419c05fe9be71f792b2d76cfc9b67f1ed0fec7f6",
          "url": "https://libraries.minecraft.net/com/paulscode/soundsystem/20120107/soundsystem-20120107.jar",
          "size": 65020
        }
      }
    },
    {
      "name": "io.netty:netty-all:4.0.23.Final",
      "downloads": {
        "artifact": {
          "sha1": "0294104aaf1781d6a56a07d561e792c5d0c95f45",
          "url": "https://libraries.minecraft.net/io/netty/netty-all/4.0.23.Final/netty-all-4.0.23.Final.jar",
          "size": 1779991
        }
      }
    },
    {
      "name": "com.google.guava:guava:17.0",
      "downloads": {
        "artifact": {
          "sha1": "9c6ef172e8de35fd8d4d8783e4821e57cdef7445",
          "url": "https://libraries.minecraft.net/com/google/guava/guava/17.0/guava-17.0.jar",
          "size": 2243036
        }
      }
    },
    {
      "name": "org.apache.commons:commons-lang3:3.3.2",
      "downloads": {
        "artifact": {
          "sha1": "90a3822c38ec8c996e84c16a3477ef632cbc87a3",
          "url": "https://libraries.minecraft.net/org/apache/commons/commons-lang3/3.3.2/commons-lang3-3.3.2.jar",
          "size": 412739
        }
      }
    },
    {
      "name": "commons-io:commons-io:2.4",
      "downloads": {
        "artifact": {
          "sha1": "b1b6ea3b7e4aa4f492509a4952029cd8e48019ad",
          "url": "https://libraries.minecraft.net/commons-io/commons-io/2.4/commons-io-2.4.jar",
          "size": 185140
        }
      }
    },
    {
      "name": "commons-codec:commons-codec:1.9",
      "downloads": {
        "artifact": {
          "sha1": "9ce04e34240f674bc72680f8b843b1457383161a",
          "url": "https://libraries.minecraft.net/commons-codec/commons-codec/1.9/commons-codec-1.9.jar",
          "size": 263965
        }
      }
    },
    {
      "name": "com.google.code.gson:gson:2.2.4",
      "downloads": {
        "artifact": {
          "sha1": "a60a5e993c98c864010053cb901b7eab25306568",
          "url": "https://libraries.minecraft.net/com/google/code/gson/gson/2.2.4/gson-2.2.4.jar",
          "size": 190432
        }
      }
    },
    {
      "name": "com.mojang:authlib:1.5.22",
      "downloads": {
        "artifact": {
          "sha1": "afaa8f6df976fcb5520e76ef1d5798c9e6b5c0b2",
          "url": "https://libraries.minecraft.net/com/mojang/authlib/1.5.22/authlib-1.5.22.jar",
          "size": 64539
        }
      }
    },
    {
      "name": "com.mojang:realms:1.8.7",
      "downloads": {
        "artifact": {
          "sha1": "b624280016616bb56cc6c30282684322edc7e7eb",
          "url": "https://libraries.minecraft.net/com/mojang/realms/1.8.7/realms-1.8.7.jar",
          "size": 1132656
        }
      }
    },
    {
      "name": "org.apache.commons:commons-compress:1.8.1",
      "downloads": {
        "artifact": {
          "sha1": "a698750c16740fd5b3871425f4cb3bbaa87f529d",
          "url": "https://libraries.minecraft.net/org/apache/commons/commons-compress/1.8.1/commons-compress-1.8.1.jar",
          "size": 365552
        }
      }
    },
    {
      "name": "org.apache.httpcomponents:httpclient:4.3.3",
      "downloads": {
        "artifact": {
          "sha1": "18f4247ff4572a074444572cee34647c43e7c9c7",
          "url": "https://libraries.minecraft.net/org/apache/httpcomponents/httpclient/4.3.3/httpclient-4.3.3.jar",
          "size": 589512
        }
      }
    },
    {
      "name": "commons-logging:commons-logging:1.1.3",
      "downloads": {
        "artifact": {
          "sha1": "f6f66e966c70a83ffbdb6f17a0919eaf7c8aca7f",
          "url": "https://libraries.minecraft.net/commons-logging/commons-logging/1.1.3/commons-logging-1.1.3.jar",
          "size": 62050
        }
      }
    },
    {
      "name": "org.apache.httpcomponents:httpcore:4.3.2",
      "downloads": {
        "artifact": {
          "sha1": "31fbbff1ddbf98f3aa7377c94d33b0447c646b6e",
          "url": "https://libraries.minecraft.net/org/apache/httpcomponents/httpcore/4.3.2/httpcore-4.3.2.jar",
          "size": 282269
        }
      }
    },
    {
      "name": "org.apache.logging.log4j:log4j-api:2.0-beta9",
      "downloads": {
        "artifact": {
          "sha1": "1dd66e68cccd907880229f9e2de1314bd13ff785",
          "url": "https://libraries.minecraft.net/org/apache/logging/log4j/log4j-api/2.0-beta9/log4j-api-2.0-beta9.jar",
          "size": 108161
        }
      }
    },
    {
      "name": "org.apache.logging.log4j:log4j-core:2.0-beta9",
      "downloads": {
        "artifact": {
          "sha1": "678861ba1b2e1fccb594bb0ca03114bb05da9695",
          "url": "https://libraries.minecraft.net/org/apache/logging/log4j/log4j-core/2.0-beta9/log4j-core-2.0-beta9.jar",
          "size": 681134
        }
      }
    }
  ],
  "requires": [
    {
      "uid": "org.lwjgl",
      "suggests": "2.9.4-nightly-20150209"
    }
  ]
}