{
  "order": 0,
  "volatile": false,
  "name": "Minecraft",
  "uid": "net.minecraft",
  "version": "18w06a",
  "type": "snapshot",
  "releaseTime": "2018-02-09T12:09:55+00:00",
  "mainClass": "net.minecraft.client.main.Main",
  "minecraftArguments": "--username ${auth_player_name} --version ${version_name} --gameDir ${game_directory} --assetsDir ${assets_root} --assetIndex ${assets_index_name} --uuid ${auth_uuid} --accessToken ${auth_access_token} --userType ${user_type} --versionType ${version_type}",
  "assetIndex": {
    "id": "1.13",
    "sha1": "9576de2997192ad3af0e40d5e863b04eee5e2c27",
    "url": "https://launchermeta.mojang.com/mc/assets/1.13/9576de2997192ad3af0e40d5e863b04eee5e2c27/1.13.json",
    "size": 188852
  },
  "mainJar": {
    "name": "com.mojang:minecraft:18w06a:client",
    "downloads": {
      "artifact": {
        "sha1": "78ed8d3359453614d8f69bd982111e8aa6c8f612",
        "url": "https://launcher.mojang.com/mc/game/18w06a/client/78ed8d3359453614d8f69bd982111e8aa6c8f612/client.jar",
        "size": 11163926
      }
    }
  },
  "traits": [
    "FirstThreadOnMacOS"
  ],
  "libraries": [
    {
      "name": "oshi-project:oshi-core:1.1",
      "downloads": {
        "artifact": {
          "sha1": "9ddf7b048a8d701be231c0f4f95fd986198fd2d8",
          "url": "https://libraries.minecraft.net/oshi-project/oshi-core/1.1/oshi-core-1.1.jar",
          "size": 30973
        }
      }
    },
    {
      "name": "net.java.dev.jna:jna:4.4.0",
      "downloads": {
        "artifact": {
          "sha1": "cb208278274bf12ebdb56c61bd7407e6f774d65a",
          "url": "https://libraries.minecraft.net/net/java/dev/jna/jna/4.4.0/jna-4.4.0.jar",
          "size": 1091208
        }
      }
    },
    {
      "name": "net.java.dev.jna:platform:3.4.0",
      "downloads": {
        "artifact": {
          "sha1": "e3f70017be8100d3d6923f50b3d2ee17714e9c13",
          "url": "https://libraries.minecraft.net/net/java/dev/jna/platform/3.4.0/platform-3.4.0.jar",
          "size": 913436
        }
      }
    },
    {
      "name": "com.ibm.icu:icu4j-core-mojang:51.2",
      "downloads": {
        "artifact": {
          "sha1": "63d216a9311cca6be337c1e458e587f99d382b84",
          "url": "https://libraries.minecraft.net/com/ibm/icu/icu4j-core-mojang/51.2/icu4j-core-mojang-51.2.jar",
          "size": 1634692
        }
      }
    },
    {
      "name": "net.sf.jopt-simple:jopt-simple:5.0.3",
      "downloads": {
        "artifact": {
          "sha1": "cdd846cfc4e0f7eefafc02c0f5dce32b9303aa2a",
          "url": "https://libraries.minecraft.net/net/sf/jopt-simple/jopt-simple/5.0.3/jopt-simple-5.0.3.jar",
          "size": 78175
        }
      }
    },
    {
      "name": "com.paulscode:codecjorbis:20101023",
      "downloads": {
        "artifact": {
          "sha1": "c73b5636faf089d9f00e8732a829577de25237ee",
          "url": "https://libraries.minecraft.net/com/paulscode/codecjorbis/20101023/codecjorbis-20101023.jar",
          "size": 103871
        }
      }
    },
    {
      "name": "com.paulscode:codecwav:20101023",
      "downloads": {
        "artifact": {
          "sha1": "12f031cfe88fef5c1dd36c563c0a3a69bd7261da",
          "url": "https://libraries.minecraft.net/com/paulscode/codecwav/20101023/codecwav-20101023.jar",
          "size": 5618
        }
      }
    },
    {
      "name": "com.paulscode:libraryjavasound:20101123",
      "downloads": {
        "artifact": {
          "sha1": "5c5e304366f75f9eaa2e8cca546a1fb6109348b3",
          "url": "https://libraries.minecraft.net/com/paulscode/libraryjavasound/20101123/libraryjavasound-20101123.jar",
          "size": 21679
        }
      }
    },
    {
      "name": "com.paulscode:soundsystem:20120107",
      "downloads": {
        "artifact": {
          "sha1": "419c05fe9be71f792b2d76cfc9b67f1ed0fec7f6",
          "url": "https://libraries.minecraft.net/com/paulscode/soundsystem/20120107/soundsystem-20120107.jar",
          "size": 65020
        }
      }
    },
    {
      "name": "io.netty:netty-all:4.1.9.Final",
      "downloads": {
        "artifact": {
          "sha1": "0097860965d6a0a6b98e7f569f3f966727b8db75",
          "url": "https://libraries.minecraft.net/io/netty/netty-all/4.1.9.Final/netty-all-4.1.9.Final.jar",
          "size": 3511093
        }
      }
    },
    {
      "name": "com.google.guava:guava:21.0",
      "downloads": {
        "artifact": {
          "sha1": "3a3d111be1be1b745edfa7d91678a12d7ed38709",
          "url": "https://libraries.minecraft.net/com/google/guava/guava/21.0/guava-21.0.jar",
          "size": 2521113
        }
      }
    },
    {
      "name": "org.apache.commons:commons-lang3:3.5",
      "downloads": {
        "artifact": {
          "sha1": "6c6c702c89bfff3cd9e80b04d668c5e190d588c6",
          "url": "https://libraries.minecraft.net/org/apache/commons/commons-lang3/3.5/commons-lang3-3.5.jar",
          "size": 479881
        },
        "classifiers": {
          "tests": {
            "sha1": "8ca309192f104265c67a1570245ae827a8650af9",
            "url": "https://libraries.minecraft.net/org/apache/commons/commons-lang3/3.5/commons-lang3-3.5-tests.jar",
            "size": 780282
          }
        }
      }
    },
    {
      "name": "commons-io:commons-io:2.5",
      "downloads": {
        "artifact": {
          "sha1": "2852e6e05fbb95076fc091f6d1780f1f8fe35e0f",
          "url": "https://libraries.minecraft.net/commons-io/commons-io/2.5/commons-io-2.5.jar",
          "size": 208700
        },
        "classifiers": {
          "tests": {
            "sha1": "32b15369c83e9435ced8cd3fbe652dfba9c497ef",
            "url": "https://libraries.minecraft.net/commons-io/commons-io/2.5/commons-io-2.5-tests.jar",
            "size": 372821
          }
        }
      }
    },
    {
      "name": "commons-codec:commons-codec:1.10",
      "downloads": {
        "artifact": {
          "sha1": "4b95f4897fa13f2cd904aee711aeafc0c5295cd8",
          "url": "https://libraries.minecraft.net/commons-codec/commons-codec/1.10/commons-codec-1.10.jar",
          "size": 284184
        },
        "classifiers": {
          "tests": {
            "sha1": "df86446f0fe79f15ce8048c0ed04d1a92fa8d265",
            "url": "https://libraries.minecraft.net/commons-codec/commons-codec/1.10/commons-codec-1.10-tests.jar",
            "size": 256617
          }
        }
      }
    },
    {
      "name": "com.mojang:brigadier:0.1.24",
      "downloads": {
        "artifact": {
          "sha1": "4ce2a6a19befbd7672138adad5b2656da95fa1cb",
          "url": "https://libraries.minecraft.net/com/mojang/brigadier/0.1.24/brigadier-0.1.24.jar",
          "size": 65227
        }
      }
    },
    {
      "name": "com.google.code.gson:gson:2.8.0",
      "downloads": {
        "artifact": {
          "sha1": "c4ba5371a29ac9b2ad6129b1d39ea38750043eff",
          "url": "https://libraries.minecraft.net/com/google/code/gson/gson/2.8.0/gson-2.8.0.jar",
          "size": 231952
        }
      }
    },
    {
      "name": "com.mojang:authlib:1.5.25",
      "downloads": {
        "artifact": {
          "sha1": "9834cdf236c22e84b946bba989e2f94ef5897c3c",
          "url": "https://libraries.minecraft.net/com/mojang/authlib/1.5.25/authlib-1.5.25.jar",
          "size": 65621
        }
      }
    },
    {
      "name": "org.apache.commons:commons-compress:1.8.1",
      "downloads": {
        "artifact": {
          "sha1": "a698750c16740fd5b3871425f4cb3bbaa87f529d",
          "url": "https://libraries.minecraft.net/org/apache/commons/commons-compress/1.8.1/commons-compress-1.8.1.jar",
          "size": 365552
        }
      }
    },
    {
      "name": "org.apache.httpcomponents:httpclient:4.3.3",
      "downloads": {
        "artifact": {
          "sha1": "18f4247ff4572a074444572cee34647c43e7c9c7",
          "url": "https://libraries.minecraft.net/org/apache/httpcomponents/httpclient/4.3.3/httpclient-4.3.3.jar",
          "size": 589512
        }
      }
    },
    {
      "name": "commons-logging:commons-logging:1.1.3",
      "downloads": {
        "artifact": {
          "sha1": "f6f66e966c70a83ffbdb6f17a0919eaf7c8aca7f",
          "url": "https://libraries.minecraft.net/commons-logging/commons-logging/1.1.3/commons-logging-1.1.3.jar",
          "size": 62050
        }
      }
    },
    {
      "name": "org.apache.httpcomponents:httpcore:4.3.2",
      "downloads": {
        "artifact": {
          "sha1": "31fbbff1ddbf98f3aa7377c94d33b0447c646b6e",
          "url": "https://libraries.minecraft.net/org/apache/httpcomponents/httpcore/4.3.2/httpcore-4.3.2.jar",
          "size": 282269
        }
      }
    },
    {
      "name": "it.unimi.dsi:fastutil:7.1.0",
      "downloads": {
        "artifact": {
          "sha1": "9835253257524c1be7ab50c057aa2d418fb72082",
          "url": "https://libraries.minecraft.net/it/unimi/dsi/fastutil/7.1.0/fastutil-7.1.0.jar",
          "size": 17655579
        }
      }
    },
    {
      "name": "org.apache.logging.log4j:log4j-api:2.8.1",
      "downloads": {
        "artifact": {
          "sha1": "e801d13612e22cad62a3f4f3fe7fdbe6334a8e72",
          "url": "https://libraries.minecraft.net/org/apache/logging/log4j/log4j-api/2.8.1/log4j-api-2.8.1.jar",
          "size": 228859
        },
        "classifiers": {
          "tests": {
            "sha1": "9d0c48c6186ea7f7f443803801ee7c9469129b85",
            "url": "https://libraries.minecraft.net/org/apache/logging/log4j/log4j-api/2.8.1/log4j-api-2.8.1-tests.jar",
            "size": 192791
          }
        }
      }
    },
    {
      "name": "org.apache.logging.log4j:log4j-core:2.8.1",
      "downloads": {
        "artifact": {
          "sha1": "4ac28ff2f1ddf05dae3043a190451e8c46b73c31",
          "url": "https://libraries.minecraft.net/org/apache/logging/log4j/log4j-core/2.8.1/log4j-core-2.8.1.jar",
          "size": 1402925
        },
        "classifiers": {
          "tests": {
            "sha1": "ef19122d4ad5de8da81fafabd007403007c8a832",
            "url": "https://libraries.minecraft.net/org/apache/logging/log4j/log4j-core/2.8.1/log4j-core-2.8.1-tests.jar",
            "size": 1412295
          }
        }
      }
    },
    {
      "name": "com.mojang:text2speech:1.10.3",
      "downloads": {
        "artifact": {
          "sha1": "48fd510879dff266c3815947de66e3d4809f8668",
          "url": "https://libraries.minecraft.net/com/mojang/text2speech/1.10.3/text2speech-1.10.3.jar",
          "size": 11055
        },
        "classifiers": {
          "natives-linux": {
            "sha1": "ab7896aec3b3dd272b06194357f2d98f832c0cfc",
            "url": "https://libraries.minecraft.net/com/mojang/text2speech/1.10.3/text2speech-1.10.3-natives-linux.jar",
            "size": 7833
          },
          "natives-windows": {
            "sha1": "84a4b856389cc4f485275b1f63497a95a857a443",
            "url": "https://libraries.minecraft.net/com/mojang/text2speech/1.10.3/text2speech-1.10.3-natives-windows.jar",
            "size": 81217
          }
        }
      }
    },
    {
      "name": "com.mojang:text2speech:1.10.3",
      "extract": {
        "exclude": [
          "META-INF/"
        ]
      },
      "downloads": {
        "artifact": {
          "sha1": "48fd510879dff266c3815947de66e3d4809f8668",
          "url": "https://libraries.minecraft.net/com/mojang/text2speech/1.10.3/text2speech-1.10.3.jar",
          "size": 11055
        },
        "classifiers": {
          "natives-linux": {
            "sha1": "ab7896aec3b3dd272b06194357f2d98f832c0cfc",
            "url": "https://libraries.minecraft.net/com/mojang/text2speech/1.10.3/text2speech-1.10.3-natives-linux.jar",
            "size": 7833
          },
          "natives-windows": {
            "sha1": "84a4b856389cc4f485275b1f63497a95a857a443",
            "url": "https://libraries.minecraft.net/com/mojang/text2speech/1.10.3/text2speech-1.10.3-natives-windows.jar",
            "size": 81217
          }
        }
      },
      "natives": {
        "linux": "natives-linux",
        "windows": "natives-windows"
      }
    },
    {
      "name": "ca.weblite:java-objc-bridge:1.0.0",
      "extract": {
        "exclude": [
          "META-INF/"
        ]
      },
      "downloads": {
        "artifact": {
          "sha1": "6ef160c3133a78de015830860197602ca1c855d3",
          "url": "https://libraries.minecraft.net/ca/weblite/java-objc-bridge/1.0.0/java-objc-bridge-1.0.0.jar",
          "size": 40502
        },
        "classifiers": {
          "natives-osx": {
            "sha1": "08befab4894d55875f33c3d300f4f71e6e828f64",
            "url": "https://libraries.minecraft.net/ca/weblite/java-objc-bridge/1.0.0/java-objc-bridge-1.0.0-natives-osx.jar",
            "size": 5629
          }
        }
      },
      "natives": {
        "osx": "natives-osx"
      },
      "rules": [
        {
          "action": "allow",
          "os": {
            "name": "osx"
          }
        }
      ]
    },
    {
      "name": "ca.weblite:java-objc-bridge:1.0.0",
      "downloads": {
        "artifact": {
          "sha1": "6ef160c3133a78de015830860197602ca1c855d3",
          "url": "https://libraries.minecraft.net/ca/weblite/java-objc-bridge/1.0.0/java-objc-bridge-1.0.0.jar",
          "size": 40502
        },
        "classifiers": {
          "natives-osx": {
            "sha1": "08befab4894d55875f33c3d300f4f71e6e828f64",
            "url": "https://libraries.minecraft.net/ca/weblite/java-objc-bridge/1.0.0/java-objc-bridge-1.0.0-natives-osx.jar",
            "size": 5629
          }
        }
      },
      "rules": [
        {
          "action": "allow",
          "os": {
            "name": "osx"
          }
        }
      ]
    }
  ],
  "requires": [
    {
      "uid": "org.lwjgl3",
      "suggests": "3.1.2"
    }
  ]
}