{
  "order": 0,
  "volatile": false,
  "name": "Minecraft",
  "uid": "net.minecraft",
  "version": "a1.0.5_01",
  "type": "old_alpha",
  "releaseTime": "2010-07-13T00:00:00+02:00",
  "mainClass": "y",
  "assetIndex": {
    "id": "legacy",
    "sha1": "c0fd82e8ce9fbc93119e40d96d5a4e62cfa3f729",
    "url": "https://launchermeta.mojang.com/mc/assets/legacy/c0fd82e8ce9fbc93119e40d96d5a4e62cfa3f729/legacy.json",
    "size": 134284
  },
  "mainJar": {
    "name": "com.mojang:minecraft:a1.0.5_01:client",
    "downloads": {
      "artifact": {
        "sha1": "73f569bf5556580979606049204835ae1a54f04d",
        "url": "https://launcher.mojang.com/mc/game/a1.0.5_01/client/73f569bf5556580979606049204835ae1a54f04d/client.jar",
        "size": 783436
      }
    }
  },
  "traits": [
    "legacylaunch",
    "no-texturepacks"
  ],
  "requires": [
    {
      "uid": "org.lwjgl",
      "suggests": "2.9.0"
    }
  ]
}