{
  "order": 0,
  "volatile": false,
  "name": "Minecraft",
  "uid": "net.minecraft",
  "version": "a1.1.2",
  "type": "old_alpha",
  "releaseTime": "2010-09-20T00:00:00+02:00",
  "assetIndex": {
    "id": "legacy",
    "sha1": "c0fd82e8ce9fbc93119e40d96d5a4e62cfa3f729",
    "url": "https://launchermeta.mojang.com/mc/assets/legacy/c0fd82e8ce9fbc93119e40d96d5a4e62cfa3f729/legacy.json",
    "size": 134284
  },
  "mainJar": {
    "name": "com.mojang:minecraft:a1.1.2:client",
    "downloads": {
      "artifact": {
        "sha1": "f9b4b66f9c18bf4800d80f1c8865a837f92c6105",
        "url": "https://launcher.mojang.com/mc/game/a1.1.2/client/f9b4b66f9c18bf4800d80f1c8865a837f92c6105/client.jar",
        "size": 897054
      }
    }
  },
  "traits": [
    "legacylaunch",
    "no-texturepacks"
  ],
  "requires": [
    {
      "uid": "org.lwjgl",
      "suggests": "2.9.0"
    }
  ]
}