{
  "order": 0,
  "volatile": false,
  "name": "Minecraft",
  "uid": "net.minecraft",
  "version": "a1.2.3_01",
  "type": "old_alpha",
  "releaseTime": "2010-11-24T00:00:01+02:00",
  "assetIndex": {
    "id": "legacy",
    "sha1": "c0fd82e8ce9fbc93119e40d96d5a4e62cfa3f729",
    "url": "https://launchermeta.mojang.com/mc/assets/legacy/c0fd82e8ce9fbc93119e40d96d5a4e62cfa3f729/legacy.json",
    "size": 134284
  },
  "mainJar": {
    "name": "com.mojang:minecraft:a1.2.3_01:client",
    "downloads": {
      "artifact": {
        "sha1": "1d46e65022f3a7cf4b8ad30ee5a8d52b3b2b9486",
        "url": "https://launcher.mojang.com/mc/game/a1.2.3_01/client/1d46e65022f3a7cf4b8ad30ee5a8d52b3b2b9486/client.jar",
        "size": 1101132
      }
    }
  },
  "traits": [
    "legacylaunch",
    "texturepacks"
  ],
  "requires": [
    {
      "uid": "org.lwjgl",
      "suggests": "2.9.0"
    }
  ]
}