{
  "order": 0,
  "volatile": false,
  "name": "Minecraft",
  "uid": "net.minecraft",
  "version": "a1.2.0",
  "type": "old_alpha",
  "releaseTime": "2010-10-30T00:00:00+02:00",
  "assetIndex": {
    "id": "legacy",
    "sha1": "c0fd82e8ce9fbc93119e40d96d5a4e62cfa3f729",
    "url": "https://launchermeta.mojang.com/mc/assets/legacy/c0fd82e8ce9fbc93119e40d96d5a4e62cfa3f729/legacy.json",
    "size": 134284
  },
  "mainJar": {
    "name": "com.mojang:minecraft:a1.2.0:client",
    "downloads": {
      "artifact": {
        "sha1": "8632ea716fd083c2975f16d612306fd80bee46db",
        "url": "https://launcher.mojang.com/mc/game/a1.2.0/client/8632ea716fd083c2975f16d612306fd80bee46db/client.jar",
        "size": 1055945
      }
    }
  },
  "traits": [
    "legacylaunch",
    "no-texturepacks"
  ],
  "requires": [
    {
      "uid": "org.lwjgl",
      "suggests": "2.9.0"
    }
  ]
}