{
  "order": 0,
  "volatile": false,
  "name": "Minecraft",
  "uid": "net.minecraft",
  "version": "a1.2.3",
  "type": "old_alpha",
  "releaseTime": "2010-11-24T00:00:00+02:00",
  "assetIndex": {
    "id": "legacy",
    "sha1": "c0fd82e8ce9fbc93119e40d96d5a4e62cfa3f729",
    "url": "https://launchermeta.mojang.com/mc/assets/legacy/c0fd82e8ce9fbc93119e40d96d5a4e62cfa3f729/legacy.json",
    "size": 134284
  },
  "mainJar": {
    "name": "com.mojang:minecraft:a1.2.3:client",
    "downloads": {
      "artifact": {
        "sha1": "f4be258122cb62208b350cd2068685ad859bb447",
        "url": "https://launcher.mojang.com/mc/game/a1.2.3/client/f4be258122cb62208b350cd2068685ad859bb447/client.jar",
        "size": 1101109
      }
    }
  },
  "traits": [
    "legacylaunch",
    "texturepacks"
  ],
  "requires": [
    {
      "uid": "org.lwjgl",
      "suggests": "2.9.0"
    }
  ]
}