{
  "order": 0,
  "volatile": false,
  "name": "Minecraft",
  "uid": "net.minecraft",
  "version": "a1.2.5",
  "type": "old_alpha",
  "releaseTime": "2010-12-01T00:00:00+02:00",
  "assetIndex": {
    "id": "legacy",
    "sha1": "c0fd82e8ce9fbc93119e40d96d5a4e62cfa3f729",
    "url": "https://launchermeta.mojang.com/mc/assets/legacy/c0fd82e8ce9fbc93119e40d96d5a4e62cfa3f729/legacy.json",
    "size": 134284
  },
  "mainJar": {
    "name": "com.mojang:minecraft:a1.2.5:client",
    "downloads": {
      "artifact": {
        "sha1": "f48c7b6442ad8d01099ecee1c7c7332f1b1a80da",
        "url": "https://launcher.mojang.com/mc/game/a1.2.5/client/f48c7b6442ad8d01099ecee1c7c7332f1b1a80da/client.jar",
        "size": 1104244
      }
    }
  },
  "traits": [
    "legacylaunch",
    "texturepacks"
  ],
  "requires": [
    {
      "uid": "org.lwjgl",
      "suggests": "2.9.0"
    }
  ]
}