{
  "order": 0,
  "volatile": false,
  "name": "Minecraft",
  "uid": "net.minecraft",
  "version": "a1.2.2a",
  "type": "old_alpha",
  "releaseTime": "2010-11-10T00:00:00+02:00",
  "assetIndex": {
    "id": "legacy",
    "sha1": "c0fd82e8ce9fbc93119e40d96d5a4e62cfa3f729",
    "url": "https://launchermeta.mojang.com/mc/assets/legacy/c0fd82e8ce9fbc93119e40d96d5a4e62cfa3f729/legacy.json",
    "size": 134284
  },
  "mainJar": {
    "name": "com.mojang:minecraft:a1.2.2a:client",
    "downloads": {
      "artifact": {
        "sha1": "7d9d85eaca9627d3a40e6d122182f2d22d39dbf9",
        "url": "https://launcher.mojang.com/mc/game/a1.2.2a/client/7d9d85eaca9627d3a40e6d122182f2d22d39dbf9/client.jar",
        "size": 1098159
      }
    }
  },
  "traits": [
    "legacylaunch",
    "texturepacks"
  ],
  "requires": [
    {
      "uid": "org.lwjgl",
      "suggests": "2.9.0"
    }
  ]
}