{
  "order": 0,
  "volatile": false,
  "name": "Minecraft",
  "uid": "net.minecraft",
  "version": "a1.2.1",
  "type": "old_alpha",
  "releaseTime": "2010-11-05T00:00:00+02:00",
  "assetIndex": {
    "id": "legacy",
    "sha1": "c0fd82e8ce9fbc93119e40d96d5a4e62cfa3f729",
    "url": "https://launchermeta.mojang.com/mc/assets/legacy/c0fd82e8ce9fbc93119e40d96d5a4e62cfa3f729/legacy.json",
    "size": 134284
  },
  "mainJar": {
    "name": "com.mojang:minecraft:a1.2.1:client",
    "downloads": {
      "artifact": {
        "sha1": "e4226f9ba622634e3101681bc641eec7ee9e72fd",
        "url": "https://launcher.mojang.com/mc/game/a1.2.1/client/e4226f9ba622634e3101681bc641eec7ee9e72fd/client.jar",
        "size": 1053508
      }
    }
  },
  "traits": [
    "legacylaunch",
    "no-texturepacks"
  ],
  "requires": [
    {
      "uid": "org.lwjgl",
      "suggests": "2.9.0"
    }
  ]
}