{
  "order": 0,
  "volatile": false,
  "name": "Minecraft",
  "uid": "net.minecraft",
  "version": "b1.2_02",
  "type": "old_beta",
  "releaseTime": "2011-01-21T00:00:00+02:00",
  "assetIndex": {
    "id": "legacy",
    "sha1": "c0fd82e8ce9fbc93119e40d96d5a4e62cfa3f729",
    "url": "https://launchermeta.mojang.com/mc/assets/legacy/c0fd82e8ce9fbc93119e40d96d5a4e62cfa3f729/legacy.json",
    "size": 134284
  },
  "mainJar": {
    "name": "com.mojang:minecraft:b1.2_02:client",
    "downloads": {
      "artifact": {
        "sha1": "093f371e1a05d89664cfb8068d607953687d5d94",
        "url": "https://launcher.mojang.com/mc/game/b1.2_02/client/093f371e1a05d89664cfb8068d607953687d5d94/client.jar",
        "size": 1136276
      }
    }
  },
  "traits": [
    "legacylaunch",
    "texturepacks"
  ],
  "requires": [
    {
      "uid": "org.lwjgl",
      "suggests": "2.9.0"
    }
  ]
}