{
  "order": 0,
  "volatile": false,
  "name": "Minecraft",
  "uid": "net.minecraft",
  "version": "b1.4",
  "type": "old_beta",
  "releaseTime": "2011-03-31T00:00:00+02:00",
  "assetIndex": {
    "id": "legacy",
    "sha1": "c0fd82e8ce9fbc93119e40d96d5a4e62cfa3f729",
    "url": "https://launchermeta.mojang.com/mc/assets/legacy/c0fd82e8ce9fbc93119e40d96d5a4e62cfa3f729/legacy.json",
    "size": 134284
  },
  "mainJar": {
    "name": "com.mojang:minecraft:b1.4:client",
    "downloads": {
      "artifact": {
        "sha1": "f6dbca5223ea2a7e89806e93d0b18162b2d58c20",
        "url": "https://launcher.mojang.com/mc/game/b1.4/client/f6dbca5223ea2a7e89806e93d0b18162b2d58c20/client.jar",
        "size": 1309277
      }
    }
  },
  "traits": [
    "legacylaunch",
    "texturepacks"
  ],
  "requires": [
    {
      "uid": "org.lwjgl",
      "suggests": "2.9.0"
    }
  ]
}