{
  "order": 0,
  "volatile": false,
  "name": "Minecraft",
  "uid": "net.minecraft",
  "version": "b1.6.4",
  "type": "old_beta",
  "releaseTime": "2011-05-26T00:00:04+02:00",
  "assetIndex": {
    "id": "legacy",
    "sha1": "c0fd82e8ce9fbc93119e40d96d5a4e62cfa3f729",
    "url": "https://launchermeta.mojang.com/mc/assets/legacy/c0fd82e8ce9fbc93119e40d96d5a4e62cfa3f729/legacy.json",
    "size": 134284
  },
  "mainJar": {
    "name": "com.mojang:minecraft:b1.6.4:client",
    "downloads": {
      "artifact": {
        "sha1": "b5d3bdb8a7b12d163651f4787ac6ca14689aab9e",
        "url": "https://launcher.mojang.com/mc/game/b1.6.4/client/b5d3bdb8a7b12d163651f4787ac6ca14689aab9e/client.jar",
        "size": 1422278
      }
    }
  },
  "traits": [
    "legacylaunch",
    "texturepacks"
  ],
  "requires": [
    {
      "uid": "org.lwjgl",
      "suggests": "2.9.0"
    }
  ]
}