{
  "order": 0,
  "volatile": false,
  "name": "Minecraft",
  "uid": "net.minecraft",
  "version": "b1.6",
  "type": "old_beta",
  "releaseTime": "2011-05-26T00:00:00+02:00",
  "assetIndex": {
    "id": "legacy",
    "sha1": "c0fd82e8ce9fbc93119e40d96d5a4e62cfa3f729",
    "url": "https://launchermeta.mojang.com/mc/assets/legacy/c0fd82e8ce9fbc93119e40d96d5a4e62cfa3f729/legacy.json",
    "size": 134284
  },
  "mainJar": {
    "name": "com.mojang:minecraft:b1.6:client",
    "downloads": {
      "artifact": {
        "sha1": "ecc0288d218fd7479027a17c150cbf283fa950a1",
        "url": "https://launcher.mojang.com/mc/game/b1.6/client/ecc0288d218fd7479027a17c150cbf283fa950a1/client.jar",
        "size": 1421757
      }
    }
  },
  "traits": [
    "legacylaunch",
    "texturepacks"
  ],
  "requires": [
    {
      "uid": "org.lwjgl",
      "suggests": "2.9.0"
    }
  ]
}