{
  "order": 0,
  "volatile": false,
  "name": "Minecraft",
  "uid": "net.minecraft",
  "version": "b1.7.2",
  "type": "old_beta",
  "releaseTime": "2011-07-01T00:00:00+02:00",
  "assetIndex": {
    "id": "legacy",
    "sha1": "c0fd82e8ce9fbc93119e40d96d5a4e62cfa3f729",
    "url": "https://launchermeta.mojang.com/mc/assets/legacy/c0fd82e8ce9fbc93119e40d96d5a4e62cfa3f729/legacy.json",
    "size": 134284
  },
  "mainJar": {
    "name": "com.mojang:minecraft:b1.7.2:client",
    "downloads": {
      "artifact": {
        "sha1": "7dc50cc5e2ff204a7283f0c7d38cd0370b49875b",
        "url": "https://launcher.mojang.com/mc/game/b1.7.2/client/7dc50cc5e2ff204a7283f0c7d38cd0370b49875b/client.jar",
        "size": 1465138
      }
    }
  },
  "traits": [
    "legacylaunch",
    "texturepacks"
  ],
  "requires": [
    {
      "uid": "org.lwjgl",
      "suggests": "2.9.0"
    }
  ]
}