{
  "order": 0,
  "volatile": false,
  "name": "Minecraft",
  "uid": "net.minecraft",
  "version": "rd-161348",
  "type": "old_alpha",
  "releaseTime": "2009-05-16T13:48:00+02:00",
  "mainClass": "com.mojang.minecraft.RubyDung",
  "assetIndex": {
    "id": "legacy",
    "sha1": "c0fd82e8ce9fbc93119e40d96d5a4e62cfa3f729",
    "url": "https://launchermeta.mojang.com/mc/assets/legacy/c0fd82e8ce9fbc93119e40d96d5a4e62cfa3f729/legacy.json",
    "size": 134284
  },
  "mainJar": {
    "name": "com.mojang:minecraft:rd-161348:client",
    "downloads": {
      "artifact": {
        "sha1": "6323bd14ed7f83852e17ebc8ec418e55c97ddfe4",
        "url": "https://launcher.mojang.com/mc/game/rd-161348/client/6323bd14ed7f83852e17ebc8ec418e55c97ddfe4/client.jar",
        "size": 60480
      }
    }
  },
  "traits": [
    "no-texturepacks"
  ],
  "requires": [
    {
      "uid": "org.lwjgl",
      "suggests": "2.9.0"
    }
  ]
}