{
  "order": 0,
  "volatile": false,
  "name": "Minecraft",
  "uid": "net.minecraft",
  "version": "rd-132211",
  "type": "old_alpha",
  "releaseTime": "2009-05-13T22:11:00+02:00",
  "mainClass": "com.mojang.rubydung.RubyDung",
  "assetIndex": {
    "id": "legacy",
    "sha1": "c0fd82e8ce9fbc93119e40d96d5a4e62cfa3f729",
    "url": "https://launchermeta.mojang.com/mc/assets/legacy/c0fd82e8ce9fbc93119e40d96d5a4e62cfa3f729/legacy.json",
    "size": 134284
  },
  "mainJar": {
    "name": "com.mojang:minecraft:rd-132211:client",
    "downloads": {
      "artifact": {
        "sha1": "393e8d4b4d708587e2accd7c5221db65365e1075",
        "url": "https://launcher.mojang.com/mc/game/rd-132211/client/393e8d4b4d708587e2accd7c5221db65365e1075/client.jar",
        "size": 26704
      }
    }
  },
  "traits": [
    "no-texturepacks"
  ],
  "requires": [
    {
      "uid": "org.lwjgl",
      "suggests": "2.9.0"
    }
  ]
}