{
  "order": 0,
  "volatile": false,
  "name": "Minecraft",
  "uid": "net.minecraft",
  "version": "rd-132328",
  "type": "old_alpha",
  "releaseTime": "2009-05-13T23:28:00+02:00",
  "mainClass": "com.mojang.rubydung.RubyDung",
  "assetIndex": {
    "id": "legacy",
    "sha1": "c0fd82e8ce9fbc93119e40d96d5a4e62cfa3f729",
    "url": "https://launchermeta.mojang.com/mc/assets/legacy/c0fd82e8ce9fbc93119e40d96d5a4e62cfa3f729/legacy.json",
    "size": 134284
  },
  "mainJar": {
    "name": "com.mojang:minecraft:rd-132328:client",
    "downloads": {
      "artifact": {
        "sha1": "12dace5a458617d3f90337a7ebde86c0593a6899",
        "url": "https://launcher.mojang.com/mc/game/rd-132328/client/12dace5a458617d3f90337a7ebde86c0593a6899/client.jar",
        "size": 35435
      }
    }
  },
  "traits": [
    "no-texturepacks"
  ],
  "requires": [
    {
      "uid": "org.lwjgl",
      "suggests": "2.9.0"
    }
  ]
}