{
  "order": 5,
  "volatile": false,
  "name": "Forge",
  "uid": "net.minecraftforge",
  "version": "1.3.4.34",
  "releaseTime": "2012-03-06T12:16:10",
  "jarMods": [
    {
      "name": "net.minecraftforge:forge:1.2.3-1.3.4.34:client",
      "downloads": {
        "artifact": {
          "sha1": "026c986f32243ea3717ef5588078cb24e205dc3f",
          "url": "http://files.minecraftforge.net/maven/net/minecraftforge/forge/1.2.3-1.3.4.34/forge-1.2.3-1.3.4.34-client.zip",
          "size": 493315
        }
      }
    }
  ],
  "requires": [
    {
      "uid": "net.minecraft",
      "equals": "1.2.3"
    }
  ]
}