{
  "order": 5,
  "volatile": false,
  "name": "Forge",
  "uid": "net.minecraftforge",
  "version": "1.3.2.4",
  "releaseTime": "2012-02-10T03:10:24",
  "jarMods": [
    {
      "name": "net.minecraftforge:forge:1.1-1.3.2.4:client",
      "downloads": {
        "artifact": {
          "sha1": "0e36def24134f9ea0262d650d757a37375eb03a3",
          "url": "http://files.minecraftforge.net/maven/net/minecraftforge/forge/1.1-1.3.2.4/forge-1.1-1.3.2.4-client.zip",
          "size": 417875
        }
      }
    }
  ],
  "requires": [
    {
      "uid": "net.minecraft",
      "equals": "1.1"
    }
  ]
}