{
  "order": 5,
  "volatile": false,
  "name": "Forge",
  "uid": "net.minecraftforge",
  "version": "1.3.3.28",
  "releaseTime": "2012-02-29T02:33:32",
  "jarMods": [
    {
      "name": "net.minecraftforge:forge:1.1-1.3.3.28:client",
      "downloads": {
        "artifact": {
          "sha1": "35151035d6694f7e58f2a38b86ad41605ba9eead",
          "url": "http://files.minecraftforge.net/maven/net/minecraftforge/forge/1.1-1.3.3.28/forge-1.1-1.3.3.28-client.zip",
          "size": 486646
        }
      }
    }
  ],
  "requires": [
    {
      "uid": "net.minecraft",
      "equals": "1.1"
    }
  ]
}