{
  "order": 5,
  "volatile": false,
  "name": "Forge",
  "uid": "net.minecraftforge",
  "version": "1.3.2.5",
  "releaseTime": "2012-02-10T04:05:56",
  "jarMods": [
    {
      "name": "net.minecraftforge:forge:1.1-1.3.2.5:client",
      "downloads": {
        "artifact": {
          "sha1": "14c5933f019a36c72ac21447223922d225d8ca12",
          "url": "http://files.minecraftforge.net/maven/net/minecraftforge/forge/1.1-1.3.2.5/forge-1.1-1.3.2.5-client.zip",
          "size": 418025
        }
      }
    }
  ],
  "requires": [
    {
      "uid": "net.minecraft",
      "equals": "1.1"
    }
  ]
}