{
  "order": 5,
  "volatile": false,
  "name": "Forge",
  "uid": "net.minecraftforge",
  "version": "1.3.4.36",
  "releaseTime": "2012-03-06T15:09:00",
  "jarMods": [
    {
      "name": "net.minecraftforge:forge:1.2.3-1.3.4.36:client",
      "downloads": {
        "artifact": {
          "sha1": "8ea8e6acd46548bd44e4065fcd298c6c8fe45bfa",
          "url": "http://files.minecraftforge.net/maven/net/minecraftforge/forge/1.2.3-1.3.4.36/forge-1.2.3-1.3.4.36-client.zip",
          "size": 495443
        }
      }
    }
  ],
  "requires": [
    {
      "uid": "net.minecraft",
      "equals": "1.2.3"
    }
  ]
}