{
  "order": 5,
  "volatile": false,
  "name": "Forge",
  "uid": "net.minecraftforge",
  "version": "1.3.3.26",
  "releaseTime": "2012-02-25T15:44:56",
  "jarMods": [
    {
      "name": "net.minecraftforge:forge:1.1-1.3.3.26:client",
      "downloads": {
        "artifact": {
          "sha1": "2f32d8d4fe7ff21a1134cd2336d292e44e3df4b2",
          "url": "http://files.minecraftforge.net/maven/net/minecraftforge/forge/1.1-1.3.3.26/forge-1.1-1.3.3.26-client.zip",
          "size": 460674
        }
      }
    }
  ],
  "requires": [
    {
      "uid": "net.minecraft",
      "equals": "1.1"
    }
  ]
}