{
  "order": 5,
  "volatile": false,
  "name": "Forge",
  "uid": "net.minecraftforge",
  "version": "1.3.4.41",
  "releaseTime": "2012-03-08T22:37:54",
  "jarMods": [
    {
      "name": "net.minecraftforge:forge:1.2.3-1.3.4.41:client",
      "downloads": {
        "artifact": {
          "sha1": "464bda507ea2b70a27a168dceb26511fab3e97d3",
          "url": "http://files.minecraftforge.net/maven/net/minecraftforge/forge/1.2.3-1.3.4.41/forge-1.2.3-1.3.4.41-client.zip",
          "size": 499564
        }
      }
    }
  ],
  "requires": [
    {
      "uid": "net.minecraft",
      "equals": "1.2.3"
    }
  ]
}