{
  "order": 5,
  "volatile": false,
  "name": "Forge",
  "uid": "net.minecraftforge",
  "version": "1.3.4.38",
  "releaseTime": "2012-03-06T22:49:30",
  "jarMods": [
    {
      "name": "net.minecraftforge:forge:1.2.3-1.3.4.38:client",
      "downloads": {
        "artifact": {
          "sha1": "d254fec60aafefafcb399790a28f27f69e67d56c",
          "url": "http://files.minecraftforge.net/maven/net/minecraftforge/forge/1.2.3-1.3.4.38/forge-1.2.3-1.3.4.38-client.zip",
          "size": 495443
        }
      }
    }
  ],
  "requires": [
    {
      "uid": "net.minecraft",
      "equals": "1.2.3"
    }
  ]
}