{
  "order": 5,
  "volatile": false,
  "name": "Forge",
  "uid": "net.minecraftforge",
  "version": "1.3.3.13",
  "releaseTime": "2012-02-16T20:12:54",
  "jarMods": [
    {
      "name": "net.minecraftforge:forge:1.1-1.3.3.13:client",
      "downloads": {
        "artifact": {
          "sha1": "7d833787cd732c36183e83078d5059abf9d2d86f",
          "url": "http://files.minecraftforge.net/maven/net/minecraftforge/forge/1.1-1.3.3.13/forge-1.1-1.3.3.13-client.zip",
          "size": 446490
        }
      }
    }
  ],
  "requires": [
    {
      "uid": "net.minecraft",
      "equals": "1.1"
    }
  ]
}