{
  "order": 5,
  "volatile": false,
  "name": "Forge",
  "uid": "net.minecraftforge",
  "version": "1.3.4.35",
  "releaseTime": "2012-03-06T14:22:22",
  "jarMods": [
    {
      "name": "net.minecraftforge:forge:1.2.3-1.3.4.35:client",
      "downloads": {
        "artifact": {
          "sha1": "ba295b9285cc6be48d3dfa7fd37ea86213c45578",
          "url": "http://files.minecraftforge.net/maven/net/minecraftforge/forge/1.2.3-1.3.4.35/forge-1.2.3-1.3.4.35-client.zip",
          "size": 495444
        }
      }
    }
  ],
  "requires": [
    {
      "uid": "net.minecraft",
      "equals": "1.2.3"
    }
  ]
}