{
  "order": 5,
  "volatile": false,
  "name": "Forge",
  "uid": "net.minecraftforge",
  "version": "1.3.4.32",
  "releaseTime": "2012-03-05T20:08:08",
  "jarMods": [
    {
      "name": "net.minecraftforge:forge:1.2.3-1.3.4.32:client",
      "downloads": {
        "artifact": {
          "sha1": "22acfcd17c076eb0d421c4dd3b954aeaaa9ac541",
          "url": "http://files.minecraftforge.net/maven/net/minecraftforge/forge/1.2.3-1.3.4.32/forge-1.2.3-1.3.4.32-client.zip",
          "size": 491816
        }
      }
    }
  ],
  "requires": [
    {
      "uid": "net.minecraft",
      "equals": "1.2.3"
    }
  ]
}