{
  "order": 5,
  "volatile": false,
  "name": "Forge",
  "uid": "net.minecraftforge",
  "version": "1.4.1.61",
  "releaseTime": "2012-03-22T20:01:10",
  "jarMods": [
    {
      "name": "net.minecraftforge:forge:1.2.3-1.4.1.61:client",
      "downloads": {
        "artifact": {
          "sha1": "d0ba974da976e9348c3b8497a606d888839034ac",
          "url": "http://files.minecraftforge.net/maven/net/minecraftforge/forge/1.2.3-1.4.1.61/forge-1.2.3-1.4.1.61-client.zip",
          "size": 503013
        }
      }
    }
  ],
  "requires": [
    {
      "uid": "net.minecraft",
      "equals": "1.2.3"
    }
  ]
}