{
  "order": 5,
  "volatile": false,
  "name": "Forge",
  "uid": "net.minecraftforge",
  "version": "1.4.0.46",
  "releaseTime": "2012-03-09T19:00:00",
  "jarMods": [
    {
      "name": "net.minecraftforge:forge:1.2.3-1.4.0.46:client",
      "downloads": {
        "artifact": {
          "sha1": "249650d67d67be25f72835ab5ef7524f488f1804",
          "url": "http://files.minecraftforge.net/maven/net/minecraftforge/forge/1.2.3-1.4.0.46/forge-1.2.3-1.4.0.46-client.zip",
          "size": 499542
        }
      }
    }
  ],
  "requires": [
    {
      "uid": "net.minecraft",
      "equals": "1.2.3"
    }
  ]
}