{
  "order": 5,
  "volatile": false,
  "name": "Forge",
  "uid": "net.minecraftforge",
  "version": "1.4.0.47",
  "releaseTime": "2012-03-10T17:12:54",
  "jarMods": [
    {
      "name": "net.minecraftforge:forge:1.2.3-1.4.0.47:client",
      "downloads": {
        "artifact": {
          "sha1": "658451d143a3e9acbfdb405bbb7e6a9d0cfd6bea",
          "url": "http://files.minecraftforge.net/maven/net/minecraftforge/forge/1.2.3-1.4.0.47/forge-1.2.3-1.4.0.47-client.zip",
          "size": 499538
        }
      }
    }
  ],
  "requires": [
    {
      "uid": "net.minecraft",
      "equals": "1.2.3"
    }
  ]
}