{
  "order": 5,
  "volatile": false,
  "name": "Forge",
  "uid": "net.minecraftforge",
  "version": "1.4.0.52",
  "releaseTime": "2012-03-14T16:56:06",
  "jarMods": [
    {
      "name": "net.minecraftforge:forge:1.2.3-1.4.0.52:client",
      "downloads": {
        "artifact": {
          "sha1": "a7a92d24b575d901506285511817bce22302bedf",
          "url": "http://files.minecraftforge.net/maven/net/minecraftforge/forge/1.2.3-1.4.0.52/forge-1.2.3-1.4.0.52-client.zip",
          "size": 500306
        }
      }
    }
  ],
  "requires": [
    {
      "uid": "net.minecraft",
      "equals": "1.2.3"
    }
  ]
}