{
  "order": 5,
  "volatile": false,
  "name": "Forge",
  "uid": "net.minecraftforge",
  "version": "1.4.0.48",
  "releaseTime": "2012-03-12T12:23:28",
  "jarMods": [
    {
      "name": "net.minecraftforge:forge:1.2.3-1.4.0.48:client",
      "downloads": {
        "artifact": {
          "sha1": "9c64c3b621f2d2d3e0b9a45aeeb0c81e6994508f",
          "url": "http://files.minecraftforge.net/maven/net/minecraftforge/forge/1.2.3-1.4.0.48/forge-1.2.3-1.4.0.48-client.zip",
          "size": 499538
        }
      }
    }
  ],
  "requires": [
    {
      "uid": "net.minecraft",
      "equals": "1.2.3"
    }
  ]
}