{
  "order": 5,
  "volatile": false,
  "name": "Forge",
  "uid": "net.minecraftforge",
  "version": "10.13.3.1420",
  "releaseTime": "1960-01-01T00:00:00-0700",
  "mainClass": "net.minecraft.launchwrapper.Launch",
  "tweakers": [
    "cpw.mods.fml.common.launcher.FMLTweaker"
  ],
  "libraries": [
    {
      "url": "http://files.minecraftforge.net/maven/",
      "name": "net.minecraftforge:forge:1.7.10-10.13.3.1420-1.7.10:universal"
    },
    {
      "name": "net.minecraft:launchwrapper:1.11"
    },
    {
      "name": "org.ow2.asm:asm-all:5.0.3"
    },
    {
      "url": "http://files.minecraftforge.net/maven/",
      "mmcHint": "forge-pack-xz",
      "name": "com.typesafe.akka:akka-actor_2.11:2.3.3"
    },
    {
      "url": "http://files.minecraftforge.net/maven/",
      "mmcHint": "forge-pack-xz",
      "name": "com.typesafe:config:1.2.1"
    },
    {
      "url": "http://files.minecraftforge.net/maven/",
      "mmcHint": "forge-pack-xz",
      "name": "org.scala-lang:scala-actors-migration_2.11:1.1.0"
    },
    {
      "url": "http://files.minecraftforge.net/maven/",
      "mmcHint": "forge-pack-xz",
      "name": "org.scala-lang:scala-compiler:2.11.1"
    },
    {
      "url": "http://files.minecraftforge.net/maven/",
      "mmcHint": "forge-pack-xz",
      "name": "org.scala-lang.plugins:scala-continuations-library_2.11:1.0.2"
    },
    {
      "url": "http://files.minecraftforge.net/maven/",
      "mmcHint": "forge-pack-xz",
      "name": "org.scala-lang.plugins:scala-continuations-plugin_2.11.1:1.0.2"
    },
    {
      "url": "http://files.minecraftforge.net/maven/",
      "mmcHint": "forge-pack-xz",
      "name": "org.scala-lang:scala-library:2.11.1"
    },
    {
      "url": "http://files.minecraftforge.net/maven/",
      "mmcHint": "forge-pack-xz",
      "name": "org.scala-lang:scala-parser-combinators_2.11:1.0.1"
    },
    {
      "url": "http://files.minecraftforge.net/maven/",
      "mmcHint": "forge-pack-xz",
      "name": "org.scala-lang:scala-reflect:2.11.1"
    },
    {
      "url": "http://files.minecraftforge.net/maven/",
      "mmcHint": "forge-pack-xz",
      "name": "org.scala-lang:scala-swing_2.11:1.0.1"
    },
    {
      "url": "http://files.minecraftforge.net/maven/",
      "mmcHint": "forge-pack-xz",
      "name": "org.scala-lang:scala-xml_2.11:1.0.2"
    },
    {
      "name": "lzma:lzma:0.0.1"
    },
    {
      "name": "com.google.guava:guava:17.0"
    },
    {
      "name": "org.apache.commons:commons-lang3:3.3.2"
    }
  ],
  "requires": [
    {
      "uid": "net.minecraft",
      "equals": "1.7.10"
    }
  ]
}