{
  "order": 5,
  "volatile": false,
  "name": "Forge",
  "uid": "net.minecraftforge",
  "version": "11.15.0.1600",
  "releaseTime": "1960-01-01T00:00:00-0700",
  "mainClass": "net.minecraft.launchwrapper.Launch",
  "tweakers": [
    "net.minecraftforge.fml.common.launcher.FMLTweaker"
  ],
  "libraries": [
    {
      "url": "http://files.minecraftforge.net/maven/",
      "name": "net.minecraftforge:forge:1.8.8-11.15.0.1600-1.8.8:universal"
    },
    {
      "name": "net.minecraft:launchwrapper:1.12"
    },
    {
      "name": "org.ow2.asm:asm-all:5.0.3"
    },
    {
      "url": "http://files.minecraftforge.net/maven/",
      "name": "jline:jline:2.13"
    },
    {
      "url": "http://files.minecraftforge.net/maven/",
      "mmcHint": "forge-pack-xz",
      "name": "com.typesafe.akka:akka-actor_2.11:2.3.3"
    },
    {
      "url": "http://files.minecraftforge.net/maven/",
      "mmcHint": "forge-pack-xz",
      "name": "com.typesafe:config:1.2.1"
    },
    {
      "url": "http://files.minecraftforge.net/maven/",
      "mmcHint": "forge-pack-xz",
      "name": "org.scala-lang:scala-actors-migration_2.11:1.1.0"
    },
    {
      "url": "http://files.minecraftforge.net/maven/",
      "mmcHint": "forge-pack-xz",
      "name": "org.scala-lang:scala-compiler:2.11.1"
    },
    {
      "url": "http://files.minecraftforge.net/maven/",
      "mmcHint": "forge-pack-xz",
      "name": "org.scala-lang.plugins:scala-continuations-library_2.11:1.0.2"
    },
    {
      "url": "http://files.minecraftforge.net/maven/",
      "mmcHint": "forge-pack-xz",
      "name": "org.scala-lang.plugins:scala-continuations-plugin_2.11.1:1.0.2"
    },
    {
      "url": "http://files.minecraftforge.net/maven/",
      "mmcHint": "forge-pack-xz",
      "name": "org.scala-lang:scala-library:2.11.1"
    },
    {
      "url": "http://files.minecraftforge.net/maven/",
      "mmcHint": "forge-pack-xz",
      "name": "org.scala-lang:scala-parser-combinators_2.11:1.0.1"
    },
    {
      "url": "http://files.minecraftforge.net/maven/",
      "mmcHint": "forge-pack-xz",
      "name": "org.scala-lang:scala-reflect:2.11.1"
    },
    {
      "url": "http://files.minecraftforge.net/maven/",
      "mmcHint": "forge-pack-xz",
      "name": "org.scala-lang:scala-swing_2.11:1.0.1"
    },
    {
      "url": "http://files.minecraftforge.net/maven/",
      "mmcHint": "forge-pack-xz",
      "name": "org.scala-lang:scala-xml_2.11:1.0.2"
    },
    {
      "name": "lzma:lzma:0.0.1"
    },
    {
      "name": "java3d:vecmath:1.5.2"
    },
    {
      "name": "net.sf.trove4j:trove4j:3.0.3"
    }
  ],
  "requires": [
    {
      "uid": "net.minecraft",
      "equals": "1.8.8"
    }
  ]
}