{
  "order": 5,
  "volatile": false,
  "name": "Forge",
  "uid": "net.minecraftforge",
  "version": "2.0.0.68",
  "releaseTime": "2012-04-02T02:32:02",
  "jarMods": [
    {
      "name": "net.minecraftforge:forge:1.2.4-2.0.0.68:client",
      "downloads": {
        "artifact": {
          "sha1": "472933267af1bd5693f2aa4e89aaad48cfe2d629",
          "url": "http://files.minecraftforge.net/maven/net/minecraftforge/forge/1.2.4-2.0.0.68/forge-1.2.4-2.0.0.68-client.zip",
          "size": 504946
        }
      }
    }
  ],
  "requires": [
    {
      "uid": "net.minecraft",
      "equals": "1.2.4"
    }
  ]
}