{
  "order": 5,
  "volatile": false,
  "name": "Forge",
  "uid": "net.minecraftforge",
  "version": "3.0.0.71",
  "releaseTime": "2012-04-07T21:15:22",
  "jarMods": [
    {
      "name": "net.minecraftforge:forge:1.2.5-3.0.0.71:client",
      "downloads": {
        "artifact": {
          "sha1": "43034ab1176c672ff81b658d8071cd7955a50fcd",
          "url": "http://files.minecraftforge.net/maven/net/minecraftforge/forge/1.2.5-3.0.0.71/forge-1.2.5-3.0.0.71-client.zip",
          "size": 503475
        }
      }
    }
  ],
  "requires": [
    {
      "uid": "net.minecraft",
      "equals": "1.2.5"
    }
  ]
}