{
  "order": 5,
  "volatile": false,
  "name": "Forge",
  "uid": "net.minecraftforge",
  "version": "3.0.0.69",
  "releaseTime": "2012-04-07T04:32:06",
  "jarMods": [
    {
      "name": "net.minecraftforge:forge:1.2.5-3.0.0.69:client",
      "downloads": {
        "artifact": {
          "sha1": "75f13154c3196f749bd0db90d9cfeb08273882c0",
          "url": "http://files.minecraftforge.net/maven/net/minecraftforge/forge/1.2.5-3.0.0.69/forge-1.2.5-3.0.0.69-client.zip",
          "size": 503459
        }
      }
    }
  ],
  "requires": [
    {
      "uid": "net.minecraft",
      "equals": "1.2.5"
    }
  ]
}