{
  "order": 5,
  "volatile": false,
  "name": "Forge",
  "uid": "net.minecraftforge",
  "version": "3.0.1.78",
  "releaseTime": "2012-04-12T21:50:42",
  "jarMods": [
    {
      "name": "net.minecraftforge:forge:1.2.5-3.0.1.78:client",
      "downloads": {
        "artifact": {
          "sha1": "e78981327efff67efad73471fd22218c9f98d29c",
          "url": "http://files.minecraftforge.net/maven/net/minecraftforge/forge/1.2.5-3.0.1.78/forge-1.2.5-3.0.1.78-client.zip",
          "size": 509780
        }
      }
    }
  ],
  "requires": [
    {
      "uid": "net.minecraft",
      "equals": "1.2.5"
    }
  ]
}