{
  "order": 5,
  "volatile": false,
  "name": "Forge",
  "uid": "net.minecraftforge",
  "version": "3.1.3.104",
  "releaseTime": "2012-05-02T10:40:54",
  "jarMods": [
    {
      "name": "net.minecraftforge:forge:1.2.5-3.1.3.104:client",
      "downloads": {
        "artifact": {
          "sha1": "1267987ae92e7b33807f64cb878bd69d0237929e",
          "url": "http://files.minecraftforge.net/maven/net/minecraftforge/forge/1.2.5-3.1.3.104/forge-1.2.5-3.1.3.104-client.zip",
          "size": 540020
        }
      }
    }
  ],
  "requires": [
    {
      "uid": "net.minecraft",
      "equals": "1.2.5"
    }
  ]
}