{
  "order": 5,
  "volatile": false,
  "name": "Forge",
  "uid": "net.minecraftforge",
  "version": "3.2.5.118",
  "releaseTime": "2012-06-03T01:06:46",
  "jarMods": [
    {
      "name": "net.minecraftforge:forge:1.2.5-3.2.5.118:client",
      "downloads": {
        "artifact": {
          "sha1": "2417311461424c258b1ae75b3c2aca5ed8a93212",
          "url": "http://files.minecraftforge.net/maven/net/minecraftforge/forge/1.2.5-3.2.5.118/forge-1.2.5-3.2.5.118-client.zip",
          "size": 795988
        }
      }
    }
  ],
  "requires": [
    {
      "uid": "net.minecraft",
      "equals": "1.2.5"
    }
  ]
}