{
  "order": 5,
  "volatile": false,
  "name": "Forge",
  "uid": "net.minecraftforge",
  "version": "3.2.3.108",
  "releaseTime": "2012-05-26T20:33:00",
  "jarMods": [
    {
      "name": "net.minecraftforge:forge:1.2.5-3.2.3.108:client",
      "downloads": {
        "artifact": {
          "sha1": "91a5cb7e60c573c6f5700afc9a61dc987c90837e",
          "url": "http://files.minecraftforge.net/maven/net/minecraftforge/forge/1.2.5-3.2.3.108/forge-1.2.5-3.2.3.108-client.zip",
          "size": 540051
        }
      }
    }
  ],
  "requires": [
    {
      "uid": "net.minecraft",
      "equals": "1.2.5"
    }
  ]
}