{
  "order": 5,
  "volatile": false,
  "name": "Forge",
  "uid": "net.minecraftforge",
  "version": "3.2.5.120",
  "releaseTime": "2012-06-05T00:26:38",
  "jarMods": [
    {
      "name": "net.minecraftforge:forge:1.2.5-3.2.5.120:client",
      "downloads": {
        "artifact": {
          "sha1": "e46ce772d92952ed79f4dfc4ab3a401855f9ac45",
          "url": "http://files.minecraftforge.net/maven/net/minecraftforge/forge/1.2.5-3.2.5.120/forge-1.2.5-3.2.5.120-client.zip",
          "size": 795970
        }
      }
    }
  ],
  "requires": [
    {
      "uid": "net.minecraft",
      "equals": "1.2.5"
    }
  ]
}