{
  "order": 5,
  "volatile": false,
  "name": "Forge",
  "uid": "net.minecraftforge",
  "version": "3.3.8.161",
  "releaseTime": "2012-07-09T13:47:08",
  "jarMods": [
    {
      "name": "net.minecraftforge:forge:1.2.5-3.3.8.161:client",
      "downloads": {
        "artifact": {
          "sha1": "9b577c7c90c075345c9edbbbf1e9e1b04d526a5e",
          "url": "http://files.minecraftforge.net/maven/net/minecraftforge/forge/1.2.5-3.3.8.161/forge-1.2.5-3.3.8.161-client.zip",
          "size": 840533
        }
      }
    }
  ],
  "requires": [
    {
      "uid": "net.minecraft",
      "equals": "1.2.5"
    }
  ]
}