{
  "order": 5,
  "volatile": false,
  "name": "Forge",
  "uid": "net.minecraftforge",
  "version": "3.3.8.158",
  "releaseTime": "2012-07-01T06:58:20",
  "jarMods": [
    {
      "name": "net.minecraftforge:forge:1.2.5-3.3.8.158:client",
      "downloads": {
        "artifact": {
          "sha1": "a6d07ec81f663969efdefdb0da0a01c3bd7e61a1",
          "url": "http://files.minecraftforge.net/maven/net/minecraftforge/forge/1.2.5-3.3.8.158/forge-1.2.5-3.3.8.158-client.zip",
          "size": 835995
        }
      }
    }
  ],
  "requires": [
    {
      "uid": "net.minecraft",
      "equals": "1.2.5"
    }
  ]
}