{
  "order": 5,
  "volatile": false,
  "name": "Forge",
  "uid": "net.minecraftforge",
  "version": "3.3.8.156",
  "releaseTime": "2012-06-28T12:47:50",
  "jarMods": [
    {
      "name": "net.minecraftforge:forge:1.2.5-3.3.8.156:client",
      "downloads": {
        "artifact": {
          "sha1": "e65ddb0a00327cc3042977dfb4b3cf7d2c3f9141",
          "url": "http://files.minecraftforge.net/maven/net/minecraftforge/forge/1.2.5-3.3.8.156/forge-1.2.5-3.3.8.156-client.zip",
          "size": 835993
        }
      }
    }
  ],
  "requires": [
    {
      "uid": "net.minecraft",
      "equals": "1.2.5"
    }
  ]
}