{
  "order": 5,
  "volatile": false,
  "name": "Forge",
  "uid": "net.minecraftforge",
  "version": "3.3.7.140",
  "releaseTime": "2012-06-19T13:54:46",
  "jarMods": [
    {
      "name": "net.minecraftforge:forge:1.2.5-3.3.7.140:client",
      "downloads": {
        "artifact": {
          "sha1": "0393025b622c1963789de2de8cae76bb80a9a40c",
          "url": "http://files.minecraftforge.net/maven/net/minecraftforge/forge/1.2.5-3.3.7.140/forge-1.2.5-3.3.7.140-client.zip",
          "size": 824100
        }
      }
    }
  ],
  "requires": [
    {
      "uid": "net.minecraft",
      "equals": "1.2.5"
    }
  ]
}