{
  "order": 5,
  "volatile": false,
  "name": "Forge",
  "uid": "net.minecraftforge",
  "version": "3.3.7.137",
  "releaseTime": "2012-06-16T01:31:16",
  "jarMods": [
    {
      "name": "net.minecraftforge:forge:1.2.5-3.3.7.137:client",
      "downloads": {
        "artifact": {
          "sha1": "43b5cedd31124e38d9ac45278f49c3c1b760bc91",
          "url": "http://files.minecraftforge.net/maven/net/minecraftforge/forge/1.2.5-3.3.7.137/forge-1.2.5-3.3.7.137-client.zip",
          "size": 820938
        }
      }
    }
  ],
  "requires": [
    {
      "uid": "net.minecraft",
      "equals": "1.2.5"
    }
  ]
}