{
  "order": 5,
  "volatile": false,
  "name": "Forge",
  "uid": "net.minecraftforge",
  "version": "3.3.8.170",
  "releaseTime": "2012-08-01T03:06:10",
  "jarMods": [
    {
      "name": "net.minecraftforge:forge:1.2.5-3.3.8.170:client",
      "downloads": {
        "artifact": {
          "sha1": "b5076149dc1890bdf7df986d77b2a9f78b3873db",
          "url": "http://files.minecraftforge.net/maven/net/minecraftforge/forge/1.2.5-3.3.8.170/forge-1.2.5-3.3.8.170-client.zip",
          "size": 841564
        }
      }
    }
  ],
  "requires": [
    {
      "uid": "net.minecraft",
      "equals": "1.2.5"
    }
  ]
}