{
  "order": 5,
  "volatile": false,
  "name": "Forge",
  "uid": "net.minecraftforge",
  "version": "3.3.8.142",
  "releaseTime": "2012-06-19T20:50:12",
  "jarMods": [
    {
      "name": "net.minecraftforge:forge:1.2.5-3.3.8.142:client",
      "downloads": {
        "artifact": {
          "sha1": "9bb6c62055657637755ebdfb2c01f1d5be4eb86f",
          "url": "http://files.minecraftforge.net/maven/net/minecraftforge/forge/1.2.5-3.3.8.142/forge-1.2.5-3.3.8.142-client.zip",
          "size": 742043
        }
      }
    }
  ],
  "requires": [
    {
      "uid": "net.minecraft",
      "equals": "1.2.5"
    }
  ]
}