{
  "order": 5,
  "volatile": false,
  "name": "Forge",
  "uid": "net.minecraftforge",
  "version": "3.3.8.155",
  "releaseTime": "2012-06-27T17:24:36",
  "jarMods": [
    {
      "name": "net.minecraftforge:forge:1.2.5-3.3.8.155:client",
      "downloads": {
        "artifact": {
          "sha1": "072165b010760b236cd60d9270e0ca691a0a1eb4",
          "url": "http://files.minecraftforge.net/maven/net/minecraftforge/forge/1.2.5-3.3.8.155/forge-1.2.5-3.3.8.155-client.zip",
          "size": 835994
        }
      }
    }
  ],
  "requires": [
    {
      "uid": "net.minecraft",
      "equals": "1.2.5"
    }
  ]
}