{
  "order": 5,
  "volatile": false,
  "name": "Forge",
  "uid": "net.minecraftforge",
  "version": "3.3.8.151",
  "releaseTime": "2012-06-22T18:53:06",
  "jarMods": [
    {
      "name": "net.minecraftforge:forge:1.2.5-3.3.8.151:client",
      "downloads": {
        "artifact": {
          "sha1": "390e254050b5d437c52fd3372a9bf5e7af82d190",
          "url": "http://files.minecraftforge.net/maven/net/minecraftforge/forge/1.2.5-3.3.8.151/forge-1.2.5-3.3.8.151-client.zip",
          "size": 834136
        }
      }
    }
  ],
  "requires": [
    {
      "uid": "net.minecraft",
      "equals": "1.2.5"
    }
  ]
}