{
  "order": 5,
  "volatile": false,
  "name": "Forge",
  "uid": "net.minecraftforge",
  "version": "3.3.8.146",
  "releaseTime": "2012-06-21T05:12:52",
  "jarMods": [
    {
      "name": "net.minecraftforge:forge:1.2.5-3.3.8.146:client",
      "downloads": {
        "artifact": {
          "sha1": "a9434adf87ddbaaa0ee766a681796ec2c6baaa3c",
          "url": "http://files.minecraftforge.net/maven/net/minecraftforge/forge/1.2.5-3.3.8.146/forge-1.2.5-3.3.8.146-client.zip",
          "size": 833072
        }
      }
    }
  ],
  "requires": [
    {
      "uid": "net.minecraft",
      "equals": "1.2.5"
    }
  ]
}