{
  "order": 5,
  "volatile": false,
  "name": "Forge",
  "uid": "net.minecraftforge",
  "version": "4.0.0.229",
  "releaseTime": "2012-08-23T17:57:20",
  "traits": [
    "legacyfml"
  ],
  "jarMods": [
    {
      "name": "net.minecraftforge:forge:1.3.2-4.0.0.229:universal",
      "downloads": {
        "artifact": {
          "sha1": "7d706d763865779048b5cb612617f77947089c41",
          "url": "http://files.minecraftforge.net/maven/net/minecraftforge/forge/1.3.2-4.0.0.229/forge-1.3.2-4.0.0.229-universal.zip",
          "size": 1172234
        }
      }
    }
  ],
  "requires": [
    {
      "uid": "net.minecraft",
      "equals": "1.3.2"
    }
  ]
}