{
  "order": 5,
  "volatile": false,
  "name": "Forge",
  "uid": "net.minecraftforge",
  "version": "4.0.0.245",
  "releaseTime": "2012-09-02T11:15:32",
  "traits": [
    "legacyfml"
  ],
  "jarMods": [
    {
      "name": "net.minecraftforge:forge:1.3.2-4.0.0.245:universal",
      "downloads": {
        "artifact": {
          "sha1": "02e1248f238bbfc8e96be69adbd1213ae64cb595",
          "url": "http://files.minecraftforge.net/maven/net/minecraftforge/forge/1.3.2-4.0.0.245/forge-1.3.2-4.0.0.245-universal.zip",
          "size": 1191348
        }
      }
    }
  ],
  "requires": [
    {
      "uid": "net.minecraft",
      "equals": "1.3.2"
    }
  ]
}