{
  "order": 5,
  "volatile": false,
  "name": "Forge",
  "uid": "net.minecraftforge",
  "version": "4.0.0.204",
  "releaseTime": "2012-08-17T08:15:06",
  "traits": [
    "legacyfml"
  ],
  "jarMods": [
    {
      "name": "net.minecraftforge:forge:1.3.2-4.0.0.204:universal",
      "downloads": {
        "artifact": {
          "sha1": "44a706ddf785343411c042e1117b2514e6bb81a0",
          "url": "http://files.minecraftforge.net/maven/net/minecraftforge/forge/1.3.2-4.0.0.204/forge-1.3.2-4.0.0.204-universal.zip",
          "size": 1118645
        }
      }
    }
  ],
  "requires": [
    {
      "uid": "net.minecraft",
      "equals": "1.3.2"
    }
  ]
}