{
  "order": 5,
  "volatile": false,
  "name": "Forge",
  "uid": "net.minecraftforge",
  "version": "4.0.0.221",
  "releaseTime": "2012-08-22T14:47:48",
  "traits": [
    "legacyfml"
  ],
  "jarMods": [
    {
      "name": "net.minecraftforge:forge:1.3.2-4.0.0.221:universal",
      "downloads": {
        "artifact": {
          "sha1": "17d16a72551dafcdb66cd8a2c2f1fd7ce5d9b202",
          "url": "http://files.minecraftforge.net/maven/net/minecraftforge/forge/1.3.2-4.0.0.221/forge-1.3.2-4.0.0.221-universal.zip",
          "size": 1156896
        }
      }
    }
  ],
  "requires": [
    {
      "uid": "net.minecraft",
      "equals": "1.3.2"
    }
  ]
}