{
  "order": 5,
  "volatile": false,
  "name": "Forge",
  "uid": "net.minecraftforge",
  "version": "4.0.0.223",
  "releaseTime": "2012-08-22T16:18:02",
  "traits": [
    "legacyfml"
  ],
  "jarMods": [
    {
      "name": "net.minecraftforge:forge:1.3.2-4.0.0.223:universal",
      "downloads": {
        "artifact": {
          "sha1": "dd89de55a4a0eadddd93a16a67eeab8d2c8e9d00",
          "url": "http://files.minecraftforge.net/maven/net/minecraftforge/forge/1.3.2-4.0.0.223/forge-1.3.2-4.0.0.223-universal.zip",
          "size": 1160119
        }
      }
    }
  ],
  "requires": [
    {
      "uid": "net.minecraft",
      "equals": "1.3.2"
    }
  ]
}