{
  "order": 5,
  "volatile": false,
  "name": "Forge",
  "uid": "net.minecraftforge",
  "version": "4.0.0.181",
  "releaseTime": "2012-08-12T23:01:26",
  "traits": [
    "legacyfml"
  ],
  "jarMods": [
    {
      "name": "net.minecraftforge:forge:1.3.2-4.0.0.181:client",
      "downloads": {
        "artifact": {
          "sha1": "f42f43f5562789b2da8eda6598b3d5cfd63720af",
          "url": "http://files.minecraftforge.net/maven/net/minecraftforge/forge/1.3.2-4.0.0.181/forge-1.3.2-4.0.0.181-client.zip",
          "size": 1073492
        }
      }
    }
  ],
  "requires": [
    {
      "uid": "net.minecraft",
      "equals": "1.3.2"
    }
  ]
}