{
  "order": 5,
  "volatile": false,
  "name": "Forge",
  "uid": "net.minecraftforge",
  "version": "4.0.0.208",
  "releaseTime": "2012-08-18T03:20:28",
  "traits": [
    "legacyfml"
  ],
  "jarMods": [
    {
      "name": "net.minecraftforge:forge:1.3.2-4.0.0.208:universal",
      "downloads": {
        "artifact": {
          "sha1": "6bc793175417d57ee6d8fe2953e80b622e51e30a",
          "url": "http://files.minecraftforge.net/maven/net/minecraftforge/forge/1.3.2-4.0.0.208/forge-1.3.2-4.0.0.208-universal.zip",
          "size": 1127644
        }
      }
    }
  ],
  "requires": [
    {
      "uid": "net.minecraft",
      "equals": "1.3.2"
    }
  ]
}