{
  "order": 5,
  "volatile": false,
  "name": "Forge",
  "uid": "net.minecraftforge",
  "version": "4.0.0.196",
  "releaseTime": "2012-08-16T04:26:12",
  "traits": [
    "legacyfml"
  ],
  "jarMods": [
    {
      "name": "net.minecraftforge:forge:1.3.2-4.0.0.196:universal",
      "downloads": {
        "artifact": {
          "sha1": "4dc7d314e1d7e815745298d9849f16326d98a4cc",
          "url": "http://files.minecraftforge.net/maven/net/minecraftforge/forge/1.3.2-4.0.0.196/forge-1.3.2-4.0.0.196-universal.zip",
          "size": 1117510
        }
      }
    }
  ],
  "requires": [
    {
      "uid": "net.minecraft",
      "equals": "1.3.2"
    }
  ]
}