{
  "order": 5,
  "volatile": false,
  "name": "Forge",
  "uid": "net.minecraftforge",
  "version": "4.0.0.236",
  "releaseTime": "2012-08-28T00:59:14",
  "traits": [
    "legacyfml"
  ],
  "jarMods": [
    {
      "name": "net.minecraftforge:forge:1.3.2-4.0.0.236:universal",
      "downloads": {
        "artifact": {
          "sha1": "40a2c71e07d6c108f4e70ed2f5e80669c03fb549",
          "url": "http://files.minecraftforge.net/maven/net/minecraftforge/forge/1.3.2-4.0.0.236/forge-1.3.2-4.0.0.236-universal.zip",
          "size": 1181495
        }
      }
    }
  ],
  "requires": [
    {
      "uid": "net.minecraft",
      "equals": "1.3.2"
    }
  ]
}