{
  "order": 5,
  "volatile": false,
  "name": "Forge",
  "uid": "net.minecraftforge",
  "version": "4.0.0.187",
  "releaseTime": "2012-08-14T16:07:58",
  "traits": [
    "legacyfml"
  ],
  "jarMods": [
    {
      "name": "net.minecraftforge:forge:1.3.2-4.0.0.187:universal",
      "downloads": {
        "artifact": {
          "sha1": "a9afc5ba72b8224a91cdedc4f10f47ae5eecbe3e",
          "url": "http://files.minecraftforge.net/maven/net/minecraftforge/forge/1.3.2-4.0.0.187/forge-1.3.2-4.0.0.187-universal.zip",
          "size": 1106910
        }
      }
    }
  ],
  "requires": [
    {
      "uid": "net.minecraft",
      "equals": "1.3.2"
    }
  ]
}