{
  "order": 5,
  "volatile": false,
  "name": "Forge",
  "uid": "net.minecraftforge",
  "version": "4.0.0.194",
  "releaseTime": "2012-08-15T17:07:10",
  "traits": [
    "legacyfml"
  ],
  "jarMods": [
    {
      "name": "net.minecraftforge:forge:1.3.2-4.0.0.194:universal",
      "downloads": {
        "artifact": {
          "sha1": "15506c8f8035238775e48c7f2b1c9604a7237567",
          "url": "http://files.minecraftforge.net/maven/net/minecraftforge/forge/1.3.2-4.0.0.194/forge-1.3.2-4.0.0.194-universal.zip",
          "size": 1116652
        }
      }
    }
  ],
  "requires": [
    {
      "uid": "net.minecraft",
      "equals": "1.3.2"
    }
  ]
}