{
  "order": 5,
  "volatile": false,
  "name": "Forge",
  "uid": "net.minecraftforge",
  "version": "4.0.0.210",
  "releaseTime": "2012-08-18T19:06:16",
  "traits": [
    "legacyfml"
  ],
  "jarMods": [
    {
      "name": "net.minecraftforge:forge:1.3.2-4.0.0.210:universal",
      "downloads": {
        "artifact": {
          "sha1": "fb8a39877182075057ab635988a716779ce3c1df",
          "url": "http://files.minecraftforge.net/maven/net/minecraftforge/forge/1.3.2-4.0.0.210/forge-1.3.2-4.0.0.210-universal.zip",
          "size": 1128955
        }
      }
    }
  ],
  "requires": [
    {
      "uid": "net.minecraft",
      "equals": "1.3.2"
    }
  ]
}