{
  "order": 5,
  "volatile": false,
  "name": "Forge",
  "uid": "net.minecraftforge",
  "version": "4.0.0.186",
  "releaseTime": "2012-08-14T06:41:56",
  "traits": [
    "legacyfml"
  ],
  "jarMods": [
    {
      "name": "net.minecraftforge:forge:1.3.2-4.0.0.186:universal",
      "downloads": {
        "artifact": {
          "sha1": "89b4118b59459c9643b3de32373303d04a27e5df",
          "url": "http://files.minecraftforge.net/maven/net/minecraftforge/forge/1.3.2-4.0.0.186/forge-1.3.2-4.0.0.186-universal.zip",
          "size": 1106707
        }
      }
    }
  ],
  "requires": [
    {
      "uid": "net.minecraft",
      "equals": "1.3.2"
    }
  ]
}