{
  "order": 5,
  "volatile": false,
  "name": "Forge",
  "uid": "net.minecraftforge",
  "version": "4.0.0.238",
  "releaseTime": "2012-08-28T17:40:02",
  "traits": [
    "legacyfml"
  ],
  "jarMods": [
    {
      "name": "net.minecraftforge:forge:1.3.2-4.0.0.238:universal",
      "downloads": {
        "artifact": {
          "sha1": "3b5931dfa33f19686e14dff03e2851a7f6bfc8bc",
          "url": "http://files.minecraftforge.net/maven/net/minecraftforge/forge/1.3.2-4.0.0.238/forge-1.3.2-4.0.0.238-universal.zip",
          "size": 1181524
        }
      }
    }
  ],
  "requires": [
    {
      "uid": "net.minecraft",
      "equals": "1.3.2"
    }
  ]
}