{
  "order": 5,
  "volatile": false,
  "name": "Forge",
  "uid": "net.minecraftforge",
  "version": "4.0.0.246",
  "releaseTime": "2012-09-03T20:30:50",
  "traits": [
    "legacyfml"
  ],
  "jarMods": [
    {
      "name": "net.minecraftforge:forge:1.3.2-4.0.0.246:universal",
      "downloads": {
        "artifact": {
          "sha1": "b8beb94f7491aab93a7227567c1a9fbfdf6b20b3",
          "url": "http://files.minecraftforge.net/maven/net/minecraftforge/forge/1.3.2-4.0.0.246/forge-1.3.2-4.0.0.246-universal.zip",
          "size": 1192956
        }
      }
    }
  ],
  "requires": [
    {
      "uid": "net.minecraft",
      "equals": "1.3.2"
    }
  ]
}