{
  "order": 5,
  "volatile": false,
  "name": "Forge",
  "uid": "net.minecraftforge",
  "version": "4.0.0.184",
  "releaseTime": "2012-08-14T00:09:52",
  "traits": [
    "legacyfml"
  ],
  "jarMods": [
    {
      "name": "net.minecraftforge:forge:1.3.2-4.0.0.184:universal",
      "downloads": {
        "artifact": {
          "sha1": "6ce09190d2660c7ca25f60bba02a3ea70072cc60",
          "url": "http://files.minecraftforge.net/maven/net/minecraftforge/forge/1.3.2-4.0.0.184/forge-1.3.2-4.0.0.184-universal.zip",
          "size": 1106701
        }
      }
    }
  ],
  "requires": [
    {
      "uid": "net.minecraft",
      "equals": "1.3.2"
    }
  ]
}