{
  "order": 5,
  "volatile": false,
  "name": "Forge",
  "uid": "net.minecraftforge",
  "version": "4.0.0.177",
  "releaseTime": "2012-08-11T17:20:10",
  "traits": [
    "legacyfml"
  ],
  "jarMods": [
    {
      "name": "net.minecraftforge:forge:1.3.2-4.0.0.177:client",
      "downloads": {
        "artifact": {
          "sha1": "32cfe2f9b93ee0d4cd02089f573a12dcbeb37fa4",
          "url": "http://files.minecraftforge.net/maven/net/minecraftforge/forge/1.3.2-4.0.0.177/forge-1.3.2-4.0.0.177-client.zip",
          "size": 1068703
        }
      }
    }
  ],
  "requires": [
    {
      "uid": "net.minecraft",
      "equals": "1.3.2"
    }
  ]
}