{
  "order": 5,
  "volatile": false,
  "name": "Forge",
  "uid": "net.minecraftforge",
  "version": "4.0.0.242",
  "releaseTime": "2012-08-31T15:29:00",
  "traits": [
    "legacyfml"
  ],
  "jarMods": [
    {
      "name": "net.minecraftforge:forge:1.3.2-4.0.0.242:universal",
      "downloads": {
        "artifact": {
          "sha1": "27dc3883f07f26237a77372388b549efde958fc8",
          "url": "http://files.minecraftforge.net/maven/net/minecraftforge/forge/1.3.2-4.0.0.242/forge-1.3.2-4.0.0.242-universal.zip",
          "size": 1190637
        }
      }
    }
  ],
  "requires": [
    {
      "uid": "net.minecraft",
      "equals": "1.3.2"
    }
  ]
}