{
  "order": 5,
  "volatile": false,
  "name": "Forge",
  "uid": "net.minecraftforge",
  "version": "4.0.0.250",
  "releaseTime": "2012-09-08T19:23:28",
  "traits": [
    "legacyfml"
  ],
  "jarMods": [
    {
      "name": "net.minecraftforge:forge:1.3.2-4.0.0.250:universal",
      "downloads": {
        "artifact": {
          "sha1": "64f1ebb51653de5e8c43851d58d760511076d283",
          "url": "http://files.minecraftforge.net/maven/net/minecraftforge/forge/1.3.2-4.0.0.250/forge-1.3.2-4.0.0.250-universal.zip",
          "size": 1207099
        }
      }
    }
  ],
  "requires": [
    {
      "uid": "net.minecraft",
      "equals": "1.3.2"
    }
  ]
}