{
  "order": 5,
  "volatile": false,
  "name": "Forge",
  "uid": "net.minecraftforge",
  "version": "4.0.0.239",
  "releaseTime": "2012-08-28T20:46:12",
  "traits": [
    "legacyfml"
  ],
  "jarMods": [
    {
      "name": "net.minecraftforge:forge:1.3.2-4.0.0.239:universal",
      "downloads": {
        "artifact": {
          "sha1": "e5d8cb507f2beeb472e966e8a117a3f28f38fe91",
          "url": "http://files.minecraftforge.net/maven/net/minecraftforge/forge/1.3.2-4.0.0.239/forge-1.3.2-4.0.0.239-universal.zip",
          "size": 1188988
        }
      }
    }
  ],
  "requires": [
    {
      "uid": "net.minecraft",
      "equals": "1.3.2"
    }
  ]
}