{
  "order": 5,
  "volatile": false,
  "name": "Forge",
  "uid": "net.minecraftforge",
  "version": "4.0.0.240",
  "releaseTime": "2012-08-29T13:46:12",
  "traits": [
    "legacyfml"
  ],
  "jarMods": [
    {
      "name": "net.minecraftforge:forge:1.3.2-4.0.0.240:universal",
      "downloads": {
        "artifact": {
          "sha1": "e7a49134aaa40d28432616a9ae1c216489403a9a",
          "url": "http://files.minecraftforge.net/maven/net/minecraftforge/forge/1.3.2-4.0.0.240/forge-1.3.2-4.0.0.240-universal.zip",
          "size": 1189119
        }
      }
    }
  ],
  "requires": [
    {
      "uid": "net.minecraft",
      "equals": "1.3.2"
    }
  ]
}