{
  "order": 5,
  "volatile": false,
  "name": "Forge",
  "uid": "net.minecraftforge",
  "version": "4.1.2.263",
  "releaseTime": "2012-09-16T21:40:46",
  "traits": [
    "legacyfml"
  ],
  "jarMods": [
    {
      "name": "net.minecraftforge:forge:1.3.2-4.1.2.263:universal",
      "downloads": {
        "artifact": {
          "sha1": "30a7c5124f1d0a4f5f4bfaf6a8777c3247a220ff",
          "url": "http://files.minecraftforge.net/maven/net/minecraftforge/forge/1.3.2-4.1.2.263/forge-1.3.2-4.1.2.263-universal.zip",
          "size": 1314342
        }
      }
    }
  ],
  "requires": [
    {
      "uid": "net.minecraft",
      "equals": "1.3.2"
    }
  ]
}