{
  "order": 5,
  "volatile": false,
  "name": "Forge",
  "uid": "net.minecraftforge",
  "version": "4.1.4.280",
  "releaseTime": "2012-09-24T23:52:36",
  "traits": [
    "legacyfml"
  ],
  "jarMods": [
    {
      "name": "net.minecraftforge:forge:1.3.2-4.1.4.280:universal",
      "downloads": {
        "artifact": {
          "sha1": "47743796a00274d650c48426e8a1cd4e7974717e",
          "url": "http://files.minecraftforge.net/maven/net/minecraftforge/forge/1.3.2-4.1.4.280/forge-1.3.2-4.1.4.280-universal.zip",
          "size": 1382958
        }
      }
    }
  ],
  "requires": [
    {
      "uid": "net.minecraft",
      "equals": "1.3.2"
    }
  ]
}