{
  "order": 5,
  "volatile": false,
  "name": "Forge",
  "uid": "net.minecraftforge",
  "version": "4.1.2.260",
  "releaseTime": "2012-09-12T16:02:58",
  "traits": [
    "legacyfml"
  ],
  "jarMods": [
    {
      "name": "net.minecraftforge:forge:1.3.2-4.1.2.260:universal",
      "downloads": {
        "artifact": {
          "sha1": "d94a9fdd3695659255dd56efdf28971526befdbf",
          "url": "http://files.minecraftforge.net/maven/net/minecraftforge/forge/1.3.2-4.1.2.260/forge-1.3.2-4.1.2.260-universal.zip",
          "size": 1305620
        }
      }
    }
  ],
  "requires": [
    {
      "uid": "net.minecraft",
      "equals": "1.3.2"
    }
  ]
}