{
  "order": 5,
  "volatile": false,
  "name": "Forge",
  "uid": "net.minecraftforge",
  "version": "4.1.2.262",
  "releaseTime": "2012-09-15T20:51:08",
  "traits": [
    "legacyfml"
  ],
  "jarMods": [
    {
      "name": "net.minecraftforge:forge:1.3.2-4.1.2.262:universal",
      "downloads": {
        "artifact": {
          "sha1": "a28028cfb93f2616090a6dcbbfa16c8b96c140a6",
          "url": "http://files.minecraftforge.net/maven/net/minecraftforge/forge/1.3.2-4.1.2.262/forge-1.3.2-4.1.2.262-universal.zip",
          "size": 1313382
        }
      }
    }
  ],
  "requires": [
    {
      "uid": "net.minecraft",
      "equals": "1.3.2"
    }
  ]
}