{
  "order": 5,
  "volatile": false,
  "name": "Forge",
  "uid": "net.minecraftforge",
  "version": "4.1.4.278",
  "releaseTime": "2012-09-24T21:20:46",
  "traits": [
    "legacyfml"
  ],
  "jarMods": [
    {
      "name": "net.minecraftforge:forge:1.3.2-4.1.4.278:universal",
      "downloads": {
        "artifact": {
          "sha1": "cb49775fe4c7e4b3ad8cbd0e545465d4554da3b5",
          "url": "http://files.minecraftforge.net/maven/net/minecraftforge/forge/1.3.2-4.1.4.278/forge-1.3.2-4.1.4.278-universal.zip",
          "size": 1380176
        }
      }
    }
  ],
  "requires": [
    {
      "uid": "net.minecraft",
      "equals": "1.3.2"
    }
  ]
}