{
  "order": 5,
  "volatile": false,
  "name": "Forge",
  "uid": "net.minecraftforge",
  "version": "4.1.4.275",
  "releaseTime": "2012-09-23T21:14:34",
  "traits": [
    "legacyfml"
  ],
  "jarMods": [
    {
      "name": "net.minecraftforge:forge:1.3.2-4.1.4.275:universal",
      "downloads": {
        "artifact": {
          "sha1": "e1da8d4fbcfb21627ad727e486e5fc176226567e",
          "url": "http://files.minecraftforge.net/maven/net/minecraftforge/forge/1.3.2-4.1.4.275/forge-1.3.2-4.1.4.275-universal.zip",
          "size": 1378357
        }
      }
    }
  ],
  "requires": [
    {
      "uid": "net.minecraft",
      "equals": "1.3.2"
    }
  ]
}