{
  "order": 5,
  "volatile": false,
  "name": "Forge",
  "uid": "net.minecraftforge",
  "version": "4.1.4.286",
  "releaseTime": "2012-09-26T02:49:22",
  "traits": [
    "legacyfml"
  ],
  "jarMods": [
    {
      "name": "net.minecraftforge:forge:1.3.2-4.1.4.286:universal",
      "downloads": {
        "artifact": {
          "sha1": "728b7e377c5f9bd0ef9ec66b382665f9b83340bd",
          "url": "http://files.minecraftforge.net/maven/net/minecraftforge/forge/1.3.2-4.1.4.286/forge-1.3.2-4.1.4.286-universal.zip",
          "size": 1384692
        }
      }
    }
  ],
  "requires": [
    {
      "uid": "net.minecraft",
      "equals": "1.3.2"
    }
  ]
}