{
  "order": 5,
  "volatile": false,
  "name": "Forge",
  "uid": "net.minecraftforge",
  "version": "4.1.4.298",
  "releaseTime": "2012-10-01T20:00:02",
  "traits": [
    "legacyfml"
  ],
  "jarMods": [
    {
      "name": "net.minecraftforge:forge:1.3.2-4.1.4.298:universal",
      "downloads": {
        "artifact": {
          "sha1": "4916d49e40f4fa54166886bac140355aef3566c4",
          "url": "http://files.minecraftforge.net/maven/net/minecraftforge/forge/1.3.2-4.1.4.298/forge-1.3.2-4.1.4.298-universal.zip",
          "size": 1403428
        }
      }
    }
  ],
  "requires": [
    {
      "uid": "net.minecraft",
      "equals": "1.3.2"
    }
  ]
}