{
  "order": 5,
  "volatile": false,
  "name": "Forge",
  "uid": "net.minecraftforge",
  "version": "4.1.4.297",
  "releaseTime": "2012-09-30T02:05:30",
  "traits": [
    "legacyfml"
  ],
  "jarMods": [
    {
      "name": "net.minecraftforge:forge:1.3.2-4.1.4.297:universal",
      "downloads": {
        "artifact": {
          "sha1": "47e7ff030762ffe8e6ed354a119a08123a9173e5",
          "url": "http://files.minecraftforge.net/maven/net/minecraftforge/forge/1.3.2-4.1.4.297/forge-1.3.2-4.1.4.297-universal.zip",
          "size": 1403379
        }
      }
    }
  ],
  "requires": [
    {
      "uid": "net.minecraft",
      "equals": "1.3.2"
    }
  ]
}