{
  "order": 5,
  "volatile": false,
  "name": "Forge",
  "uid": "net.minecraftforge",
  "version": "4.1.4.277",
  "releaseTime": "2012-09-24T20:13:30",
  "traits": [
    "legacyfml"
  ],
  "jarMods": [
    {
      "name": "net.minecraftforge:forge:1.3.2-4.1.4.277:universal",
      "downloads": {
        "artifact": {
          "sha1": "14c6ec0bfff30f2a64c4be8c08fa19362e41e791",
          "url": "http://files.minecraftforge.net/maven/net/minecraftforge/forge/1.3.2-4.1.4.277/forge-1.3.2-4.1.4.277-universal.zip",
          "size": 1379499
        }
      }
    }
  ],
  "requires": [
    {
      "uid": "net.minecraft",
      "equals": "1.3.2"
    }
  ]
}