{
  "order": 5,
  "volatile": false,
  "name": "Forge",
  "uid": "net.minecraftforge",
  "version": "4.1.4.284",
  "releaseTime": "2012-09-25T19:51:46",
  "traits": [
    "legacyfml"
  ],
  "jarMods": [
    {
      "name": "net.minecraftforge:forge:1.3.2-4.1.4.284:universal",
      "downloads": {
        "artifact": {
          "sha1": "d041d3886bcdb568b96852fdc5cedcfcfabfd2ca",
          "url": "http://files.minecraftforge.net/maven/net/minecraftforge/forge/1.3.2-4.1.4.284/forge-1.3.2-4.1.4.284-universal.zip",
          "size": 1383332
        }
      }
    }
  ],
  "requires": [
    {
      "uid": "net.minecraft",
      "equals": "1.3.2"
    }
  ]
}