{
  "order": 5,
  "volatile": false,
  "name": "Forge",
  "uid": "net.minecraftforge",
  "version": "4.1.1.251",
  "releaseTime": "2012-09-08T22:53:32",
  "traits": [
    "legacyfml"
  ],
  "jarMods": [
    {
      "name": "net.minecraftforge:forge:1.3.2-4.1.1.251:universal",
      "downloads": {
        "artifact": {
          "sha1": "47842089e4e19de881446c452fb7c13a4870756b",
          "url": "http://files.minecraftforge.net/maven/net/minecraftforge/forge/1.3.2-4.1.1.251/forge-1.3.2-4.1.1.251-universal.zip",
          "size": 1207098
        }
      }
    }
  ],
  "requires": [
    {
      "uid": "net.minecraft",
      "equals": "1.3.2"
    }
  ]
}