{
  "order": 5,
  "volatile": false,
  "name": "Forge",
  "uid": "net.minecraftforge",
  "version": "4.1.4.285",
  "releaseTime": "2012-09-25T21:10:46",
  "traits": [
    "legacyfml"
  ],
  "jarMods": [
    {
      "name": "net.minecraftforge:forge:1.3.2-4.1.4.285:universal",
      "downloads": {
        "artifact": {
          "sha1": "1f7ab01768059ce5928fb0b6f1a527aafa4fc8d7",
          "url": "http://files.minecraftforge.net/maven/net/minecraftforge/forge/1.3.2-4.1.4.285/forge-1.3.2-4.1.4.285-universal.zip",
          "size": 1384679
        }
      }
    }
  ],
  "requires": [
    {
      "uid": "net.minecraft",
      "equals": "1.3.2"
    }
  ]
}