{
  "order": 5,
  "volatile": false,
  "name": "Forge",
  "uid": "net.minecraftforge",
  "version": "4.1.2.268",
  "releaseTime": "2012-09-18T21:03:10",
  "traits": [
    "legacyfml"
  ],
  "jarMods": [
    {
      "name": "net.minecraftforge:forge:1.3.2-4.1.2.268:universal",
      "downloads": {
        "artifact": {
          "sha1": "b9e7741f51d647af6de525c671270a636f8da77a",
          "url": "http://files.minecraftforge.net/maven/net/minecraftforge/forge/1.3.2-4.1.2.268/forge-1.3.2-4.1.2.268-universal.zip",
          "size": 1316170
        }
      }
    }
  ],
  "requires": [
    {
      "uid": "net.minecraft",
      "equals": "1.3.2"
    }
  ]
}