{
  "order": 5,
  "volatile": false,
  "name": "Forge",
  "uid": "net.minecraftforge",
  "version": "4.1.1.252",
  "releaseTime": "2012-09-09T11:39:20",
  "traits": [
    "legacyfml"
  ],
  "jarMods": [
    {
      "name": "net.minecraftforge:forge:1.3.2-4.1.1.252:universal",
      "downloads": {
        "artifact": {
          "sha1": "ad02718c6ca50313953afd8943ba8ccd8b61030d",
          "url": "http://files.minecraftforge.net/maven/net/minecraftforge/forge/1.3.2-4.1.1.252/forge-1.3.2-4.1.1.252-universal.zip",
          "size": 1207177
        }
      }
    }
  ],
  "requires": [
    {
      "uid": "net.minecraft",
      "equals": "1.3.2"
    }
  ]
}