{
  "order": 5,
  "volatile": false,
  "name": "Forge",
  "uid": "net.minecraftforge",
  "version": "4.2.5.311",
  "releaseTime": "2012-10-14T21:04:00",
  "traits": [
    "legacyfml"
  ],
  "jarMods": [
    {
      "name": "net.minecraftforge:forge:1.3.2-4.2.5.311:universal",
      "downloads": {
        "artifact": {
          "sha1": "a040f2961a9f80d213dd63fc524a43c97a80ff81",
          "url": "http://files.minecraftforge.net/maven/net/minecraftforge/forge/1.3.2-4.2.5.311/forge-1.3.2-4.2.5.311-universal.zip",
          "size": 1432897
        }
      }
    }
  ],
  "requires": [
    {
      "uid": "net.minecraft",
      "equals": "1.3.2"
    }
  ]
}