{
  "order": 5,
  "volatile": false,
  "name": "Forge",
  "uid": "net.minecraftforge",
  "version": "4.2.5.316",
  "releaseTime": "2012-10-19T07:33:54",
  "traits": [
    "legacyfml"
  ],
  "jarMods": [
    {
      "name": "net.minecraftforge:forge:1.3.2-4.2.5.316:universal",
      "downloads": {
        "artifact": {
          "sha1": "c6523c32c76347f4e524f2a62ffb818c1be100a0",
          "url": "http://files.minecraftforge.net/maven/net/minecraftforge/forge/1.3.2-4.2.5.316/forge-1.3.2-4.2.5.316-universal.zip",
          "size": 1445006
        }
      }
    }
  ],
  "requires": [
    {
      "uid": "net.minecraft",
      "equals": "1.3.2"
    }
  ]
}