{
  "order": 5,
  "volatile": false,
  "name": "Forge",
  "uid": "net.minecraftforge",
  "version": "4.2.5.315",
  "releaseTime": "2012-10-18T19:36:54",
  "traits": [
    "legacyfml"
  ],
  "jarMods": [
    {
      "name": "net.minecraftforge:forge:1.3.2-4.2.5.315:universal",
      "downloads": {
        "artifact": {
          "sha1": "d73efe944b56af1dec736a2841bf90b982fdcfda",
          "url": "http://files.minecraftforge.net/maven/net/minecraftforge/forge/1.3.2-4.2.5.315/forge-1.3.2-4.2.5.315-universal.zip",
          "size": 1444954
        }
      }
    }
  ],
  "requires": [
    {
      "uid": "net.minecraft",
      "equals": "1.3.2"
    }
  ]
}