{
  "order": 5,
  "volatile": false,
  "name": "Forge",
  "uid": "net.minecraftforge",
  "version": "4.2.5.307",
  "releaseTime": "2012-10-12T07:06:42",
  "traits": [
    "legacyfml"
  ],
  "jarMods": [
    {
      "name": "net.minecraftforge:forge:1.3.2-4.2.5.307:universal",
      "downloads": {
        "artifact": {
          "sha1": "4abca56246431b36c149cd313e4835763ce8fd18",
          "url": "http://files.minecraftforge.net/maven/net/minecraftforge/forge/1.3.2-4.2.5.307/forge-1.3.2-4.2.5.307-universal.zip",
          "size": 1428536
        }
      }
    }
  ],
  "requires": [
    {
      "uid": "net.minecraft",
      "equals": "1.3.2"
    }
  ]
}