{
  "order": 5,
  "volatile": false,
  "name": "Forge",
  "uid": "net.minecraftforge",
  "version": "5.0.0.323",
  "releaseTime": "2012-10-21T21:13:26",
  "jarMods": [
    {
      "name": "net.minecraftforge:forge:1.4.0-5.0.0.323:universal",
      "downloads": {
        "artifact": {
          "sha1": "609edfe719164418a648702d0d4886cfecae0af9",
          "url": "http://files.minecraftforge.net/maven/net/minecraftforge/forge/1.4.0-5.0.0.323/forge-1.4.0-5.0.0.323-universal.zip",
          "size": 1494585
        }
      }
    }
  ],
  "requires": [
    {
      "uid": "net.minecraft",
      "equals": "1.4.0"
    }
  ]
}