{
  "order": 5,
  "volatile": false,
  "name": "Forge",
  "uid": "net.minecraftforge",
  "version": "6.0.1.343",
  "releaseTime": "2012-10-28T05:56:26",
  "traits": [
    "legacyfml"
  ],
  "jarMods": [
    {
      "name": "net.minecraftforge:forge:1.4.2-6.0.1.343:universal",
      "downloads": {
        "artifact": {
          "sha1": "7e75505b38d43d8ddba72ca54a80a05d3f8421e0",
          "url": "http://files.minecraftforge.net/maven/net/minecraftforge/forge/1.4.2-6.0.1.343/forge-1.4.2-6.0.1.343-universal.zip",
          "size": 1514653
        }
      }
    }
  ],
  "requires": [
    {
      "uid": "net.minecraft",
      "equals": "1.4.2"
    }
  ]
}