{
  "order": 5,
  "volatile": false,
  "name": "Forge",
  "uid": "net.minecraftforge",
  "version": "6.0.1.348",
  "releaseTime": "2012-10-28T22:58:56",
  "traits": [
    "legacyfml"
  ],
  "jarMods": [
    {
      "name": "net.minecraftforge:forge:1.4.2-6.0.1.348:universal",
      "downloads": {
        "artifact": {
          "sha1": "bc79e870e11fef61ddfba2c82eb4268af049a44a",
          "url": "http://files.minecraftforge.net/maven/net/minecraftforge/forge/1.4.2-6.0.1.348/forge-1.4.2-6.0.1.348-universal.zip",
          "size": 1525392
        }
      }
    }
  ],
  "requires": [
    {
      "uid": "net.minecraft",
      "equals": "1.4.2"
    }
  ]
}