{
  "order": 5,
  "volatile": false,
  "name": "Forge",
  "uid": "net.minecraftforge",
  "version": "6.0.0.327",
  "releaseTime": "2012-10-23T17:11:18",
  "traits": [
    "legacyfml"
  ],
  "jarMods": [
    {
      "name": "net.minecraftforge:forge:1.4.1-6.0.0.327:universal",
      "downloads": {
        "artifact": {
          "sha1": "206f653b01decb7ed59856d8e5918aa2e29d7de7",
          "url": "http://files.minecraftforge.net/maven/net/minecraftforge/forge/1.4.1-6.0.0.327/forge-1.4.1-6.0.0.327-universal.zip",
          "size": 1496510
        }
      }
    }
  ],
  "requires": [
    {
      "uid": "net.minecraft",
      "equals": "1.4.1"
    }
  ]
}