{
  "order": 5,
  "volatile": false,
  "name": "Forge",
  "uid": "net.minecraftforge",
  "version": "6.0.1.338",
  "releaseTime": "2012-10-26T22:14:56",
  "traits": [
    "legacyfml"
  ],
  "jarMods": [
    {
      "name": "net.minecraftforge:forge:1.4.2-6.0.1.338:universal",
      "downloads": {
        "artifact": {
          "sha1": "66639c2142007e828ace0e073e8bb6cee331b9a5",
          "url": "http://files.minecraftforge.net/maven/net/minecraftforge/forge/1.4.2-6.0.1.338/forge-1.4.2-6.0.1.338-universal.zip",
          "size": 1510621
        }
      }
    }
  ],
  "requires": [
    {
      "uid": "net.minecraft",
      "equals": "1.4.2"
    }
  ]
}