{
  "order": 5,
  "volatile": false,
  "name": "Forge",
  "uid": "net.minecraftforge",
  "version": "6.3.0.370",
  "releaseTime": "2012-11-13T13:09:52",
  "traits": [
    "legacyfml"
  ],
  "jarMods": [
    {
      "name": "net.minecraftforge:forge:1.4.4-6.3.0.370:universal",
      "downloads": {
        "artifact": {
          "sha1": "b2076adfc54efc8ae825730a64ed01279d44c211",
          "url": "http://files.minecraftforge.net/maven/net/minecraftforge/forge/1.4.4-6.3.0.370/forge-1.4.4-6.3.0.370-universal.zip",
          "size": 1560358
        }
      }
    }
  ],
  "requires": [
    {
      "uid": "net.minecraft",
      "equals": "1.4.4"
    }
  ]
}