{
  "order": 5,
  "volatile": false,
  "name": "Forge",
  "uid": "net.minecraftforge",
  "version": "6.3.0.368",
  "releaseTime": "2012-11-13T05:16:32",
  "traits": [
    "legacyfml"
  ],
  "jarMods": [
    {
      "name": "net.minecraftforge:forge:1.4.4-6.3.0.368:universal",
      "downloads": {
        "artifact": {
          "sha1": "4a6ce155d69a0e77172bd33e8542843ba2fb5557",
          "url": "http://files.minecraftforge.net/maven/net/minecraftforge/forge/1.4.4-6.3.0.368/forge-1.4.4-6.3.0.368-universal.zip",
          "size": 1572991
        }
      }
    }
  ],
  "requires": [
    {
      "uid": "net.minecraft",
      "equals": "1.4.4"
    }
  ]
}