{
  "order": 5,
  "volatile": false,
  "name": "Forge",
  "uid": "net.minecraftforge",
  "version": "6.3.0.377",
  "releaseTime": "2012-11-15T20:06:00",
  "traits": [
    "legacyfml"
  ],
  "jarMods": [
    {
      "name": "net.minecraftforge:forge:1.4.4-6.3.0.377:universal",
      "downloads": {
        "artifact": {
          "sha1": "780c95faaa1ba67abad4f3337400608c447cc58b",
          "url": "http://files.minecraftforge.net/maven/net/minecraftforge/forge/1.4.4-6.3.0.377/forge-1.4.4-6.3.0.377-universal.zip",
          "size": 1563101
        }
      }
    }
  ],
  "requires": [
    {
      "uid": "net.minecraft",
      "equals": "1.4.4"
    }
  ]
}