{
  "order": 5,
  "volatile": false,
  "name": "Forge",
  "uid": "net.minecraftforge",
  "version": "6.3.0.372",
  "releaseTime": "2012-11-13T19:58:58",
  "traits": [
    "legacyfml"
  ],
  "jarMods": [
    {
      "name": "net.minecraftforge:forge:1.4.4-6.3.0.372:universal",
      "downloads": {
        "artifact": {
          "sha1": "027d47d7976d01ccc3599e041dfcded3ec15eb2a",
          "url": "http://files.minecraftforge.net/maven/net/minecraftforge/forge/1.4.4-6.3.0.372/forge-1.4.4-6.3.0.372-universal.zip",
          "size": 1561761
        }
      }
    }
  ],
  "requires": [
    {
      "uid": "net.minecraft",
      "equals": "1.4.4"
    }
  ]
}