{
  "order": 5,
  "volatile": false,
  "name": "Forge",
  "uid": "net.minecraftforge",
  "version": "6.3.0.378",
  "releaseTime": "2012-11-15T23:33:32",
  "traits": [
    "legacyfml"
  ],
  "jarMods": [
    {
      "name": "net.minecraftforge:forge:1.4.4-6.3.0.378:universal",
      "downloads": {
        "artifact": {
          "sha1": "dce5007bd59c08b094a83f1f35b64e25f1996f78",
          "url": "http://files.minecraftforge.net/maven/net/minecraftforge/forge/1.4.4-6.3.0.378/forge-1.4.4-6.3.0.378-universal.zip",
          "size": 1566485
        }
      }
    }
  ],
  "requires": [
    {
      "uid": "net.minecraft",
      "equals": "1.4.4"
    }
  ]
}