{
  "order": 5,
  "volatile": false,
  "name": "Forge",
  "uid": "net.minecraftforge",
  "version": "6.4.1.425",
  "releaseTime": "2012-12-06T14:19:06",
  "traits": [
    "legacyfml"
  ],
  "jarMods": [
    {
      "name": "net.minecraftforge:forge:1.4.5-6.4.1.425:universal",
      "downloads": {
        "artifact": {
          "sha1": "4fccda18239a1876f3d62f5c965d60b82dc91468",
          "url": "http://files.minecraftforge.net/maven/net/minecraftforge/forge/1.4.5-6.4.1.425/forge-1.4.5-6.4.1.425-universal.zip",
          "size": 1576317
        }
      }
    }
  ],
  "requires": [
    {
      "uid": "net.minecraft",
      "equals": "1.4.5"
    }
  ]
}