{
  "order": 5,
  "volatile": false,
  "name": "Forge",
  "uid": "net.minecraftforge",
  "version": "6.4.0.385",
  "releaseTime": "2012-11-18T02:42:22",
  "traits": [
    "legacyfml"
  ],
  "jarMods": [
    {
      "name": "net.minecraftforge:forge:1.4.5-6.4.0.385:universal",
      "downloads": {
        "artifact": {
          "sha1": "a15a6f757d97b8f0eb8ad8d4ac7d3124c0321746",
          "url": "http://files.minecraftforge.net/maven/net/minecraftforge/forge/1.4.5-6.4.0.385/forge-1.4.5-6.4.0.385-universal.zip",
          "size": 1566949
        }
      }
    }
  ],
  "requires": [
    {
      "uid": "net.minecraft",
      "equals": "1.4.5"
    }
  ]
}