{
  "order": 5,
  "volatile": false,
  "name": "Forge",
  "uid": "net.minecraftforge",
  "version": "6.4.0.382",
  "releaseTime": "2012-11-17T18:56:40",
  "traits": [
    "legacyfml"
  ],
  "jarMods": [
    {
      "name": "net.minecraftforge:forge:1.4.5-6.4.0.382:universal",
      "downloads": {
        "artifact": {
          "sha1": "1f944700b9a13ac67691968da20f2535e3d77bca",
          "url": "http://files.minecraftforge.net/maven/net/minecraftforge/forge/1.4.5-6.4.0.382/forge-1.4.5-6.4.0.382-universal.zip",
          "size": 1566687
        }
      }
    }
  ],
  "requires": [
    {
      "uid": "net.minecraft",
      "equals": "1.4.5"
    }
  ]
}