{
  "order": 5,
  "volatile": false,
  "name": "Forge",
  "uid": "net.minecraftforge",
  "version": "6.4.0.390",
  "releaseTime": "2012-11-19T17:07:02",
  "traits": [
    "legacyfml"
  ],
  "jarMods": [
    {
      "name": "net.minecraftforge:forge:1.4.5-6.4.0.390:universal",
      "downloads": {
        "artifact": {
          "sha1": "c71d7e28ae162d29eb8806040f6f7fbf21708d14",
          "url": "http://files.minecraftforge.net/maven/net/minecraftforge/forge/1.4.5-6.4.0.390/forge-1.4.5-6.4.0.390-universal.zip",
          "size": 1568504
        }
      }
    }
  ],
  "requires": [
    {
      "uid": "net.minecraft",
      "equals": "1.4.5"
    }
  ]
}