{
  "order": 5,
  "volatile": false,
  "name": "Forge",
  "uid": "net.minecraftforge",
  "version": "6.4.1.407",
  "releaseTime": "2012-11-27T23:46:16",
  "traits": [
    "legacyfml"
  ],
  "jarMods": [
    {
      "name": "net.minecraftforge:forge:1.4.5-6.4.1.407:universal",
      "downloads": {
        "artifact": {
          "sha1": "7b50df5d5782bf5568074836ee87342273d2c9d6",
          "url": "http://files.minecraftforge.net/maven/net/minecraftforge/forge/1.4.5-6.4.1.407/forge-1.4.5-6.4.1.407-universal.zip",
          "size": 1573097
        }
      }
    }
  ],
  "requires": [
    {
      "uid": "net.minecraft",
      "equals": "1.4.5"
    }
  ]
}