{
  "order": 5,
  "volatile": false,
  "name": "Forge",
  "uid": "net.minecraftforge",
  "version": "6.4.1.435",
  "releaseTime": "2012-12-09T20:01:56",
  "traits": [
    "legacyfml"
  ],
  "jarMods": [
    {
      "name": "net.minecraftforge:forge:1.4.5-6.4.1.435:universal",
      "downloads": {
        "artifact": {
          "sha1": "a1b84b450226f355d8dec28a3e8c1103cd9b37af",
          "url": "http://files.minecraftforge.net/maven/net/minecraftforge/forge/1.4.5-6.4.1.435/forge-1.4.5-6.4.1.435-universal.zip",
          "size": 1576377
        }
      }
    }
  ],
  "requires": [
    {
      "uid": "net.minecraft",
      "equals": "1.4.5"
    }
  ]
}