{
  "order": 5,
  "volatile": false,
  "name": "Forge",
  "uid": "net.minecraftforge",
  "version": "6.4.1.436",
  "releaseTime": "2012-12-10T16:59:08",
  "traits": [
    "legacyfml"
  ],
  "jarMods": [
    {
      "name": "net.minecraftforge:forge:1.4.5-6.4.1.436:universal",
      "downloads": {
        "artifact": {
          "sha1": "8c4b90d40e9793c3252c3f88c730422fb64669a9",
          "url": "http://files.minecraftforge.net/maven/net/minecraftforge/forge/1.4.5-6.4.1.436/forge-1.4.5-6.4.1.436-universal.zip",
          "size": 1590738
        }
      }
    }
  ],
  "requires": [
    {
      "uid": "net.minecraft",
      "equals": "1.4.5"
    }
  ]
}