{
  "order": 5,
  "volatile": false,
  "name": "Forge",
  "uid": "net.minecraftforge",
  "version": "6.4.1.410",
  "releaseTime": "2012-12-01T23:01:20",
  "traits": [
    "legacyfml"
  ],
  "jarMods": [
    {
      "name": "net.minecraftforge:forge:1.4.5-6.4.1.410:universal",
      "downloads": {
        "artifact": {
          "sha1": "a771d3f3823f2698477fcf09e695bfe2b85dab43",
          "url": "http://files.minecraftforge.net/maven/net/minecraftforge/forge/1.4.5-6.4.1.410/forge-1.4.5-6.4.1.410-universal.zip",
          "size": 1574333
        }
      }
    }
  ],
  "requires": [
    {
      "uid": "net.minecraft",
      "equals": "1.4.5"
    }
  ]
}