{
  "order": 5,
  "volatile": false,
  "name": "Forge",
  "uid": "net.minecraftforge",
  "version": "6.4.1.439",
  "releaseTime": "2012-12-12T15:35:04",
  "traits": [
    "legacyfml"
  ],
  "jarMods": [
    {
      "name": "net.minecraftforge:forge:1.4.5-6.4.1.439:universal",
      "downloads": {
        "artifact": {
          "sha1": "380e5ed60de266795ef3dee3c936621141cf0186",
          "url": "http://files.minecraftforge.net/maven/net/minecraftforge/forge/1.4.5-6.4.1.439/forge-1.4.5-6.4.1.439-universal.zip",
          "size": 1592612
        }
      }
    }
  ],
  "requires": [
    {
      "uid": "net.minecraft",
      "equals": "1.4.5"
    }
  ]
}