{
  "order": 5,
  "volatile": false,
  "name": "Forge",
  "uid": "net.minecraftforge",
  "version": "6.4.1.400",
  "releaseTime": "2012-11-27T03:09:46",
  "traits": [
    "legacyfml"
  ],
  "jarMods": [
    {
      "name": "net.minecraftforge:forge:1.4.5-6.4.1.400:universal",
      "downloads": {
        "artifact": {
          "sha1": "ffce011510bac3b35a704cba8bddad4ff77ac8b0",
          "url": "http://files.minecraftforge.net/maven/net/minecraftforge/forge/1.4.5-6.4.1.400/forge-1.4.5-6.4.1.400-universal.zip",
          "size": 1571980
        }
      }
    }
  ],
  "requires": [
    {
      "uid": "net.minecraft",
      "equals": "1.4.5"
    }
  ]
}