{
  "order": 5,
  "volatile": false,
  "name": "Forge",
  "uid": "net.minecraftforge",
  "version": "6.4.0.399",
  "releaseTime": "2012-11-27T01:31:16",
  "traits": [
    "legacyfml"
  ],
  "jarMods": [
    {
      "name": "net.minecraftforge:forge:1.4.5-6.4.0.399:universal",
      "downloads": {
        "artifact": {
          "sha1": "3f81754b6649761afcc5f9ce17ac92a078ebc713",
          "url": "http://files.minecraftforge.net/maven/net/minecraftforge/forge/1.4.5-6.4.0.399/forge-1.4.5-6.4.0.399-universal.zip",
          "size": 1570525
        }
      }
    }
  ],
  "requires": [
    {
      "uid": "net.minecraft",
      "equals": "1.4.5"
    }
  ]
}