{
  "order": 5,
  "volatile": false,
  "name": "Forge",
  "uid": "net.minecraftforge",
  "version": "6.4.1.428",
  "releaseTime": "2012-12-07T14:25:52",
  "traits": [
    "legacyfml"
  ],
  "jarMods": [
    {
      "name": "net.minecraftforge:forge:1.4.5-6.4.1.428:universal",
      "downloads": {
        "artifact": {
          "sha1": "4c352824ffec9ed14461d582f7329132a1c8df14",
          "url": "http://files.minecraftforge.net/maven/net/minecraftforge/forge/1.4.5-6.4.1.428/forge-1.4.5-6.4.1.428-universal.zip",
          "size": 1576422
        }
      }
    }
  ],
  "requires": [
    {
      "uid": "net.minecraft",
      "equals": "1.4.5"
    }
  ]
}