{
  "order": 5,
  "volatile": false,
  "name": "Forge",
  "uid": "net.minecraftforge",
  "version": "6.4.2.446",
  "releaseTime": "2012-12-16T19:08:40",
  "traits": [
    "legacyfml"
  ],
  "jarMods": [
    {
      "name": "net.minecraftforge:forge:1.4.5-6.4.2.446:universal",
      "downloads": {
        "artifact": {
          "sha1": "21b69f42306a5a27cadfe6d80c334e0733ab52ac",
          "url": "http://files.minecraftforge.net/maven/net/minecraftforge/forge/1.4.5-6.4.2.446/forge-1.4.5-6.4.2.446-universal.zip",
          "size": 1669607
        }
      }
    }
  ],
  "requires": [
    {
      "uid": "net.minecraft",
      "equals": "1.4.5"
    }
  ]
}