{
  "order": 5,
  "volatile": false,
  "name": "Forge",
  "uid": "net.minecraftforge",
  "version": "6.4.0.394",
  "releaseTime": "2012-11-20T07:12:44",
  "traits": [
    "legacyfml"
  ],
  "jarMods": [
    {
      "name": "net.minecraftforge:forge:1.4.5-6.4.0.394:universal",
      "downloads": {
        "artifact": {
          "sha1": "66e56c512a992b0bb903a75ae84d06de354b5c28",
          "url": "http://files.minecraftforge.net/maven/net/minecraftforge/forge/1.4.5-6.4.0.394/forge-1.4.5-6.4.0.394-universal.zip",
          "size": 1565762
        }
      }
    }
  ],
  "requires": [
    {
      "uid": "net.minecraft",
      "equals": "1.4.5"
    }
  ]
}