{
  "order": 5,
  "volatile": false,
  "name": "Forge",
  "uid": "net.minecraftforge",
  "version": "6.4.0.383",
  "releaseTime": "2012-11-17T22:21:40",
  "traits": [
    "legacyfml"
  ],
  "jarMods": [
    {
      "name": "net.minecraftforge:forge:1.4.5-6.4.0.383:universal",
      "downloads": {
        "artifact": {
          "sha1": "65e67841ce18c66bc1cde1ba97df287983a83bf8",
          "url": "http://files.minecraftforge.net/maven/net/minecraftforge/forge/1.4.5-6.4.0.383/forge-1.4.5-6.4.0.383-universal.zip",
          "size": 1566646
        }
      }
    }
  ],
  "requires": [
    {
      "uid": "net.minecraft",
      "equals": "1.4.5"
    }
  ]
}