{
  "order": 5,
  "volatile": false,
  "name": "Forge",
  "uid": "net.minecraftforge",
  "version": "6.4.0.384",
  "releaseTime": "2012-11-18T00:03:10",
  "traits": [
    "legacyfml"
  ],
  "jarMods": [
    {
      "name": "net.minecraftforge:forge:1.4.5-6.4.0.384:universal",
      "downloads": {
        "artifact": {
          "sha1": "3c6adeef6acfc9b7abb0f199b395b98f711cb93d",
          "url": "http://files.minecraftforge.net/maven/net/minecraftforge/forge/1.4.5-6.4.0.384/forge-1.4.5-6.4.0.384-universal.zip",
          "size": 1566769
        }
      }
    }
  ],
  "requires": [
    {
      "uid": "net.minecraft",
      "equals": "1.4.5"
    }
  ]
}