{
  "order": 5,
  "volatile": false,
  "name": "Forge",
  "uid": "net.minecraftforge",
  "version": "6.5.0.460",
  "releaseTime": "2012-12-18T16:45:26",
  "traits": [
    "legacyfml"
  ],
  "jarMods": [
    {
      "name": "net.minecraftforge:forge:1.4.6-6.5.0.460:universal",
      "downloads": {
        "artifact": {
          "sha1": "82d3f2945980277af4e5562283b46d5c99c33192",
          "url": "http://files.minecraftforge.net/maven/net/minecraftforge/forge/1.4.6-6.5.0.460/forge-1.4.6-6.5.0.460-universal.zip",
          "size": 1727478
        }
      }
    }
  ],
  "requires": [
    {
      "uid": "net.minecraft",
      "equals": "1.4.6"
    }
  ]
}