{
  "order": 5,
  "volatile": false,
  "name": "Forge",
  "uid": "net.minecraftforge",
  "version": "6.5.0.452",
  "releaseTime": "2012-12-18T06:33:42",
  "traits": [
    "legacyfml"
  ],
  "jarMods": [
    {
      "name": "net.minecraftforge:forge:1.4.6-6.5.0.452:universal",
      "downloads": {
        "artifact": {
          "sha1": "2a2c3d7656179a3576c68ef05593241cab30dc89",
          "url": "http://files.minecraftforge.net/maven/net/minecraftforge/forge/1.4.6-6.5.0.452/forge-1.4.6-6.5.0.452-universal.zip",
          "size": 1726210
        }
      }
    }
  ],
  "requires": [
    {
      "uid": "net.minecraft",
      "equals": "1.4.6"
    }
  ]
}