{
  "order": 5,
  "volatile": false,
  "name": "Forge",
  "uid": "net.minecraftforge",
  "version": "6.5.0.461",
  "releaseTime": "2012-12-18T20:15:42",
  "traits": [
    "legacyfml"
  ],
  "jarMods": [
    {
      "name": "net.minecraftforge:forge:1.4.6-6.5.0.461:universal",
      "downloads": {
        "artifact": {
          "sha1": "736ea6a5de8a8631f179958c727af63cde2534c3",
          "url": "http://files.minecraftforge.net/maven/net/minecraftforge/forge/1.4.6-6.5.0.461/forge-1.4.6-6.5.0.461-universal.zip",
          "size": 1733216
        }
      }
    }
  ],
  "requires": [
    {
      "uid": "net.minecraft",
      "equals": "1.4.6"
    }
  ]
}