{
  "order": 5,
  "volatile": false,
  "name": "Forge",
  "uid": "net.minecraftforge",
  "version": "6.5.0.486",
  "releaseTime": "2012-12-25T23:32:22",
  "traits": [
    "legacyfml"
  ],
  "jarMods": [
    {
      "name": "net.minecraftforge:forge:1.4.6-6.5.0.486:universal",
      "downloads": {
        "artifact": {
          "sha1": "da305a3cea5057bf8ba153fd066631c11b05addc",
          "url": "http://files.minecraftforge.net/maven/net/minecraftforge/forge/1.4.6-6.5.0.486/forge-1.4.6-6.5.0.486-universal.zip",
          "size": 1745580
        }
      }
    }
  ],
  "requires": [
    {
      "uid": "net.minecraft",
      "equals": "1.4.6"
    }
  ]
}