{
  "order": 5,
  "volatile": false,
  "name": "Forge",
  "uid": "net.minecraftforge",
  "version": "6.5.0.458",
  "releaseTime": "2012-12-18T15:13:42",
  "traits": [
    "legacyfml"
  ],
  "jarMods": [
    {
      "name": "net.minecraftforge:forge:1.4.6-6.5.0.458:universal",
      "downloads": {
        "artifact": {
          "sha1": "41ad6776ef46795e9d3fb219f0cc70deacc322fd",
          "url": "http://files.minecraftforge.net/maven/net/minecraftforge/forge/1.4.6-6.5.0.458/forge-1.4.6-6.5.0.458-universal.zip",
          "size": 1727457
        }
      }
    }
  ],
  "requires": [
    {
      "uid": "net.minecraft",
      "equals": "1.4.6"
    }
  ]
}