{
  "order": 5,
  "volatile": false,
  "name": "Forge",
  "uid": "net.minecraftforge",
  "version": "6.5.0.473",
  "releaseTime": "2012-12-22T05:13:46",
  "traits": [
    "legacyfml"
  ],
  "jarMods": [
    {
      "name": "net.minecraftforge:forge:1.4.6-6.5.0.473:universal",
      "downloads": {
        "artifact": {
          "sha1": "5c729491f944ae248bbbbfa4c3538ab55d8e3ad3",
          "url": "http://files.minecraftforge.net/maven/net/minecraftforge/forge/1.4.6-6.5.0.473/forge-1.4.6-6.5.0.473-universal.zip",
          "size": 1744124
        }
      }
    }
  ],
  "requires": [
    {
      "uid": "net.minecraft",
      "equals": "1.4.6"
    }
  ]
}