{
  "order": 5,
  "volatile": false,
  "name": "Forge",
  "uid": "net.minecraftforge",
  "version": "6.5.0.469",
  "releaseTime": "2012-12-20T23:53:48",
  "traits": [
    "legacyfml"
  ],
  "jarMods": [
    {
      "name": "net.minecraftforge:forge:1.4.6-6.5.0.469:universal",
      "downloads": {
        "artifact": {
          "sha1": "7426aac26d35e178b3d2663b4d506a82d00a3f85",
          "url": "http://files.minecraftforge.net/maven/net/minecraftforge/forge/1.4.6-6.5.0.469/forge-1.4.6-6.5.0.469-universal.zip",
          "size": 1734950
        }
      }
    }
  ],
  "requires": [
    {
      "uid": "net.minecraft",
      "equals": "1.4.6"
    }
  ]
}