{
  "order": 5,
  "volatile": false,
  "name": "Forge",
  "uid": "net.minecraftforge",
  "version": "6.5.0.480",
  "releaseTime": "2012-12-24T02:58:50",
  "traits": [
    "legacyfml"
  ],
  "jarMods": [
    {
      "name": "net.minecraftforge:forge:1.4.6-6.5.0.480:universal",
      "downloads": {
        "artifact": {
          "sha1": "3d760ec785b329dc04fa59342b381dd357336811",
          "url": "http://files.minecraftforge.net/maven/net/minecraftforge/forge/1.4.6-6.5.0.480/forge-1.4.6-6.5.0.480-universal.zip",
          "size": 1744429
        }
      }
    }
  ],
  "requires": [
    {
      "uid": "net.minecraft",
      "equals": "1.4.6"
    }
  ]
}