{
  "order": 5,
  "volatile": false,
  "name": "Forge",
  "uid": "net.minecraftforge",
  "version": "6.6.0.511",
  "releaseTime": "2013-01-26T08:29:26",
  "traits": [
    "legacyfml"
  ],
  "jarMods": [
    {
      "name": "net.minecraftforge:forge:1.4.7-6.6.0.511:universal",
      "downloads": {
        "artifact": {
          "sha1": "37e54676fe4db1dc8cfb2b56f3d5344024aca44d",
          "url": "http://files.minecraftforge.net/maven/net/minecraftforge/forge/1.4.7-6.6.0.511/forge-1.4.7-6.6.0.511-universal.zip",
          "size": 1758076
        }
      }
    }
  ],
  "requires": [
    {
      "uid": "net.minecraft",
      "equals": "1.4.7"
    }
  ]
}