{
  "order": 5,
  "volatile": false,
  "name": "Forge",
  "uid": "net.minecraftforge",
  "version": "6.6.0.506",
  "releaseTime": "2013-01-22T08:14:22",
  "traits": [
    "legacyfml"
  ],
  "jarMods": [
    {
      "name": "net.minecraftforge:forge:1.4.7-6.6.0.506:universal",
      "downloads": {
        "artifact": {
          "sha1": "5f3d3cba6c563334f585a0d3f2d1c1d3bfb673f5",
          "url": "http://files.minecraftforge.net/maven/net/minecraftforge/forge/1.4.7-6.6.0.506/forge-1.4.7-6.6.0.506-universal.zip",
          "size": 1757249
        }
      }
    }
  ],
  "requires": [
    {
      "uid": "net.minecraft",
      "equals": "1.4.7"
    }
  ]
}