{
  "order": 5,
  "volatile": false,
  "name": "Forge",
  "uid": "net.minecraftforge",
  "version": "6.6.0.493",
  "releaseTime": "2012-12-30T21:30:20",
  "traits": [
    "legacyfml"
  ],
  "jarMods": [
    {
      "name": "net.minecraftforge:forge:1.4.7-6.6.0.493:universal",
      "downloads": {
        "artifact": {
          "sha1": "01cf4d59115b3bf2b8cbe2e54d6703200016d2ec",
          "url": "http://files.minecraftforge.net/maven/net/minecraftforge/forge/1.4.7-6.6.0.493/forge-1.4.7-6.6.0.493-universal.zip",
          "size": 1746349
        }
      }
    }
  ],
  "requires": [
    {
      "uid": "net.minecraft",
      "equals": "1.4.7"
    }
  ]
}