{
  "order": 5,
  "volatile": false,
  "name": "Forge",
  "uid": "net.minecraftforge",
  "version": "6.6.0.517",
  "releaseTime": "2013-01-28T19:23:52",
  "traits": [
    "legacyfml"
  ],
  "jarMods": [
    {
      "name": "net.minecraftforge:forge:1.4.7-6.6.0.517:universal",
      "downloads": {
        "artifact": {
          "sha1": "85730f2eab50431f06074f56fd45ac52f35e7888",
          "url": "http://files.minecraftforge.net/maven/net/minecraftforge/forge/1.4.7-6.6.0.517/forge-1.4.7-6.6.0.517-universal.zip",
          "size": 1761462
        }
      }
    }
  ],
  "requires": [
    {
      "uid": "net.minecraft",
      "equals": "1.4.7"
    }
  ]
}