{
  "order": 5,
  "volatile": false,
  "name": "Forge",
  "uid": "net.minecraftforge",
  "version": "6.6.1.522",
  "releaseTime": "2013-02-04T12:03:06",
  "traits": [
    "legacyfml"
  ],
  "jarMods": [
    {
      "name": "net.minecraftforge:forge:1.4.7-6.6.1.522:universal",
      "downloads": {
        "artifact": {
          "sha1": "386872fe1744a35dec7e0311335977d9595bf2a7",
          "url": "http://files.minecraftforge.net/maven/net/minecraftforge/forge/1.4.7-6.6.1.522/forge-1.4.7-6.6.1.522-universal.zip",
          "size": 1769519
        }
      }
    }
  ],
  "requires": [
    {
      "uid": "net.minecraft",
      "equals": "1.4.7"
    }
  ]
}