{
  "order": 5,
  "volatile": false,
  "name": "Forge",
  "uid": "net.minecraftforge",
  "version": "6.6.0.496",
  "releaseTime": "2013-01-01T22:02:56",
  "traits": [
    "legacyfml"
  ],
  "jarMods": [
    {
      "name": "net.minecraftforge:forge:1.4.7-6.6.0.496:universal",
      "downloads": {
        "artifact": {
          "sha1": "ec5da86e1eb98345401f289a677e22d9ff39b677",
          "url": "http://files.minecraftforge.net/maven/net/minecraftforge/forge/1.4.7-6.6.0.496/forge-1.4.7-6.6.0.496-universal.zip",
          "size": 1747767
        }
      }
    }
  ],
  "requires": [
    {
      "uid": "net.minecraft",
      "equals": "1.4.7"
    }
  ]
}