{
  "order": 5,
  "volatile": false,
  "name": "Forge",
  "uid": "net.minecraftforge",
  "version": "6.6.2.534",
  "releaseTime": "2013-02-25T00:00:20",
  "traits": [
    "legacyfml"
  ],
  "jarMods": [
    {
      "name": "net.minecraftforge:forge:1.4.7-6.6.2.534:universal",
      "downloads": {
        "artifact": {
          "sha1": "bd0f40a78c18140265ff042a96d73f01c4f60906",
          "url": "http://files.minecraftforge.net/maven/net/minecraftforge/forge/1.4.7-6.6.2.534/forge-1.4.7-6.6.2.534-universal.zip",
          "size": 1778669
        }
      }
    }
  ],
  "requires": [
    {
      "uid": "net.minecraft",
      "equals": "1.4.7"
    }
  ]
}