{
  "order": 5,
  "volatile": false,
  "name": "Forge",
  "uid": "net.minecraftforge",
  "version": "6.6.0.503",
  "releaseTime": "2013-01-20T13:28:28",
  "traits": [
    "legacyfml"
  ],
  "jarMods": [
    {
      "name": "net.minecraftforge:forge:1.4.7-6.6.0.503:universal",
      "downloads": {
        "artifact": {
          "sha1": "2862ddfb1247e3fa63feaf75bb6eb89619641555",
          "url": "http://files.minecraftforge.net/maven/net/minecraftforge/forge/1.4.7-6.6.0.503/forge-1.4.7-6.6.0.503-universal.zip",
          "size": 1753210
        }
      }
    }
  ],
  "requires": [
    {
      "uid": "net.minecraft",
      "equals": "1.4.7"
    }
  ]
}