{
  "order": 5,
  "volatile": false,
  "name": "Forge",
  "uid": "net.minecraftforge",
  "version": "6.6.1.530",
  "releaseTime": "2013-02-23T13:23:34",
  "traits": [
    "legacyfml"
  ],
  "jarMods": [
    {
      "name": "net.minecraftforge:forge:1.4.7-6.6.1.530:universal",
      "downloads": {
        "artifact": {
          "sha1": "04a7307ba922860718b4700ca6c7858d24148f98",
          "url": "http://files.minecraftforge.net/maven/net/minecraftforge/forge/1.4.7-6.6.1.530/forge-1.4.7-6.6.1.530-universal.zip",
          "size": 1771375
        }
      }
    }
  ],
  "requires": [
    {
      "uid": "net.minecraft",
      "equals": "1.4.7"
    }
  ]
}