{
  "order": 5,
  "volatile": false,
  "name": "Forge",
  "uid": "net.minecraftforge",
  "version": "6.6.1.527",
  "releaseTime": "2013-02-15T06:39:20",
  "traits": [
    "legacyfml"
  ],
  "jarMods": [
    {
      "name": "net.minecraftforge:forge:1.4.7-6.6.1.527:universal",
      "downloads": {
        "artifact": {
          "sha1": "6fbf800c40a7ae21cafd5355a7b8b4d8b46bf95f",
          "url": "http://files.minecraftforge.net/maven/net/minecraftforge/forge/1.4.7-6.6.1.527/forge-1.4.7-6.6.1.527-universal.zip",
          "size": 1770314
        }
      }
    }
  ],
  "requires": [
    {
      "uid": "net.minecraft",
      "equals": "1.4.7"
    }
  ]
}