{
  "order": 5,
  "volatile": false,
  "name": "Forge",
  "uid": "net.minecraftforge",
  "version": "6.6.0.505",
  "releaseTime": "2013-01-21T20:03:18",
  "traits": [
    "legacyfml"
  ],
  "jarMods": [
    {
      "name": "net.minecraftforge:forge:1.4.7-6.6.0.505:universal",
      "downloads": {
        "artifact": {
          "sha1": "039029b9d3c5bca4459a2133d48488763b435391",
          "url": "http://files.minecraftforge.net/maven/net/minecraftforge/forge/1.4.7-6.6.0.505/forge-1.4.7-6.6.0.505-universal.zip",
          "size": 1755366
        }
      }
    }
  ],
  "requires": [
    {
      "uid": "net.minecraft",
      "equals": "1.4.7"
    }
  ]
}