{
  "order": 5,
  "volatile": false,
  "name": "Forge",
  "uid": "net.minecraftforge",
  "version": "7.7.1.627",
  "releaseTime": "2013-04-03T03:17:22",
  "traits": [
    "legacyfml"
  ],
  "jarMods": [
    {
      "name": "net.minecraftforge:forge:1.5.1-7.7.1.627:universal",
      "downloads": {
        "artifact": {
          "sha1": "887556c1ee0c9cec4447ed38a4abf09858266aaa",
          "url": "http://files.minecraftforge.net/maven/net/minecraftforge/forge/1.5.1-7.7.1.627/forge-1.5.1-7.7.1.627-universal.zip",
          "size": 1845607
        }
      }
    }
  ],
  "requires": [
    {
      "uid": "net.minecraft",
      "equals": "1.5.1"
    }
  ]
}