{
  "order": 5,
  "volatile": false,
  "name": "Forge",
  "uid": "net.minecraftforge",
  "version": "7.7.0.572",
  "releaseTime": "2013-03-12T19:11:22",
  "traits": [
    "legacyfml"
  ],
  "jarMods": [
    {
      "name": "net.minecraftforge:forge:1.5-7.7.0.572:universal",
      "downloads": {
        "artifact": {
          "sha1": "5421a1e7613ec0c54dfe29fe78747dd4c3ed4ded",
          "url": "http://files.minecraftforge.net/maven/net/minecraftforge/forge/1.5-7.7.0.572/forge-1.5-7.7.0.572-universal.zip",
          "size": 1802718
        }
      }
    }
  ],
  "requires": [
    {
      "uid": "net.minecraft",
      "equals": "1.5"
    }
  ]
}