{
  "order": 5,
  "volatile": false,
  "name": "Forge",
  "uid": "net.minecraftforge",
  "version": "7.7.1.634",
  "releaseTime": "2013-04-04T19:45:34",
  "traits": [
    "legacyfml"
  ],
  "jarMods": [
    {
      "name": "net.minecraftforge:forge:1.5.1-7.7.1.634:universal",
      "downloads": {
        "artifact": {
          "sha1": "19d4a565a3a3fa307d1a7691a18f15b7053ec9c3",
          "url": "http://files.minecraftforge.net/maven/net/minecraftforge/forge/1.5.1-7.7.1.634/forge-1.5.1-7.7.1.634-universal.zip",
          "size": 1862442
        }
      }
    }
  ],
  "requires": [
    {
      "uid": "net.minecraft",
      "equals": "1.5.1"
    }
  ]
}