{
  "order": 5,
  "volatile": false,
  "name": "Forge",
  "uid": "net.minecraftforge",
  "version": "7.7.0.594",
  "releaseTime": "2013-03-18T06:19:08",
  "traits": [
    "legacyfml"
  ],
  "jarMods": [
    {
      "name": "net.minecraftforge:forge:1.5-7.7.0.594:universal",
      "downloads": {
        "artifact": {
          "sha1": "05dcca538da1ba41ac5e59e74eb862121cb5be88",
          "url": "http://files.minecraftforge.net/maven/net/minecraftforge/forge/1.5-7.7.0.594/forge-1.5-7.7.0.594-universal.zip",
          "size": 1810025
        }
      }
    }
  ],
  "requires": [
    {
      "uid": "net.minecraft",
      "equals": "1.5"
    }
  ]
}