{
  "order": 5,
  "volatile": false,
  "name": "Forge",
  "uid": "net.minecraftforge",
  "version": "7.7.0.577",
  "releaseTime": "2013-03-13T12:57:32",
  "traits": [
    "legacyfml"
  ],
  "jarMods": [
    {
      "name": "net.minecraftforge:forge:1.5-7.7.0.577:universal",
      "downloads": {
        "artifact": {
          "sha1": "ff91a570c54f10922727007f1d89e83f73210d79",
          "url": "http://files.minecraftforge.net/maven/net/minecraftforge/forge/1.5-7.7.0.577/forge-1.5-7.7.0.577-universal.zip",
          "size": 1801735
        }
      }
    }
  ],
  "requires": [
    {
      "uid": "net.minecraft",
      "equals": "1.5"
    }
  ]
}