{
  "order": 5,
  "volatile": false,
  "name": "Forge",
  "uid": "net.minecraftforge",
  "version": "7.7.0.588",
  "releaseTime": "2013-03-16T12:35:28",
  "traits": [
    "legacyfml"
  ],
  "jarMods": [
    {
      "name": "net.minecraftforge:forge:1.5-7.7.0.588:universal",
      "downloads": {
        "artifact": {
          "sha1": "9fbe0dbdf36173a5c2d873790148c533957af2c1",
          "url": "http://files.minecraftforge.net/maven/net/minecraftforge/forge/1.5-7.7.0.588/forge-1.5-7.7.0.588-universal.zip",
          "size": 1802499
        }
      }
    }
  ],
  "requires": [
    {
      "uid": "net.minecraft",
      "equals": "1.5"
    }
  ]
}