{
  "order": 5,
  "volatile": false,
  "name": "Forge",
  "uid": "net.minecraftforge",
  "version": "7.7.0.567",
  "releaseTime": "2013-03-11T14:42:34",
  "traits": [
    "legacyfml"
  ],
  "jarMods": [
    {
      "name": "net.minecraftforge:forge:1.5-7.7.0.567:universal",
      "downloads": {
        "artifact": {
          "sha1": "85d19c0406314b6a1c931b905c8abd991342af53",
          "url": "http://files.minecraftforge.net/maven/net/minecraftforge/forge/1.5-7.7.0.567/forge-1.5-7.7.0.567-universal.zip",
          "size": 1802207
        }
      }
    }
  ],
  "requires": [
    {
      "uid": "net.minecraft",
      "equals": "1.5"
    }
  ]
}