{
  "order": 5,
  "volatile": false,
  "name": "Forge",
  "uid": "net.minecraftforge",
  "version": "7.7.0.583",
  "releaseTime": "2013-03-14T14:06:14",
  "traits": [
    "legacyfml"
  ],
  "jarMods": [
    {
      "name": "net.minecraftforge:forge:1.5-7.7.0.583:universal",
      "downloads": {
        "artifact": {
          "sha1": "2cbe8b97154514dbdda74c96118672356596c59c",
          "url": "http://files.minecraftforge.net/maven/net/minecraftforge/forge/1.5-7.7.0.583/forge-1.5-7.7.0.583-universal.zip",
          "size": 1802447
        }
      }
    }
  ],
  "requires": [
    {
      "uid": "net.minecraft",
      "equals": "1.5"
    }
  ]
}