{
  "order": 5,
  "volatile": false,
  "name": "Forge",
  "uid": "net.minecraftforge",
  "version": "7.7.1.642",
  "releaseTime": "2013-04-09T19:28:00",
  "traits": [
    "legacyfml"
  ],
  "jarMods": [
    {
      "name": "net.minecraftforge:forge:1.5.1-7.7.1.642:universal",
      "downloads": {
        "artifact": {
          "sha1": "d5ba1d70d59d8a8b7840ce4dab9ae70c5a63de31",
          "url": "http://files.minecraftforge.net/maven/net/minecraftforge/forge/1.5.1-7.7.1.642/forge-1.5.1-7.7.1.642-universal.zip",
          "size": 1871955
        }
      }
    }
  ],
  "requires": [
    {
      "uid": "net.minecraft",
      "equals": "1.5.1"
    }
  ]
}