{
  "order": 5,
  "volatile": false,
  "name": "Forge",
  "uid": "net.minecraftforge",
  "version": "7.7.1.622",
  "releaseTime": "2013-03-30T10:26:26",
  "traits": [
    "legacyfml"
  ],
  "jarMods": [
    {
      "name": "net.minecraftforge:forge:1.5.1-7.7.1.622:universal",
      "downloads": {
        "artifact": {
          "sha1": "aa86d940795a19314a97225bfcfa58ad5f466384",
          "url": "http://files.minecraftforge.net/maven/net/minecraftforge/forge/1.5.1-7.7.1.622/forge-1.5.1-7.7.1.622-universal.zip",
          "size": 1842514
        }
      }
    }
  ],
  "requires": [
    {
      "uid": "net.minecraft",
      "equals": "1.5.1"
    }
  ]
}