{
  "order": 5,
  "volatile": false,
  "name": "Forge",
  "uid": "net.minecraftforge",
  "version": "7.7.1.637",
  "releaseTime": "2013-04-05T00:44:22",
  "traits": [
    "legacyfml"
  ],
  "jarMods": [
    {
      "name": "net.minecraftforge:forge:1.5.1-7.7.1.637:universal",
      "downloads": {
        "artifact": {
          "sha1": "63e4e9126f9db7d938d5172d9cd892f9e8570b71",
          "url": "http://files.minecraftforge.net/maven/net/minecraftforge/forge/1.5.1-7.7.1.637/forge-1.5.1-7.7.1.637-universal.zip",
          "size": 1864839
        }
      }
    }
  ],
  "requires": [
    {
      "uid": "net.minecraft",
      "equals": "1.5.1"
    }
  ]
}