{
  "order": 5,
  "volatile": false,
  "name": "Forge",
  "uid": "net.minecraftforge",
  "version": "7.7.0.590",
  "releaseTime": "2013-03-16T23:21:04",
  "traits": [
    "legacyfml"
  ],
  "jarMods": [
    {
      "name": "net.minecraftforge:forge:1.5-7.7.0.590:universal",
      "downloads": {
        "artifact": {
          "sha1": "3c5c525447f98d3abeeceab5b68e3318273c25a8",
          "url": "http://files.minecraftforge.net/maven/net/minecraftforge/forge/1.5-7.7.0.590/forge-1.5-7.7.0.590-universal.zip",
          "size": 1806206
        }
      }
    }
  ],
  "requires": [
    {
      "uid": "net.minecraft",
      "equals": "1.5"
    }
  ]
}