{
  "order": 5,
  "volatile": false,
  "name": "Forge",
  "uid": "net.minecraftforge",
  "version": "7.7.1.647",
  "releaseTime": "2013-04-10T17:01:26",
  "traits": [
    "legacyfml"
  ],
  "jarMods": [
    {
      "name": "net.minecraftforge:forge:1.5.1-7.7.1.647:universal",
      "downloads": {
        "artifact": {
          "sha1": "563345cc96844f8005374f64dae2dc78d989e43a",
          "url": "http://files.minecraftforge.net/maven/net/minecraftforge/forge/1.5.1-7.7.1.647/forge-1.5.1-7.7.1.647-universal.zip",
          "size": 1889074
        }
      }
    }
  ],
  "requires": [
    {
      "uid": "net.minecraft",
      "equals": "1.5.1"
    }
  ]
}