{
  "order": 5,
  "volatile": false,
  "name": "Forge",
  "uid": "net.minecraftforge",
  "version": "7.7.0.582",
  "releaseTime": "2013-03-13T14:20:52",
  "traits": [
    "legacyfml"
  ],
  "jarMods": [
    {
      "name": "net.minecraftforge:forge:1.5-7.7.0.582:universal",
      "downloads": {
        "artifact": {
          "sha1": "d38d55e839820418b8597a4c20a27926094da29a",
          "url": "http://files.minecraftforge.net/maven/net/minecraftforge/forge/1.5-7.7.0.582/forge-1.5-7.7.0.582-universal.zip",
          "size": 1802412
        }
      }
    }
  ],
  "requires": [
    {
      "uid": "net.minecraft",
      "equals": "1.5"
    }
  ]
}