{
  "order": 5,
  "volatile": false,
  "name": "Forge",
  "uid": "net.minecraftforge",
  "version": "7.7.2.678",
  "releaseTime": "2013-04-28T15:27:56",
  "traits": [
    "legacyfml"
  ],
  "jarMods": [
    {
      "name": "net.minecraftforge:forge:1.5.1-7.7.2.678:universal",
      "downloads": {
        "artifact": {
          "sha1": "01bc4839acb7b32a5214906d5f7c1612da1fd5f4",
          "url": "http://files.minecraftforge.net/maven/net/minecraftforge/forge/1.5.1-7.7.2.678/forge-1.5.1-7.7.2.678-universal.zip",
          "size": 1973777
        }
      }
    }
  ],
  "requires": [
    {
      "uid": "net.minecraft",
      "equals": "1.5.1"
    }
  ]
}