{
  "order": 5,
  "volatile": false,
  "name": "Forge",
  "uid": "net.minecraftforge",
  "version": "7.7.1.654",
  "releaseTime": "2013-04-15T11:24:44",
  "traits": [
    "legacyfml"
  ],
  "jarMods": [
    {
      "name": "net.minecraftforge:forge:1.5.1-7.7.1.654:universal",
      "downloads": {
        "artifact": {
          "sha1": "79952eda8d6f6350f8d9dbfb775b9f3c9f7a6b45",
          "url": "http://files.minecraftforge.net/maven/net/minecraftforge/forge/1.5.1-7.7.1.654/forge-1.5.1-7.7.1.654-universal.zip",
          "size": 1901953
        }
      }
    }
  ],
  "requires": [
    {
      "uid": "net.minecraft",
      "equals": "1.5.1"
    }
  ]
}