{
  "order": 5,
  "volatile": false,
  "name": "Forge",
  "uid": "net.minecraftforge",
  "version": "7.7.1.660",
  "releaseTime": "2013-04-18T15:28:58",
  "traits": [
    "legacyfml"
  ],
  "jarMods": [
    {
      "name": "net.minecraftforge:forge:1.5.1-7.7.1.660:universal",
      "downloads": {
        "artifact": {
          "sha1": "ff188d20471985d2f2e5fd73859271ad0ed6d519",
          "url": "http://files.minecraftforge.net/maven/net/minecraftforge/forge/1.5.1-7.7.1.660/forge-1.5.1-7.7.1.660-universal.zip",
          "size": 1903328
        }
      }
    }
  ],
  "requires": [
    {
      "uid": "net.minecraft",
      "equals": "1.5.1"
    }
  ]
}