{
  "order": 5,
  "volatile": false,
  "name": "Forge",
  "uid": "net.minecraftforge",
  "version": "7.7.0.574",
  "releaseTime": "2013-03-12T19:48:20",
  "traits": [
    "legacyfml"
  ],
  "jarMods": [
    {
      "name": "net.minecraftforge:forge:1.5-7.7.0.574:universal",
      "downloads": {
        "artifact": {
          "sha1": "970862c9cbd70b7e31b52426ddd0cf948c9a9ce8",
          "url": "http://files.minecraftforge.net/maven/net/minecraftforge/forge/1.5-7.7.0.574/forge-1.5-7.7.0.574-universal.zip",
          "size": 1803367
        }
      }
    }
  ],
  "requires": [
    {
      "uid": "net.minecraft",
      "equals": "1.5"
    }
  ]
}