{
  "order": 5,
  "volatile": false,
  "name": "Forge",
  "uid": "net.minecraftforge",
  "version": "7.7.1.624",
  "releaseTime": "2013-03-31T08:34:44",
  "traits": [
    "legacyfml"
  ],
  "jarMods": [
    {
      "name": "net.minecraftforge:forge:1.5.1-7.7.1.624:universal",
      "downloads": {
        "artifact": {
          "sha1": "20aedfa6e7d255f99adfadf9f345c3ab9aa5a521",
          "url": "http://files.minecraftforge.net/maven/net/minecraftforge/forge/1.5.1-7.7.1.624/forge-1.5.1-7.7.1.624-universal.zip",
          "size": 1841511
        }
      }
    }
  ],
  "requires": [
    {
      "uid": "net.minecraft",
      "equals": "1.5.1"
    }
  ]
}