{
  "order": 5,
  "volatile": false,
  "name": "Forge",
  "uid": "net.minecraftforge",
  "version": "7.7.1.629",
  "releaseTime": "2013-04-03T05:16:26",
  "traits": [
    "legacyfml"
  ],
  "jarMods": [
    {
      "name": "net.minecraftforge:forge:1.5.1-7.7.1.629:universal",
      "downloads": {
        "artifact": {
          "sha1": "d3aa64bfdacbda1048ccaa9f5238f1f541528ad4",
          "url": "http://files.minecraftforge.net/maven/net/minecraftforge/forge/1.5.1-7.7.1.629/forge-1.5.1-7.7.1.629-universal.zip",
          "size": 1845744
        }
      }
    }
  ],
  "requires": [
    {
      "uid": "net.minecraft",
      "equals": "1.5.1"
    }
  ]
}