{
  "order": 5,
  "volatile": false,
  "name": "Forge",
  "uid": "net.minecraftforge",
  "version": "7.7.1.632",
  "releaseTime": "2013-04-04T19:04:58",
  "traits": [
    "legacyfml"
  ],
  "jarMods": [
    {
      "name": "net.minecraftforge:forge:1.5.1-7.7.1.632:universal",
      "downloads": {
        "artifact": {
          "sha1": "315204071999b6f5b71ddc7e146a00462e68f2af",
          "url": "http://files.minecraftforge.net/maven/net/minecraftforge/forge/1.5.1-7.7.1.632/forge-1.5.1-7.7.1.632-universal.zip",
          "size": 1852106
        }
      }
    }
  ],
  "requires": [
    {
      "uid": "net.minecraft",
      "equals": "1.5.1"
    }
  ]
}