{
  "order": 5,
  "volatile": false,
  "name": "Forge",
  "uid": "net.minecraftforge",
  "version": "7.7.1.659",
  "releaseTime": "2013-04-17T20:27:52",
  "traits": [
    "legacyfml"
  ],
  "jarMods": [
    {
      "name": "net.minecraftforge:forge:1.5.1-7.7.1.659:universal",
      "downloads": {
        "artifact": {
          "sha1": "0318a86dafe9b34f17d469f4db59254370e53d16",
          "url": "http://files.minecraftforge.net/maven/net/minecraftforge/forge/1.5.1-7.7.1.659/forge-1.5.1-7.7.1.659-universal.zip",
          "size": 1903124
        }
      }
    }
  ],
  "requires": [
    {
      "uid": "net.minecraft",
      "equals": "1.5.1"
    }
  ]
}