{
  "order": 5,
  "volatile": false,
  "name": "Forge",
  "uid": "net.minecraftforge",
  "version": "7.8.0.733",
  "releaseTime": "2013-06-10T15:06:34",
  "traits": [
    "legacyfml"
  ],
  "jarMods": [
    {
      "name": "net.minecraftforge:forge:1.5.2-7.8.0.733:universal",
      "downloads": {
        "artifact": {
          "sha1": "b15e7357fc4cd580df113b31b01d2ab096322eb2",
          "url": "http://files.minecraftforge.net/maven/net/minecraftforge/forge/1.5.2-7.8.0.733/forge-1.5.2-7.8.0.733-universal.zip",
          "size": 2030486
        }
      }
    }
  ],
  "requires": [
    {
      "uid": "net.minecraft",
      "equals": "1.5.2"
    }
  ]
}