{
  "order": 5,
  "volatile": false,
  "name": "Forge",
  "uid": "net.minecraftforge",
  "version": "7.8.0.695",
  "releaseTime": "2013-05-11T12:05:32",
  "traits": [
    "legacyfml"
  ],
  "jarMods": [
    {
      "name": "net.minecraftforge:forge:1.5.2-7.8.0.695:universal",
      "downloads": {
        "artifact": {
          "sha1": "df03ea2882aba13d16a806a25c487b0b63d80e12",
          "url": "http://files.minecraftforge.net/maven/net/minecraftforge/forge/1.5.2-7.8.0.695/forge-1.5.2-7.8.0.695-universal.zip",
          "size": 1998522
        }
      }
    }
  ],
  "requires": [
    {
      "uid": "net.minecraft",
      "equals": "1.5.2"
    }
  ]
}