{
  "order": 5,
  "volatile": false,
  "name": "Forge",
  "uid": "net.minecraftforge",
  "version": "7.8.0.708",
  "releaseTime": "2013-05-21T09:10:24",
  "traits": [
    "legacyfml"
  ],
  "jarMods": [
    {
      "name": "net.minecraftforge:forge:1.5.2-7.8.0.708:universal",
      "downloads": {
        "artifact": {
          "sha1": "ed6c6e9bb5b8b3ab7d6281717ef67359d687c326",
          "url": "http://files.minecraftforge.net/maven/net/minecraftforge/forge/1.5.2-7.8.0.708/forge-1.5.2-7.8.0.708-universal.zip",
          "size": 2008476
        }
      }
    }
  ],
  "requires": [
    {
      "uid": "net.minecraft",
      "equals": "1.5.2"
    }
  ]
}