{
  "order": 5,
  "volatile": false,
  "name": "Forge",
  "uid": "net.minecraftforge",
  "version": "7.8.0.730",
  "releaseTime": "2013-06-10T02:45:26",
  "traits": [
    "legacyfml"
  ],
  "jarMods": [
    {
      "name": "net.minecraftforge:forge:1.5.2-7.8.0.730:universal",
      "downloads": {
        "artifact": {
          "sha1": "f75107ac5491862f90d446d955d064350b9ec2e3",
          "url": "http://files.minecraftforge.net/maven/net/minecraftforge/forge/1.5.2-7.8.0.730/forge-1.5.2-7.8.0.730-universal.zip",
          "size": 1971321
        }
      }
    }
  ],
  "requires": [
    {
      "uid": "net.minecraft",
      "equals": "1.5.2"
    }
  ]
}