{
  "order": 5,
  "volatile": false,
  "name": "Forge",
  "uid": "net.minecraftforge",
  "version": "7.8.0.684",
  "releaseTime": "2013-05-02T10:24:50",
  "traits": [
    "legacyfml"
  ],
  "jarMods": [
    {
      "name": "net.minecraftforge:forge:1.5.2-7.8.0.684:universal",
      "downloads": {
        "artifact": {
          "sha1": "90c15460f12138f90d0ebe23cc32aaf589b3cf1f",
          "url": "http://files.minecraftforge.net/maven/net/minecraftforge/forge/1.5.2-7.8.0.684/forge-1.5.2-7.8.0.684-universal.zip",
          "size": 1975130
        }
      }
    }
  ],
  "requires": [
    {
      "uid": "net.minecraft",
      "equals": "1.5.2"
    }
  ]
}