{
  "order": 5,
  "volatile": false,
  "name": "Forge",
  "uid": "net.minecraftforge",
  "version": "7.8.0.712",
  "releaseTime": "2013-05-23T23:31:14",
  "traits": [
    "legacyfml"
  ],
  "jarMods": [
    {
      "name": "net.minecraftforge:forge:1.5.2-7.8.0.712:universal",
      "downloads": {
        "artifact": {
          "sha1": "228c0999c5a224d8290e29823c4dd31b5679866b",
          "url": "http://files.minecraftforge.net/maven/net/minecraftforge/forge/1.5.2-7.8.0.712/forge-1.5.2-7.8.0.712-universal.zip",
          "size": 2014600
        }
      }
    }
  ],
  "requires": [
    {
      "uid": "net.minecraft",
      "equals": "1.5.2"
    }
  ]
}