{
  "order": 5,
  "volatile": false,
  "name": "Forge",
  "uid": "net.minecraftforge",
  "version": "7.8.0.711",
  "releaseTime": "2013-05-23T23:14:24",
  "traits": [
    "legacyfml"
  ],
  "jarMods": [
    {
      "name": "net.minecraftforge:forge:1.5.2-7.8.0.711:universal",
      "downloads": {
        "artifact": {
          "sha1": "c78c3775b880b2b45e8b6b14769da6d2b4748037",
          "url": "http://files.minecraftforge.net/maven/net/minecraftforge/forge/1.5.2-7.8.0.711/forge-1.5.2-7.8.0.711-universal.zip",
          "size": 2014309
        }
      }
    }
  ],
  "requires": [
    {
      "uid": "net.minecraft",
      "equals": "1.5.2"
    }
  ]
}