{
  "order": 5,
  "volatile": false,
  "name": "Forge",
  "uid": "net.minecraftforge",
  "version": "7.8.0.706",
  "releaseTime": "2013-05-20T19:58:56",
  "traits": [
    "legacyfml"
  ],
  "jarMods": [
    {
      "name": "net.minecraftforge:forge:1.5.2-7.8.0.706:universal",
      "downloads": {
        "artifact": {
          "sha1": "3c12441da278d3cd993afd3822585797a5d788cc",
          "url": "http://files.minecraftforge.net/maven/net/minecraftforge/forge/1.5.2-7.8.0.706/forge-1.5.2-7.8.0.706-universal.zip",
          "size": 2008262
        }
      }
    }
  ],
  "requires": [
    {
      "uid": "net.minecraft",
      "equals": "1.5.2"
    }
  ]
}