{
  "order": 5,
  "volatile": false,
  "name": "Forge",
  "uid": "net.minecraftforge",
  "version": "7.8.0.722",
  "releaseTime": "2013-06-03T13:30:32",
  "traits": [
    "legacyfml"
  ],
  "jarMods": [
    {
      "name": "net.minecraftforge:forge:1.5.2-7.8.0.722:universal",
      "downloads": {
        "artifact": {
          "sha1": "573149c42a161efbe95627850629c801c9107e83",
          "url": "http://files.minecraftforge.net/maven/net/minecraftforge/forge/1.5.2-7.8.0.722/forge-1.5.2-7.8.0.722-universal.zip",
          "size": 1970177
        }
      }
    }
  ],
  "requires": [
    {
      "uid": "net.minecraft",
      "equals": "1.5.2"
    }
  ]
}