{
  "order": 5,
  "volatile": false,
  "name": "Forge",
  "uid": "net.minecraftforge",
  "version": "7.8.0.691",
  "releaseTime": "2013-05-09T02:10:34",
  "traits": [
    "legacyfml"
  ],
  "jarMods": [
    {
      "name": "net.minecraftforge:forge:1.5.2-7.8.0.691:universal",
      "downloads": {
        "artifact": {
          "sha1": "d26816531b8a602b1017fc12c5751b3f0c898f91",
          "url": "http://files.minecraftforge.net/maven/net/minecraftforge/forge/1.5.2-7.8.0.691/forge-1.5.2-7.8.0.691-universal.zip",
          "size": 1996885
        }
      }
    }
  ],
  "requires": [
    {
      "uid": "net.minecraft",
      "equals": "1.5.2"
    }
  ]
}