{
  "order": 5,
  "volatile": false,
  "name": "Forge",
  "uid": "net.minecraftforge",
  "version": "7.8.0.697",
  "releaseTime": "2013-05-13T21:40:24",
  "traits": [
    "legacyfml"
  ],
  "jarMods": [
    {
      "name": "net.minecraftforge:forge:1.5.2-7.8.0.697:universal",
      "downloads": {
        "artifact": {
          "sha1": "a67ec8dab25c86822284b73b9be0d895548191bb",
          "url": "http://files.minecraftforge.net/maven/net/minecraftforge/forge/1.5.2-7.8.0.697/forge-1.5.2-7.8.0.697-universal.zip",
          "size": 2001775
        }
      }
    }
  ],
  "requires": [
    {
      "uid": "net.minecraft",
      "equals": "1.5.2"
    }
  ]
}