{
  "order": 5,
  "volatile": false,
  "name": "Forge",
  "uid": "net.minecraftforge",
  "version": "9.10.0.784",
  "releaseTime": "1960-01-01T00:00:00-0700",
  "mainClass": "net.minecraft.launchwrapper.Launch",
  "tweakers": [
    "cpw.mods.fml.common.launcher.FMLTweaker"
  ],
  "libraries": [
    {
      "url": "http://files.minecraftforge.net/maven/",
      "name": "net.minecraftforge:forge:1.6.2-9.10.0.784:universal"
    },
    {
      "name": "net.minecraft:launchwrapper:1.3"
    },
    {
      "url": "http://files.minecraftforge.net/maven/",
      "mmcHint": "forge-pack-xz",
      "name": "org.scala-lang:scala-library:2.10.2"
    },
    {
      "url": "http://files.minecraftforge.net/maven/",
      "mmcHint": "forge-pack-xz",
      "name": "org.scala-lang:scala-compiler:2.10.2"
    },
    {
      "name": "org.ow2.asm:asm-all:4.1"
    },
    {
      "name": "lzma:lzma:0.0.1"
    }
  ],
  "requires": [
    {
      "uid": "net.minecraft",
      "equals": "1.6.2"
    }
  ]
}