{
  "order": 0,
  "volatile": true,
  "name": "LWJGL 2",
  "uid": "org.lwjgl",
  "version": "2.9.1",
  "type": "release",
  "releaseTime": "2014-02-26T09:22:17+00:00",
  "libraries": [
    {
      "name": "org.lwjgl.lwjgl:lwjgl:2.9.1",
      "downloads": {
        "artifact": {
          "sha1": "f58c5aabcef0e41718a564be9f8e412fff8db847",
          "url": "https://libraries.minecraft.net/org/lwjgl/lwjgl/lwjgl/2.9.1/lwjgl-2.9.1.jar",
          "size": 1014790
        }
      }
    },
    {
      "name": "org.lwjgl.lwjgl:lwjgl_util:2.9.1",
      "downloads": {
        "artifact": {
          "sha1": "290d7ba8a1bd9566f5ddf16ad06f09af5ec9b20e",
          "url": "https://libraries.minecraft.net/org/lwjgl/lwjgl/lwjgl_util/2.9.1/lwjgl_util-2.9.1.jar",
          "size": 173909
        }
      }
    },
    {
      "name": "org.lwjgl.lwjgl:lwjgl-platform:2.9.1",
      "extract": {
        "exclude": [
          "META-INF/"
        ]
      },
      "downloads": {
        "classifiers": {
          "natives-linux": {
            "sha1": "aa9aae879af8eb378e22cfc64db56ec2ca9a44d1",
            "url": "https://libraries.minecraft.net/org/lwjgl/lwjgl/lwjgl-platform/2.9.1/lwjgl-platform-2.9.1-natives-linux.jar",
            "size": 571424
          },
          "natives-osx": {
            "sha1": "2d12c83fdfbc04ecabf02c7bc8cc54d034f0daac",
            "url": "https://libraries.minecraft.net/org/lwjgl/lwjgl/lwjgl-platform/2.9.1/lwjgl-platform-2.9.1-natives-osx.jar",
            "size": 527196
          },
          "natives-windows": {
            "sha1": "4c517eca808522457dd95ee8fc1fbcdbb602efbe",
            "url": "https://libraries.minecraft.net/org/lwjgl/lwjgl/lwjgl-platform/2.9.1/lwjgl-platform-2.9.1-natives-windows.jar",
            "size": 611334
          }
        }
      },
      "natives": {
        "linux": "natives-linux",
        "osx": "natives-osx",
        "windows": "natives-windows"
      }
    },
    {
      "name": "net.java.jinput:jinput:2.0.5",
      "downloads": {
        "artifact": {
          "sha1": "39c7796b469a600f72380316f6b1f11db6c2c7c4",
          "url": "https://libraries.minecraft.net/net/java/jinput/jinput/2.0.5/jinput-2.0.5.jar",
          "size": 208338
        }
      }
    },
    {
      "name": "net.java.jutils:jutils:1.0.0",
      "downloads": {
        "artifact": {
          "sha1": "e12fe1fda814bd348c1579329c86943d2cd3c6a6",
          "url": "https://libraries.minecraft.net/net/java/jutils/jutils/1.0.0/jutils-1.0.0.jar",
          "size": 7508
        }
      }
    },
    {
      "name": "net.java.jinput:jinput-platform:2.0.5",
      "extract": {
        "exclude": [
          "META-INF/"
        ]
      },
      "downloads": {
        "classifiers": {
          "natives-linux": {
            "sha1": "7ff832a6eb9ab6a767f1ade2b548092d0fa64795",
            "url": "https://libraries.minecraft.net/net/java/jinput/jinput-platform/2.0.5/jinput-platform-2.0.5-natives-linux.jar",
            "size": 10362
          },
          "natives-osx": {
            "sha1": "53f9c919f34d2ca9de8c51fc4e1e8282029a9232",
            "url": "https://libraries.minecraft.net/net/java/jinput/jinput-platform/2.0.5/jinput-platform-2.0.5-natives-osx.jar",
            "size": 12186
          },
          "natives-windows": {
            "sha1": "385ee093e01f587f30ee1c8a2ee7d408fd732e16",
            "url": "https://libraries.minecraft.net/net/java/jinput/jinput-platform/2.0.5/jinput-platform-2.0.5-natives-windows.jar",
            "size": 155179
          }
        }
      },
      "natives": {
        "linux": "natives-linux",
        "osx": "natives-osx",
        "windows": "natives-windows"
      }
    }
  ],
  "conflicts": [
    {
      "uid": "org.lwjgl3"
    }
  ]
}