{
  "order": 10,
  "volatile": false,
  "name": "LiteLoader",
  "uid": "com.mumfrey.liteloader",
  "version": "1.12.2-SNAPSHOT",
  "type": "snapshot",
  "releaseTime": "2017-11-28T09:44:31-0500",
  "mainClass": "net.minecraft.launchwrapper.Launch",
  "tweakers": [
    "com.mumfrey.liteloader.launch.LiteLoaderTweaker"
  ],
  "libraries": [
    {
      "name": "net.minecraft:launchwrapper:1.12"
    },
    {
      "url": "http://repo.liteloader.com/",
      "name": "org.ow2.asm:asm-all:5.2"
    },
    {
      "url": "http://dl.liteloader.com/versions/",
      "name": "com.mumfrey:liteloader:1.12.2-SNAPSHOT"
    }
  ],
  "requires": [
    {
      "uid": "net.minecraft",
      "equals": "1.12.2"
    }
  ]
}