{
  "order": 10,
  "volatile": false,
  "name": "LiteLoader",
  "uid": "com.mumfrey.liteloader",
  "version": "1.12-SNAPSHOT",
  "type": "snapshot",
  "releaseTime": "2017-09-04T12:46:25-0400",
  "mainClass": "net.minecraft.launchwrapper.Launch",
  "tweakers": [
    "com.mumfrey.liteloader.launch.LiteLoaderTweaker"
  ],
  "libraries": [
    {
      "name": "net.minecraft:launchwrapper:1.12"
    },
    {
      "url": "http://repo.maven.apache.org/maven2/",
      "name": "org.ow2.asm:asm-all:5.0.3"
    },
    {
      "url": "http://dl.liteloader.com/versions/",
      "name": "com.mumfrey:liteloader:1.12-SNAPSHOT"
    }
  ],
  "requires": [
    {
      "uid": "net.minecraft",
      "equals": "1.12"
    }
  ]
}