{
  "order": 10,
  "volatile": false,
  "name": "LiteLoader",
  "uid": "com.mumfrey.liteloader",
  "version": "1.6.2_04",
  "type": "snapshot",
  "releaseTime": "2013-08-04T20:24:58-0400",
  "mainClass": "net.minecraft.launchwrapper.Launch",
  "tweakers": [
    "com.mumfrey.liteloader.launch.LiteLoaderTweaker"
  ],
  "libraries": [
    {
      "name": "net.minecraft:launchwrapper:1.3"
    },
    {
      "url": "http://dl.liteloader.com/versions/",
      "name": "com.mumfrey:liteloader:1.6.2_04"
    }
  ],
  "requires": [
    {
      "uid": "net.minecraft",
      "equals": "1.6.2"
    }
  ]
}