{
  "order": 10,
  "volatile": false,
  "name": "LiteLoader",
  "uid": "com.mumfrey.liteloader",
  "version": "1.7.10_01",
  "type": "snapshot",
  "releaseTime": "2014-07-06T15:09:45-0400",
  "mainClass": "net.minecraft.launchwrapper.Launch",
  "tweakers": [
    "com.mumfrey.liteloader.launch.LiteLoaderTweaker"
  ],
  "libraries": [
    {
      "name": "net.minecraft:launchwrapper:1.9"
    },
    {
      "name": "org.ow2.asm:asm-all:4.1"
    },
    {
      "url": "http://dl.liteloader.com/versions/",
      "name": "com.mumfrey:liteloader:1.7.10_01"
    }
  ],
  "requires": [
    {
      "uid": "net.minecraft",
      "equals": "1.7.10"
    }
  ]
}