{
  "name": "LiteLoader",
  "uid": "com.mumfrey.liteloader",
  "versions": [
    {
      "version": "1.10-SNAPSHOT",
      "type": "snapshot",
      "releaseTime": "2016-07-28T04:42:26-0400",
      "sha256": "77083a1eeda30d7133609bb53ba00651fde99aa18cbb40f9fded9fa726b27a50",
      "requires": [
        {
          "uid": "net.minecraft",
          "equals": "1.10"
        }
      ]
    },
    {
      "version": "1.10.2",
      "type": "snapshot",
      "releaseTime": "2016-11-18T07:52:50-0500",
      "sha256": "0b07dfed43e74d64b6cabc584593e6a47d1a6d4f3c4f396a1e0fd4fafea223ec",
      "recommended": true,
      "requires": [
        {
          "uid": "net.minecraft",
          "equals": "1.10.2"
        }
      ]
    },
    {
      "version": "1.10.2-SNAPSHOT",
      "type": "snapshot",
      "releaseTime": "2017-02-01T17:13:03-0500",
      "sha256": "eee4128f249753339b607516321ef12ecf8cb327211aeb1965494d5342ee0c78",
      "requires": [
        {
          "uid": "net.minecraft",
          "equals": "1.10.2"
        }
      ]
    },
    {
      "version": "1.11-SNAPSHOT",
      "type": "snapshot",
      "releaseTime": "2017-08-14T06:08:41-0400",
      "sha256": "e3eda2b7071d7c130ee6668a0074f74673288cc09490fda51636e4448b407e07",
      "requires": [
        {
          "uid": "net.minecraft",
          "equals": "1.11"
        }
      ]
    },
    {
      "version": "1.11.2-SNAPSHOT",
      "type": "snapshot",
      "releaseTime": "2017-09-04T12:43:10-0400",
      "sha256": "a99288d84f0eae6e8d4270bb9c2507c66b3baacf04a64c395c5a29c646a3f7a9",
      "requires": [
        {
          "uid": "net.minecraft",
          "equals": "1.11.2"
        }
      ]
    },
    {
      "version": "1.12-SNAPSHOT",
      "type": "snapshot",
      "releaseTime": "2017-09-04T12:46:25-0400",
      "sha256": "81a394a5542fda27576f17fa60c399fbd86c353b5544690217562b89b532135e",
      "requires": [
        {
          "uid": "net.minecraft",
          "equals": "1.12"
        }
      ]
    },
    {
      "version": "1.12.1-SNAPSHOT",
      "type": "snapshot",
      "releaseTime": "2017-09-04T12:49:37-0400",
      "sha256": "c31579d30c2d558bb072ec691a15d2ab09d6239b578590282525055c8031b4c0",
      "requires": [
        {
          "uid": "net.minecraft",
          "equals": "1.12.1"
        }
      ]
    },
    {
      "version": "1.12.2-SNAPSHOT",
      "type": "snapshot",
      "releaseTime": "2017-11-28T09:44:31-0500",
      "sha256": "55eb8c1ea0ba0242e7db029d8e90f0ad45d9b880ef53d67267f0169a5c1be84f",
      "requires": [
        {
          "uid": "net.minecraft",
          "equals": "1.12.2"
        }
      ]
    },
    {
      "version": "1.6.2_04",
      "type": "snapshot",
      "releaseTime": "2013-08-04T20:24:58-0400",
      "sha256": "4098a2fa0aa08eb49c3d48e21c97fb7ce6225db510027a7a02b900a9696b7222",
      "recommended": true,
      "requires": [
        {
          "uid": "net.minecraft",
          "equals": "1.6.2"
        }
      ]
    },
    {
      "version": "1.6.2_01",
      "type": "snapshot",
      "releaseTime": "2013-07-16T21:44:40-0400",
      "sha256": "2b5d0d07db67e6ecb05880e5f0b726f92ade99c829345d208428749e01dcea39",
      "requires": [
        {
          "uid": "net.minecraft",
          "equals": "1.6.2"
        }
      ]
    },
    {
      "version": "1.6.2_02",
      "type": "snapshot",
      "releaseTime": "2013-07-24T19:45:43-0400",
      "sha256": "d2471f66f56cc5b264cf541c6cff2fc1edd7cc93b1b052840d91872cb837fa78",
      "requires": [
        {
          "uid": "net.minecraft",
          "equals": "1.6.2"
        }
      ]
    },
    {
      "version": "1.6.2_03",
      "type": "snapshot",
      "releaseTime": "2013-07-30T19:59:54-0400",
      "sha256": "63b3a8870e5d0a394af4b4e491304b4c97fbd066f6e057c3c63153fe015e3a90",
      "requires": [
        {
          "uid": "net.minecraft",
          "equals": "1.6.2"
        }
      ]
    },
    {
      "version": "1.6.4_01",
      "type": "snapshot",
      "releaseTime": "2013-10-03T06:41:56-0400",
      "sha256": "8d9bf1b20078537c4d230f323515bf014df2f5a71f33c983e1108443397e0c33",
      "recommended": true,
      "requires": [
        {
          "uid": "net.minecraft",
          "equals": "1.6.4"
        }
      ]
    },
    {
      "version": "1.6.4_00",
      "type": "snapshot",
      "releaseTime": "2013-09-27T07:05:38-0400",
      "sha256": "846d3aef110461c9a0c0d25d88ff50c07eac5b8d10c2a7f2fa15a3bd4840e97c",
      "requires": [
        {
          "uid": "net.minecraft",
          "equals": "1.6.4"
        }
      ]
    },
    {
      "version": "1.7.10_04",
      "type": "snapshot",
      "releaseTime": "2014-10-26T20:09:13-0400",
      "sha256": "a5deaa253dc4420068ef1cd3edd6f7e13dd2f31b6855dd97f67cd9497b201562",
      "recommended": true,
      "requires": [
        {
          "uid": "net.minecraft",
          "equals": "1.7.10"
        }
      ]
    },
    {
      "version": "1.7.10_00",
      "type": "snapshot",
      "releaseTime": "2014-07-02T15:40:30-0400",
      "sha256": "17e34eab137c713004208636814d35695b0273128b7204b176601da995085044",
      "requires": [
        {
          "uid": "net.minecraft",
          "equals": "1.7.10"
        }
      ]
    },
    {
      "version": "1.7.10_01",
      "type": "snapshot",
      "releaseTime": "2014-07-06T15:09:45-0400",
      "sha256": "6453c8715da7c2c8d73ca79624e3d3d0c4e783c21b5ca02f2f844f6457e84e19",
      "requires": [
        {
          "uid": "net.minecraft",
          "equals": "1.7.10"
        }
      ]
    },
    {
      "version": "1.7.10_02",
      "type": "snapshot",
      "releaseTime": "2014-07-14T16:23:26-0400",
      "sha256": "688205520d768e657db96ce1afcbb094ea1a16bd284a831f41e37acc9dc1a376",
      "requires": [
        {
          "uid": "net.minecraft",
          "equals": "1.7.10"
        }
      ]
    },
    {
      "version": "1.7.10_03",
      "type": "snapshot",
      "releaseTime": "2014-08-10T12:25:18-0400",
      "sha256": "57dcc7f61acc0214ea38d6627c247012595ed0f85222f49109edbe4bb89d4b5c",
      "requires": [
        {
          "uid": "net.minecraft",
          "equals": "1.7.10"
        }
      ]
    },
    {
      "version": "1.7.2_05",
      "type": "snapshot",
      "releaseTime": "2014-07-14T16:23:26-0400",
      "sha256": "b125629aff47c72c45caecd78d0580ec2065f7c93c5d9b38a0ff57d2f0400248",
      "recommended": true,
      "requires": [
        {
          "uid": "net.minecraft",
          "equals": "1.7.2"
        }
      ]
    },
    {
      "version": "1.7.2_02",
      "type": "snapshot",
      "releaseTime": "2014-02-07T18:32:43-0500",
      "sha256": "3d2074c8b9b2a111b3acf4f7324375164fa8a6e064813678628b4ff43c44d660",
      "requires": [
        {
          "uid": "net.minecraft",
          "equals": "1.7.2"
        }
      ]
    },
    {
      "version": "1.7.2_03",
      "type": "snapshot",
      "releaseTime": "2014-02-08T15:18:15-0500",
      "sha256": "243625aaf2005f2fa360bcc937682409da7c7541b1450deebe558cf493b11b90",
      "requires": [
        {
          "uid": "net.minecraft",
          "equals": "1.7.2"
        }
      ]
    },
    {
      "version": "1.7.2_04",
      "type": "snapshot",
      "releaseTime": "2014-02-15T13:12:06-0500",
      "sha256": "020cfb026f4c58046df4b4fa6ee803ad5fcba5a536ee1ed29637498cb42d4bee",
      "requires": [
        {
          "uid": "net.minecraft",
          "equals": "1.7.2"
        }
      ]
    },
    {
      "version": "1.8",
      "type": "snapshot",
      "releaseTime": "2016-05-18T11:27:34-0400",
      "sha256": "08600cec58b2812fb786650b7411f7dd644c8b3928c3adc0e1d2b52baefbdf14",
      "recommended": true,
      "requires": [
        {
          "uid": "net.minecraft",
          "equals": "1.8"
        }
      ]
    },
    {
      "version": "1.8.9-SNAPSHOT",
      "type": "snapshot",
      "releaseTime": "2016-04-14T10:35:38-0400",
      "sha256": "e7ae9d611735b86ec2239d2a3f67ea624b16be7d6ed35f68d95d1ca2a705b3da",
      "requires": [
        {
          "uid": "net.minecraft",
          "equals": "1.8.9"
        }
      ]
    },
    {
      "version": "1.9-SNAPSHOT",
      "type": "snapshot",
      "releaseTime": "2016-05-22T15:24:55-0400",
      "sha256": "d995a882fc9768002bbed95b6ad8069bb1bd942730071ecb00459d024c77ad87",
      "requires": [
        {
          "uid": "net.minecraft",
          "equals": "1.9"
        }
      ]
    },
    {
      "version": "1.9.4",
      "type": "snapshot",
      "releaseTime": "2016-11-18T07:26:42-0500",
      "sha256": "a3e09438f8d55839fb0506c3a24b5a645c38679646e2cadd5354650170af9306",
      "recommended": true,
      "requires": [
        {
          "uid": "net.minecraft",
          "equals": "1.9.4"
        }
      ]
    },
    {
      "version": "1.9.4-SNAPSHOT",
      "type": "snapshot",
      "releaseTime": "2016-06-13T12:28:49-0400",
      "sha256": "1ad7cacdec3f2d7b0510d501154ff609d273bdf8c56cd94ca4e3e17221d6b01c",
      "requires": [
        {
          "uid": "net.minecraft",
          "equals": "1.9.4"
        }
      ]
    }
  ]
}